%!PS-Adobe-3.0 EPSF-3.0
%%Creator: (MATLAB, The Mathworks, Inc. Version 9.8.0.1417392 \(R2020a\) Update 4. Operating System: Windows 10)
%%Title: ./main_example_05.eps
%%CreationDate: 2022-09-17T11:32:08
%%Pages: (atend)
%%BoundingBox:    14     1   388   297
%%LanguageLevel: 3
%%EndComments
%%BeginProlog
%%BeginResource: procset (Apache XML Graphics Std ProcSet) 1.2 0
%%Version: 1.2 0
%%Copyright: (Copyright 2001-2003,2010 The Apache Software Foundation. License terms: http://www.apache.org/licenses/LICENSE-2.0)
/bd{bind def}bind def
/ld{load def}bd
/GR/grestore ld
/GS/gsave ld
/RM/rmoveto ld
/C/curveto ld
/t/show ld
/L/lineto ld
/ML/setmiterlimit ld
/CT/concat ld
/f/fill ld
/N/newpath ld
/S/stroke ld
/CC/setcmykcolor ld
/A/ashow ld
/cp/closepath ld
/RC/setrgbcolor ld
/LJ/setlinejoin ld
/GC/setgray ld
/LW/setlinewidth ld
/M/moveto ld
/re {4 2 roll M
1 index 0 rlineto
0 exch rlineto
neg 0 rlineto
cp } bd
/_ctm matrix def
/_tm matrix def
/BT { _ctm currentmatrix pop matrix _tm copy pop 0 0 moveto } bd
/ET { _ctm setmatrix } bd
/iTm { _ctm setmatrix _tm concat } bd
/Tm { _tm astore pop iTm 0 0 moveto } bd
/ux 0.0 def
/uy 0.0 def
/F {
  /Tp exch def
  /Tf exch def
  Tf findfont Tp scalefont setfont
  /cf Tf def  /cs Tp def
} bd
/ULS {currentpoint /uy exch def /ux exch def} bd
/ULE {
  /Tcx currentpoint pop def
  gsave
  newpath
  cf findfont cs scalefont dup
  /FontMatrix get 0 get /Ts exch def /FontInfo get dup
  /UnderlinePosition get Ts mul /To exch def
  /UnderlineThickness get Ts mul /Tt exch def
  ux uy To add moveto  Tcx uy To add lineto
  Tt setlinewidth stroke
  grestore
} bd
/OLE {
  /Tcx currentpoint pop def
  gsave
  newpath
  cf findfont cs scalefont dup
  /FontMatrix get 0 get /Ts exch def /FontInfo get dup
  /UnderlinePosition get Ts mul /To exch def
  /UnderlineThickness get Ts mul /Tt exch def
  ux uy To add cs add moveto Tcx uy To add cs add lineto
  Tt setlinewidth stroke
  grestore
} bd
/SOE {
  /Tcx currentpoint pop def
  gsave
  newpath
  cf findfont cs scalefont dup
  /FontMatrix get 0 get /Ts exch def /FontInfo get dup
  /UnderlinePosition get Ts mul /To exch def
  /UnderlineThickness get Ts mul /Tt exch def
  ux uy To add cs 10 mul 26 idiv add moveto Tcx uy To add cs 10 mul 26 idiv add lineto
  Tt setlinewidth stroke
  grestore
} bd
/QT {
/Y22 exch store
/X22 exch store
/Y21 exch store
/X21 exch store
currentpoint
/Y21 load 2 mul add 3 div exch
/X21 load 2 mul add 3 div exch
/X21 load 2 mul /X22 load add 3 div
/Y21 load 2 mul /Y22 load add 3 div
/X22 load /Y22 load curveto
} bd
/SSPD {
dup length /d exch dict def
{
/v exch def
/k exch def
currentpagedevice k known {
/cpdv currentpagedevice k get def
v cpdv ne {
/upd false def
/nullv v type /nulltype eq def
/nullcpdv cpdv type /nulltype eq def
nullv nullcpdv or
{
/upd true def
} {
/sametype v type cpdv type eq def
sametype {
v type /arraytype eq {
/vlen v length def
/cpdvlen cpdv length def
vlen cpdvlen eq {
0 1 vlen 1 sub {
/i exch def
/obj v i get def
/cpdobj cpdv i get def
obj cpdobj ne {
/upd true def
exit
} if
} for
} {
/upd true def
} ifelse
} {
v type /dicttype eq {
v {
/dv exch def
/dk exch def
/cpddv cpdv dk get def
dv cpddv ne {
/upd true def
exit
} if
} forall
} {
/upd true def
} ifelse
} ifelse
} if
} ifelse
upd true eq {
d k v put
} if
} if
} if
} forall
d length 0 gt {
d setpagedevice
} if
} bd
/RE { % /NewFontName [NewEncodingArray] /FontName RE -
  findfont dup length dict begin
  {
    1 index /FID ne
    {def} {pop pop} ifelse
  } forall
  /Encoding exch def
  /FontName 1 index def
  currentdict definefont pop
  end
} bind def
%%EndResource
%%BeginResource: procset (Apache XML Graphics EPS ProcSet) 1.0 0
%%Version: 1.0 0
%%Copyright: (Copyright 2002-2003 The Apache Software Foundation. License terms: http://www.apache.org/licenses/LICENSE-2.0)
/BeginEPSF { %def
/b4_Inc_state save def         % Save state for cleanup
/dict_count countdictstack def % Count objects on dict stack
/op_count count 1 sub def      % Count objects on operand stack
userdict begin                 % Push userdict on dict stack
/showpage { } def              % Redefine showpage, { } = null proc
0 setgray 0 setlinecap         % Prepare graphics state
1 setlinewidth 0 setlinejoin
10 setmiterlimit [ ] 0 setdash newpath
/languagelevel where           % If level not equal to 1 then
{pop languagelevel             % set strokeadjust and
1 ne                           % overprint to their defaults.
{false setstrokeadjust false setoverprint
} if
} if
} bd
/EndEPSF { %def
count op_count sub {pop} repeat            % Clean up stacks
countdictstack dict_count sub {end} repeat
b4_Inc_state restore
} bd
%%EndResource
%FOPBeginFontDict
%%IncludeResource: font Courier-Oblique
%%IncludeResource: font Courier-BoldOblique
%%IncludeResource: font Courier-Bold
%%IncludeResource: font ZapfDingbats
%%IncludeResource: font Symbol
%%IncludeResource: font Helvetica
%%IncludeResource: font Helvetica-Oblique
%%IncludeResource: font Helvetica-Bold
%%IncludeResource: font Helvetica-BoldOblique
%%IncludeResource: font Times-Roman
%%IncludeResource: font Times-Italic
%%IncludeResource: font Times-Bold
%%IncludeResource: font Times-BoldItalic
%%IncludeResource: font Courier
%FOPEndFontDict
%%BeginResource: encoding WinAnsiEncoding
/WinAnsiEncoding [
/.notdef /.notdef /.notdef /.notdef /.notdef
/.notdef /.notdef /.notdef /.notdef /.notdef
/.notdef /.notdef /.notdef /.notdef /.notdef
/.notdef /.notdef /.notdef /.notdef /.notdef
/.notdef /.notdef /.notdef /.notdef /.notdef
/.notdef /.notdef /.notdef /.notdef /.notdef
/.notdef /.notdef /space /exclam /quotedbl
/numbersign /dollar /percent /ampersand /quotesingle
/parenleft /parenright /asterisk /plus /comma
/hyphen /period /slash /zero /one
/two /three /four /five /six
/seven /eight /nine /colon /semicolon
/less /equal /greater /question /at
/A /B /C /D /E
/F /G /H /I /J
/K /L /M /N /O
/P /Q /R /S /T
/U /V /W /X /Y
/Z /bracketleft /backslash /bracketright /asciicircum
/underscore /quoteleft /a /b /c
/d /e /f /g /h
/i /j /k /l /m
/n /o /p /q /r
/s /t /u /v /w
/x /y /z /braceleft /bar
/braceright /asciitilde /bullet /Euro /bullet
/quotesinglbase /florin /quotedblbase /ellipsis /dagger
/daggerdbl /circumflex /perthousand /Scaron /guilsinglleft
/OE /bullet /Zcaron /bullet /bullet
/quoteleft /quoteright /quotedblleft /quotedblright /bullet
/endash /emdash /asciitilde /trademark /scaron
/guilsinglright /oe /bullet /zcaron /Ydieresis
/space /exclamdown /cent /sterling /currency
/yen /brokenbar /section /dieresis /copyright
/ordfeminine /guillemotleft /logicalnot /sfthyphen /registered
/macron /degree /plusminus /twosuperior /threesuperior
/acute /mu /paragraph /middot /cedilla
/onesuperior /ordmasculine /guillemotright /onequarter /onehalf
/threequarters /questiondown /Agrave /Aacute /Acircumflex
/Atilde /Adieresis /Aring /AE /Ccedilla
/Egrave /Eacute /Ecircumflex /Edieresis /Igrave
/Iacute /Icircumflex /Idieresis /Eth /Ntilde
/Ograve /Oacute /Ocircumflex /Otilde /Odieresis
/multiply /Oslash /Ugrave /Uacute /Ucircumflex
/Udieresis /Yacute /Thorn /germandbls /agrave
/aacute /acircumflex /atilde /adieresis /aring
/ae /ccedilla /egrave /eacute /ecircumflex
/edieresis /igrave /iacute /icircumflex /idieresis
/eth /ntilde /ograve /oacute /ocircumflex
/otilde /odieresis /divide /oslash /ugrave
/uacute /ucircumflex /udieresis /yacute /thorn
/ydieresis
] def
%%EndResource
%FOPBeginFontReencode
/Courier-Oblique findfont
dup length dict begin
  {1 index /FID ne {def} {pop pop} ifelse} forall
  /Encoding WinAnsiEncoding def
  currentdict
end
/Courier-Oblique exch definefont pop
/Courier-BoldOblique findfont
dup length dict begin
  {1 index /FID ne {def} {pop pop} ifelse} forall
  /Encoding WinAnsiEncoding def
  currentdict
end
/Courier-BoldOblique exch definefont pop
/Courier-Bold findfont
dup length dict begin
  {1 index /FID ne {def} {pop pop} ifelse} forall
  /Encoding WinAnsiEncoding def
  currentdict
end
/Courier-Bold exch definefont pop
/Helvetica findfont
dup length dict begin
  {1 index /FID ne {def} {pop pop} ifelse} forall
  /Encoding WinAnsiEncoding def
  currentdict
end
/Helvetica exch definefont pop
/Helvetica-Oblique findfont
dup length dict begin
  {1 index /FID ne {def} {pop pop} ifelse} forall
  /Encoding WinAnsiEncoding def
  currentdict
end
/Helvetica-Oblique exch definefont pop
/Helvetica-Bold findfont
dup length dict begin
  {1 index /FID ne {def} {pop pop} ifelse} forall
  /Encoding WinAnsiEncoding def
  currentdict
end
/Helvetica-Bold exch definefont pop
/Helvetica-BoldOblique findfont
dup length dict begin
  {1 index /FID ne {def} {pop pop} ifelse} forall
  /Encoding WinAnsiEncoding def
  currentdict
end
/Helvetica-BoldOblique exch definefont pop
/Times-Roman findfont
dup length dict begin
  {1 index /FID ne {def} {pop pop} ifelse} forall
  /Encoding WinAnsiEncoding def
  currentdict
end
/Times-Roman exch definefont pop
/Times-Italic findfont
dup length dict begin
  {1 index /FID ne {def} {pop pop} ifelse} forall
  /Encoding WinAnsiEncoding def
  currentdict
end
/Times-Italic exch definefont pop
/Times-Bold findfont
dup length dict begin
  {1 index /FID ne {def} {pop pop} ifelse} forall
  /Encoding WinAnsiEncoding def
  currentdict
end
/Times-Bold exch definefont pop
/Times-BoldItalic findfont
dup length dict begin
  {1 index /FID ne {def} {pop pop} ifelse} forall
  /Encoding WinAnsiEncoding def
  currentdict
end
/Times-BoldItalic exch definefont pop
/Courier findfont
dup length dict begin
  {1 index /FID ne {def} {pop pop} ifelse} forall
  /Encoding WinAnsiEncoding def
  currentdict
end
/Courier exch definefont pop
%FOPEndFontReencode
%%EndProlog
%%Page: 1 1
%%PageBoundingBox: 0 0 420 315
%%BeginPageSetup
[1 0 0 -1 0 315] CT
%%EndPageSetup
GS
[0.375 0 0 0.375 0 0] CT
1 GC
N
0 0 1120 840 re
f
GR
GS
[0.375 0 0 0.375 0 0] CT
1 GC
N
0 0 1120 840 re
f
GR
GS
[0.375 0 0 0.375 0 0] CT
1 GC
N
146 745 M
1014 745 L
1014 63 L
146 63 L
cp
f
GR
GS
[0.375 0 0 0.375 0 0] CT
0.775 GC
[1 3] 0 setdash
2 LJ
1.333 LW
N
211.324 745 M
211.324 63 L
S
GR
GS
[0.375 0 0 0.375 0 0] CT
0.775 GC
[1 3] 0 setdash
2 LJ
1.333 LW
N
249.535 745 M
249.535 63 L
S
GR
GS
[0.375 0 0 0.375 0 0] CT
0.775 GC
[1 3] 0 setdash
2 LJ
1.333 LW
N
276.647 745 M
276.647 63 L
S
GR
GS
[0.375 0 0 0.375 0 0] CT
0.775 GC
[1 3] 0 setdash
2 LJ
1.333 LW
N
297.676 745 M
297.676 63 L
S
GR
GS
[0.375 0 0 0.375 0 0] CT
0.775 GC
[1 3] 0 setdash
2 LJ
1.333 LW
N
314.859 745 M
314.859 63 L
S
GR
GS
[0.375 0 0 0.375 0 0] CT
0.775 GC
[1 3] 0 setdash
2 LJ
1.333 LW
N
329.386 745 M
329.386 63 L
S
GR
GS
[0.375 0 0 0.375 0 0] CT
0.775 GC
[1 3] 0 setdash
2 LJ
1.333 LW
N
341.971 745 M
341.971 63 L
S
GR
GS
[0.375 0 0 0.375 0 0] CT
0.775 GC
[1 3] 0 setdash
2 LJ
1.333 LW
N
353.071 745 M
353.071 63 L
S
GR
GS
[0.375 0 0 0.375 0 0] CT
0.775 GC
[1 3] 0 setdash
2 LJ
1.333 LW
N
428.324 745 M
428.324 63 L
S
GR
GS
[0.375 0 0 0.375 0 0] CT
0.775 GC
[1 3] 0 setdash
2 LJ
1.333 LW
N
466.535 745 M
466.535 63 L
S
GR
GS
[0.375 0 0 0.375 0 0] CT
0.775 GC
[1 3] 0 setdash
2 LJ
1.333 LW
N
493.647 745 M
493.647 63 L
S
GR
GS
[0.375 0 0 0.375 0 0] CT
0.775 GC
[1 3] 0 setdash
2 LJ
1.333 LW
N
514.676 745 M
514.676 63 L
S
GR
GS
[0.375 0 0 0.375 0 0] CT
0.775 GC
[1 3] 0 setdash
2 LJ
1.333 LW
N
531.859 745 M
531.859 63 L
S
GR
GS
[0.375 0 0 0.375 0 0] CT
0.775 GC
[1 3] 0 setdash
2 LJ
1.333 LW
N
546.386 745 M
546.386 63 L
S
GR
GS
[0.375 0 0 0.375 0 0] CT
0.775 GC
[1 3] 0 setdash
2 LJ
1.333 LW
N
558.971 745 M
558.971 63 L
S
GR
GS
[0.375 0 0 0.375 0 0] CT
0.775 GC
[1 3] 0 setdash
2 LJ
1.333 LW
N
570.071 745 M
570.071 63 L
S
GR
GS
[0.375 0 0 0.375 0 0] CT
0.775 GC
[1 3] 0 setdash
2 LJ
1.333 LW
N
645.323 745 M
645.323 63 L
S
GR
GS
[0.375 0 0 0.375 0 0] CT
0.775 GC
[1 3] 0 setdash
2 LJ
1.333 LW
N
683.535 745 M
683.535 63 L
S
GR
GS
[0.375 0 0 0.375 0 0] CT
0.775 GC
[1 3] 0 setdash
2 LJ
1.333 LW
N
710.647 745 M
710.647 63 L
S
GR
GS
[0.375 0 0 0.375 0 0] CT
0.775 GC
[1 3] 0 setdash
2 LJ
1.333 LW
N
731.677 745 M
731.677 63 L
S
GR
GS
[0.375 0 0 0.375 0 0] CT
0.775 GC
[1 3] 0 setdash
2 LJ
1.333 LW
N
748.859 745 M
748.859 63 L
S
GR
GS
[0.375 0 0 0.375 0 0] CT
0.775 GC
[1 3] 0 setdash
2 LJ
1.333 LW
N
763.386 745 M
763.386 63 L
S
GR
GS
[0.375 0 0 0.375 0 0] CT
0.775 GC
[1 3] 0 setdash
2 LJ
1.333 LW
N
775.971 745 M
775.971 63 L
S
GR
GS
[0.375 0 0 0.375 0 0] CT
0.775 GC
[1 3] 0 setdash
2 LJ
1.333 LW
N
787.071 745 M
787.071 63 L
S
GR
GS
[0.375 0 0 0.375 0 0] CT
0.775 GC
[1 3] 0 setdash
2 LJ
1.333 LW
N
862.323 745 M
862.323 63 L
S
GR
GS
[0.375 0 0 0.375 0 0] CT
0.775 GC
[1 3] 0 setdash
2 LJ
1.333 LW
N
900.535 745 M
900.535 63 L
S
GR
GS
[0.375 0 0 0.375 0 0] CT
0.775 GC
[1 3] 0 setdash
2 LJ
1.333 LW
N
927.647 745 M
927.647 63 L
S
GR
GS
[0.375 0 0 0.375 0 0] CT
0.775 GC
[1 3] 0 setdash
2 LJ
1.333 LW
N
948.677 745 M
948.677 63 L
S
GR
GS
[0.375 0 0 0.375 0 0] CT
0.775 GC
[1 3] 0 setdash
2 LJ
1.333 LW
N
965.859 745 M
965.859 63 L
S
GR
GS
[0.375 0 0 0.375 0 0] CT
0.775 GC
[1 3] 0 setdash
2 LJ
1.333 LW
N
980.386 745 M
980.386 63 L
S
GR
GS
[0.375 0 0 0.375 0 0] CT
0.775 GC
[1 3] 0 setdash
2 LJ
1.333 LW
N
992.971 745 M
992.971 63 L
S
GR
GS
[0.375 0 0 0.375 0 0] CT
0.775 GC
[1 3] 0 setdash
2 LJ
1.333 LW
N
1004.071 745 M
1004.071 63 L
S
GR
GS
[0.375 0 0 0.375 0 0] CT
0.873 GC
1 LJ
1.333 LW
N
146 745 M
146 63 L
S
GR
GS
[0.375 0 0 0.375 0 0] CT
0.873 GC
1 LJ
1.333 LW
N
363 745 M
363 63 L
S
GR
GS
[0.375 0 0 0.375 0 0] CT
0.873 GC
1 LJ
1.333 LW
N
580 745 M
580 63 L
S
GR
GS
[0.375 0 0 0.375 0 0] CT
0.873 GC
1 LJ
1.333 LW
N
797 745 M
797 63 L
S
GR
GS
[0.375 0 0 0.375 0 0] CT
0.873 GC
1 LJ
1.333 LW
N
1014 745 M
1014 63 L
S
GR
GS
[0.375 0 0 0.375 0 0] CT
0.873 GC
1 LJ
1.333 LW
N
1014 745 M
146 745 L
S
GR
GS
[0.375 0 0 0.375 0 0] CT
0.873 GC
1 LJ
1.333 LW
N
1014 669.222 M
146 669.222 L
S
GR
GS
[0.375 0 0 0.375 0 0] CT
0.873 GC
1 LJ
1.333 LW
N
1014 593.444 M
146 593.444 L
S
GR
GS
[0.375 0 0 0.375 0 0] CT
0.873 GC
1 LJ
1.333 LW
N
1014 517.667 M
146 517.667 L
S
GR
GS
[0.375 0 0 0.375 0 0] CT
0.873 GC
1 LJ
1.333 LW
N
1014 441.889 M
146 441.889 L
S
GR
GS
[0.375 0 0 0.375 0 0] CT
0.873 GC
1 LJ
1.333 LW
N
1014 366.111 M
146 366.111 L
S
GR
GS
[0.375 0 0 0.375 0 0] CT
0.873 GC
1 LJ
1.333 LW
N
1014 290.333 M
146 290.333 L
S
GR
GS
[0.375 0 0 0.375 0 0] CT
0.873 GC
1 LJ
1.333 LW
N
1014 214.556 M
146 214.556 L
S
GR
GS
[0.375 0 0 0.375 0 0] CT
0.873 GC
1 LJ
1.333 LW
N
1014 138.778 M
146 138.778 L
S
GR
GS
[0.375 0 0 0.375 0 0] CT
0.873 GC
1 LJ
1.333 LW
N
1014 63 M
146 63 L
S
GR
GS
[0.375 0 0 0.375 0 0] CT
0.149 GC
2 setlinecap
1 LJ
1.333 LW
N
146 745 M
1014 745 L
S
GR
GS
[0.375 0 0 0.375 0 0] CT
0.149 GC
2 setlinecap
1 LJ
1.333 LW
N
146 63 M
1014 63 L
S
GR
GS
[0.375 0 0 0.375 0 0] CT
0.149 GC
2 setlinecap
1 LJ
1.333 LW
N
146 745 M
146 736.32 L
S
GR
GS
[0.375 0 0 0.375 0 0] CT
0.149 GC
2 setlinecap
1 LJ
1.333 LW
N
363 745 M
363 736.32 L
S
GR
GS
[0.375 0 0 0.375 0 0] CT
0.149 GC
2 setlinecap
1 LJ
1.333 LW
N
580 745 M
580 736.32 L
S
GR
GS
[0.375 0 0 0.375 0 0] CT
0.149 GC
2 setlinecap
1 LJ
1.333 LW
N
797 745 M
797 736.32 L
S
GR
GS
[0.375 0 0 0.375 0 0] CT
0.149 GC
2 setlinecap
1 LJ
1.333 LW
N
1014 745 M
1014 736.32 L
S
GR
GS
[0.375 0 0 0.375 0 0] CT
0.149 GC
2 setlinecap
1 LJ
1.333 LW
N
146 63 M
146 71.68 L
S
GR
GS
[0.375 0 0 0.375 0 0] CT
0.149 GC
2 setlinecap
1 LJ
1.333 LW
N
363 63 M
363 71.68 L
S
GR
GS
[0.375 0 0 0.375 0 0] CT
0.149 GC
2 setlinecap
1 LJ
1.333 LW
N
580 63 M
580 71.68 L
S
GR
GS
[0.375 0 0 0.375 0 0] CT
0.149 GC
2 setlinecap
1 LJ
1.333 LW
N
797 63 M
797 71.68 L
S
GR
GS
[0.375 0 0 0.375 0 0] CT
0.149 GC
2 setlinecap
1 LJ
1.333 LW
N
1014 63 M
1014 71.68 L
S
GR
GS
[0.375 0 0 0.375 0 0] CT
0.149 GC
2 setlinecap
1 LJ
1.333 LW
N
146 745 M
146 740.66 L
S
GR
GS
[0.375 0 0 0.375 0 0] CT
0.149 GC
2 setlinecap
1 LJ
1.333 LW
N
211.324 745 M
211.324 740.66 L
S
GR
GS
[0.375 0 0 0.375 0 0] CT
0.149 GC
2 setlinecap
1 LJ
1.333 LW
N
249.535 745 M
249.535 740.66 L
S
GR
GS
[0.375 0 0 0.375 0 0] CT
0.149 GC
2 setlinecap
1 LJ
1.333 LW
N
276.647 745 M
276.647 740.66 L
S
GR
GS
[0.375 0 0 0.375 0 0] CT
0.149 GC
2 setlinecap
1 LJ
1.333 LW
N
297.676 745 M
297.676 740.66 L
S
GR
GS
[0.375 0 0 0.375 0 0] CT
0.149 GC
2 setlinecap
1 LJ
1.333 LW
N
314.859 745 M
314.859 740.66 L
S
GR
GS
[0.375 0 0 0.375 0 0] CT
0.149 GC
2 setlinecap
1 LJ
1.333 LW
N
329.386 745 M
329.386 740.66 L
S
GR
GS
[0.375 0 0 0.375 0 0] CT
0.149 GC
2 setlinecap
1 LJ
1.333 LW
N
341.971 745 M
341.971 740.66 L
S
GR
GS
[0.375 0 0 0.375 0 0] CT
0.149 GC
2 setlinecap
1 LJ
1.333 LW
N
353.071 745 M
353.071 740.66 L
S
GR
GS
[0.375 0 0 0.375 0 0] CT
0.149 GC
2 setlinecap
1 LJ
1.333 LW
N
363 745 M
363 740.66 L
S
GR
GS
[0.375 0 0 0.375 0 0] CT
0.149 GC
2 setlinecap
1 LJ
1.333 LW
N
428.324 745 M
428.324 740.66 L
S
GR
GS
[0.375 0 0 0.375 0 0] CT
0.149 GC
2 setlinecap
1 LJ
1.333 LW
N
466.535 745 M
466.535 740.66 L
S
GR
GS
[0.375 0 0 0.375 0 0] CT
0.149 GC
2 setlinecap
1 LJ
1.333 LW
N
493.647 745 M
493.647 740.66 L
S
GR
GS
[0.375 0 0 0.375 0 0] CT
0.149 GC
2 setlinecap
1 LJ
1.333 LW
N
514.676 745 M
514.676 740.66 L
S
GR
GS
[0.375 0 0 0.375 0 0] CT
0.149 GC
2 setlinecap
1 LJ
1.333 LW
N
531.859 745 M
531.859 740.66 L
S
GR
GS
[0.375 0 0 0.375 0 0] CT
0.149 GC
2 setlinecap
1 LJ
1.333 LW
N
546.386 745 M
546.386 740.66 L
S
GR
GS
[0.375 0 0 0.375 0 0] CT
0.149 GC
2 setlinecap
1 LJ
1.333 LW
N
558.971 745 M
558.971 740.66 L
S
GR
GS
[0.375 0 0 0.375 0 0] CT
0.149 GC
2 setlinecap
1 LJ
1.333 LW
N
570.071 745 M
570.071 740.66 L
S
GR
GS
[0.375 0 0 0.375 0 0] CT
0.149 GC
2 setlinecap
1 LJ
1.333 LW
N
580 745 M
580 740.66 L
S
GR
GS
[0.375 0 0 0.375 0 0] CT
0.149 GC
2 setlinecap
1 LJ
1.333 LW
N
645.323 745 M
645.323 740.66 L
S
GR
GS
[0.375 0 0 0.375 0 0] CT
0.149 GC
2 setlinecap
1 LJ
1.333 LW
N
683.535 745 M
683.535 740.66 L
S
GR
GS
[0.375 0 0 0.375 0 0] CT
0.149 GC
2 setlinecap
1 LJ
1.333 LW
N
710.647 745 M
710.647 740.66 L
S
GR
GS
[0.375 0 0 0.375 0 0] CT
0.149 GC
2 setlinecap
1 LJ
1.333 LW
N
731.677 745 M
731.677 740.66 L
S
GR
GS
[0.375 0 0 0.375 0 0] CT
0.149 GC
2 setlinecap
1 LJ
1.333 LW
N
748.859 745 M
748.859 740.66 L
S
GR
GS
[0.375 0 0 0.375 0 0] CT
0.149 GC
2 setlinecap
1 LJ
1.333 LW
N
763.386 745 M
763.386 740.66 L
S
GR
GS
[0.375 0 0 0.375 0 0] CT
0.149 GC
2 setlinecap
1 LJ
1.333 LW
N
775.971 745 M
775.971 740.66 L
S
GR
GS
[0.375 0 0 0.375 0 0] CT
0.149 GC
2 setlinecap
1 LJ
1.333 LW
N
787.071 745 M
787.071 740.66 L
S
GR
GS
[0.375 0 0 0.375 0 0] CT
0.149 GC
2 setlinecap
1 LJ
1.333 LW
N
797 745 M
797 740.66 L
S
GR
GS
[0.375 0 0 0.375 0 0] CT
0.149 GC
2 setlinecap
1 LJ
1.333 LW
N
862.323 745 M
862.323 740.66 L
S
GR
GS
[0.375 0 0 0.375 0 0] CT
0.149 GC
2 setlinecap
1 LJ
1.333 LW
N
900.535 745 M
900.535 740.66 L
S
GR
GS
[0.375 0 0 0.375 0 0] CT
0.149 GC
2 setlinecap
1 LJ
1.333 LW
N
927.647 745 M
927.647 740.66 L
S
GR
GS
[0.375 0 0 0.375 0 0] CT
0.149 GC
2 setlinecap
1 LJ
1.333 LW
N
948.677 745 M
948.677 740.66 L
S
GR
GS
[0.375 0 0 0.375 0 0] CT
0.149 GC
2 setlinecap
1 LJ
1.333 LW
N
965.859 745 M
965.859 740.66 L
S
GR
GS
[0.375 0 0 0.375 0 0] CT
0.149 GC
2 setlinecap
1 LJ
1.333 LW
N
980.386 745 M
980.386 740.66 L
S
GR
GS
[0.375 0 0 0.375 0 0] CT
0.149 GC
2 setlinecap
1 LJ
1.333 LW
N
992.971 745 M
992.971 740.66 L
S
GR
GS
[0.375 0 0 0.375 0 0] CT
0.149 GC
2 setlinecap
1 LJ
1.333 LW
N
1004.071 745 M
1004.071 740.66 L
S
GR
GS
[0.375 0 0 0.375 0 0] CT
0.149 GC
2 setlinecap
1 LJ
1.333 LW
N
1014 745 M
1014 740.66 L
S
GR
GS
[0.375 0 0 0.375 0 0] CT
0.149 GC
2 setlinecap
1 LJ
1.333 LW
N
146 63 M
146 67.34 L
S
GR
GS
[0.375 0 0 0.375 0 0] CT
0.149 GC
2 setlinecap
1 LJ
1.333 LW
N
211.324 63 M
211.324 67.34 L
S
GR
GS
[0.375 0 0 0.375 0 0] CT
0.149 GC
2 setlinecap
1 LJ
1.333 LW
N
249.535 63 M
249.535 67.34 L
S
GR
GS
[0.375 0 0 0.375 0 0] CT
0.149 GC
2 setlinecap
1 LJ
1.333 LW
N
276.647 63 M
276.647 67.34 L
S
GR
GS
[0.375 0 0 0.375 0 0] CT
0.149 GC
2 setlinecap
1 LJ
1.333 LW
N
297.676 63 M
297.676 67.34 L
S
GR
GS
[0.375 0 0 0.375 0 0] CT
0.149 GC
2 setlinecap
1 LJ
1.333 LW
N
314.859 63 M
314.859 67.34 L
S
GR
GS
[0.375 0 0 0.375 0 0] CT
0.149 GC
2 setlinecap
1 LJ
1.333 LW
N
329.386 63 M
329.386 67.34 L
S
GR
GS
[0.375 0 0 0.375 0 0] CT
0.149 GC
2 setlinecap
1 LJ
1.333 LW
N
341.971 63 M
341.971 67.34 L
S
GR
GS
[0.375 0 0 0.375 0 0] CT
0.149 GC
2 setlinecap
1 LJ
1.333 LW
N
353.071 63 M
353.071 67.34 L
S
GR
GS
[0.375 0 0 0.375 0 0] CT
0.149 GC
2 setlinecap
1 LJ
1.333 LW
N
363 63 M
363 67.34 L
S
GR
GS
[0.375 0 0 0.375 0 0] CT
0.149 GC
2 setlinecap
1 LJ
1.333 LW
N
428.324 63 M
428.324 67.34 L
S
GR
GS
[0.375 0 0 0.375 0 0] CT
0.149 GC
2 setlinecap
1 LJ
1.333 LW
N
466.535 63 M
466.535 67.34 L
S
GR
GS
[0.375 0 0 0.375 0 0] CT
0.149 GC
2 setlinecap
1 LJ
1.333 LW
N
493.647 63 M
493.647 67.34 L
S
GR
GS
[0.375 0 0 0.375 0 0] CT
0.149 GC
2 setlinecap
1 LJ
1.333 LW
N
514.676 63 M
514.676 67.34 L
S
GR
GS
[0.375 0 0 0.375 0 0] CT
0.149 GC
2 setlinecap
1 LJ
1.333 LW
N
531.859 63 M
531.859 67.34 L
S
GR
GS
[0.375 0 0 0.375 0 0] CT
0.149 GC
2 setlinecap
1 LJ
1.333 LW
N
546.386 63 M
546.386 67.34 L
S
GR
GS
[0.375 0 0 0.375 0 0] CT
0.149 GC
2 setlinecap
1 LJ
1.333 LW
N
558.971 63 M
558.971 67.34 L
S
GR
GS
[0.375 0 0 0.375 0 0] CT
0.149 GC
2 setlinecap
1 LJ
1.333 LW
N
570.071 63 M
570.071 67.34 L
S
GR
GS
[0.375 0 0 0.375 0 0] CT
0.149 GC
2 setlinecap
1 LJ
1.333 LW
N
580 63 M
580 67.34 L
S
GR
GS
[0.375 0 0 0.375 0 0] CT
0.149 GC
2 setlinecap
1 LJ
1.333 LW
N
645.323 63 M
645.323 67.34 L
S
GR
GS
[0.375 0 0 0.375 0 0] CT
0.149 GC
2 setlinecap
1 LJ
1.333 LW
N
683.535 63 M
683.535 67.34 L
S
GR
GS
[0.375 0 0 0.375 0 0] CT
0.149 GC
2 setlinecap
1 LJ
1.333 LW
N
710.647 63 M
710.647 67.34 L
S
GR
GS
[0.375 0 0 0.375 0 0] CT
0.149 GC
2 setlinecap
1 LJ
1.333 LW
N
731.677 63 M
731.677 67.34 L
S
GR
GS
[0.375 0 0 0.375 0 0] CT
0.149 GC
2 setlinecap
1 LJ
1.333 LW
N
748.859 63 M
748.859 67.34 L
S
GR
GS
[0.375 0 0 0.375 0 0] CT
0.149 GC
2 setlinecap
1 LJ
1.333 LW
N
763.386 63 M
763.386 67.34 L
S
GR
GS
[0.375 0 0 0.375 0 0] CT
0.149 GC
2 setlinecap
1 LJ
1.333 LW
N
775.971 63 M
775.971 67.34 L
S
GR
GS
[0.375 0 0 0.375 0 0] CT
0.149 GC
2 setlinecap
1 LJ
1.333 LW
N
787.071 63 M
787.071 67.34 L
S
GR
GS
[0.375 0 0 0.375 0 0] CT
0.149 GC
2 setlinecap
1 LJ
1.333 LW
N
797 63 M
797 67.34 L
S
GR
GS
[0.375 0 0 0.375 0 0] CT
0.149 GC
2 setlinecap
1 LJ
1.333 LW
N
862.323 63 M
862.323 67.34 L
S
GR
GS
[0.375 0 0 0.375 0 0] CT
0.149 GC
2 setlinecap
1 LJ
1.333 LW
N
900.535 63 M
900.535 67.34 L
S
GR
GS
[0.375 0 0 0.375 0 0] CT
0.149 GC
2 setlinecap
1 LJ
1.333 LW
N
927.647 63 M
927.647 67.34 L
S
GR
GS
[0.375 0 0 0.375 0 0] CT
0.149 GC
2 setlinecap
1 LJ
1.333 LW
N
948.677 63 M
948.677 67.34 L
S
GR
GS
[0.375 0 0 0.375 0 0] CT
0.149 GC
2 setlinecap
1 LJ
1.333 LW
N
965.859 63 M
965.859 67.34 L
S
GR
GS
[0.375 0 0 0.375 0 0] CT
0.149 GC
2 setlinecap
1 LJ
1.333 LW
N
980.386 63 M
980.386 67.34 L
S
GR
GS
[0.375 0 0 0.375 0 0] CT
0.149 GC
2 setlinecap
1 LJ
1.333 LW
N
992.971 63 M
992.971 67.34 L
S
GR
GS
[0.375 0 0 0.375 0 0] CT
0.149 GC
2 setlinecap
1 LJ
1.333 LW
N
1004.071 63 M
1004.071 67.34 L
S
GR
GS
[0.375 0 0 0.375 0 0] CT
0.149 GC
2 setlinecap
1 LJ
1.333 LW
N
1014 63 M
1014 67.34 L
S
GR
GS
[0.375 0 0 0.375 54.75 283.775] CT
0.149 GC
N
-19.431 26.88 M
-19.431 25.755 L
-15.431 25.755 -15.431 24.739 QT
-15.431 7.942 L
-17.088 8.739 -19.619 8.739 QT
-19.619 7.614 L
-15.697 7.614 -13.697 5.567 QT
-13.244 5.567 L
-13.134 5.567 -13.033 5.653 QT
-12.931 5.739 -12.931 5.849 QT
-12.931 24.739 L
-12.931 25.755 -8.931 25.755 QT
-8.931 26.88 L
-19.431 26.88 L
cp
f
GR
GS
[0.375 0 0 0.375 54.75 283.775] CT
0.149 GC
N
1.6 27.583 M
-2.322 27.583 -3.736 24.356 QT
-5.15 21.13 -5.15 16.677 QT
-5.15 13.896 -4.642 11.442 QT
-4.134 8.989 -2.627 7.278 QT
-1.119 5.567 1.6 5.567 QT
3.709 5.567 5.053 6.599 QT
6.397 7.63 7.1 9.263 QT
7.803 10.896 8.061 12.763 QT
8.319 14.63 8.319 16.677 QT
8.319 19.427 7.811 21.825 QT
7.303 24.224 5.819 25.903 QT
4.334 27.583 1.6 27.583 QT
cp
1.6 26.755 M
3.381 26.755 4.256 24.927 QT
5.131 23.099 5.334 20.88 QT
5.537 18.661 5.537 16.161 QT
5.537 13.755 5.334 11.724 QT
5.131 9.692 4.264 8.044 QT
3.397 6.396 1.6 6.396 QT
-0.213 6.396 -1.088 8.052 QT
-1.963 9.708 -2.166 11.731 QT
-2.369 13.755 -2.369 16.161 QT
-2.369 17.942 -2.283 19.521 QT
-2.197 21.099 -1.822 22.778 QT
-1.447 24.458 -0.611 25.606 QT
0.225 26.755 1.6 26.755 QT
cp
f
GR
GS
[0.375 0 0 0.375 54.75 283.775] CT
0.149 GC
N
15.1 15.752 M
12.397 15.752 11.428 13.533 QT
10.459 11.314 10.459 8.252 QT
10.459 6.345 10.811 4.658 QT
11.163 2.97 12.194 1.791 QT
13.225 0.611 15.1 0.611 QT
16.553 0.611 17.475 1.322 QT
18.397 2.033 18.881 3.158 QT
19.366 4.283 19.545 5.564 QT
19.725 6.845 19.725 8.252 QT
19.725 10.142 19.373 11.791 QT
19.022 13.439 17.998 14.595 QT
16.975 15.752 15.1 15.752 QT
cp
15.1 15.174 M
16.319 15.174 16.92 13.924 QT
17.522 12.674 17.663 11.142 QT
17.803 9.611 17.803 7.892 QT
17.803 6.236 17.663 4.845 QT
17.522 3.455 16.928 2.322 QT
16.334 1.189 15.1 1.189 QT
13.85 1.189 13.248 2.322 QT
12.647 3.455 12.506 4.845 QT
12.366 6.236 12.366 7.892 QT
12.366 9.127 12.428 10.213 QT
12.491 11.299 12.748 12.447 QT
13.006 13.595 13.584 14.385 QT
14.163 15.174 15.1 15.174 QT
cp
f
GR
GS
[0.375 0 0 0.375 136.125 283.775] CT
0.149 GC
N
/f-849884120{-19.431 26.88 M
-19.431 25.755 L
-15.431 25.755 -15.431 24.739 QT
-15.431 7.942 L
-17.088 8.739 -19.619 8.739 QT
-19.619 7.614 L
-15.697 7.614 -13.697 5.567 QT
-13.244 5.567 L
-13.134 5.567 -13.033 5.653 QT
-12.931 5.739 -12.931 5.849 QT
-12.931 24.739 L
-12.931 25.755 -8.931 25.755 QT
-8.931 26.88 L
-19.431 26.88 L
cp}def
f-849884120
f
GR
GS
[0.375 0 0 0.375 136.125 283.775] CT
0.149 GC
N
/f1089622476{1.6 27.583 M
-2.322 27.583 -3.736 24.356 QT
-5.15 21.13 -5.15 16.677 QT
-5.15 13.896 -4.642 11.442 QT
-4.134 8.989 -2.627 7.278 QT
-1.119 5.567 1.6 5.567 QT
3.709 5.567 5.053 6.599 QT
6.397 7.63 7.1 9.263 QT
7.803 10.896 8.061 12.763 QT
8.319 14.63 8.319 16.677 QT
8.319 19.427 7.811 21.825 QT
7.303 24.224 5.819 25.903 QT
4.334 27.583 1.6 27.583 QT
cp
1.6 26.755 M
3.381 26.755 4.256 24.927 QT
5.131 23.099 5.334 20.88 QT
5.537 18.661 5.537 16.161 QT
5.537 13.755 5.334 11.724 QT
5.131 9.692 4.264 8.044 QT
3.397 6.396 1.6 6.396 QT
-0.213 6.396 -1.088 8.052 QT
-1.963 9.708 -2.166 11.731 QT
-2.369 13.755 -2.369 16.161 QT
-2.369 17.942 -2.283 19.521 QT
-2.197 21.099 -1.822 22.778 QT
-1.447 24.458 -0.611 25.606 QT
0.225 26.755 1.6 26.755 QT
cp}def
f1089622476
f
GR
GS
[0.375 0 0 0.375 136.125 283.775] CT
0.149 GC
N
/f-1796517152{11.647 15.267 M
11.647 14.486 L
14.397 14.486 14.397 13.799 QT
14.397 2.252 L
13.256 2.799 11.506 2.799 QT
11.506 2.017 L
14.209 2.017 15.584 0.611 QT
15.897 0.611 L
15.975 0.611 16.045 0.674 QT
16.116 0.736 16.116 0.814 QT
16.116 13.799 L
16.116 14.486 18.866 14.486 QT
18.866 15.267 L
11.647 15.267 L
cp}def
f-1796517152
f
GR
GS
[0.375 0 0 0.375 217.5 283.775] CT
0.149 GC
N
f-849884120
f
GR
GS
[0.375 0 0 0.375 217.5 283.775] CT
0.149 GC
N
f1089622476
f
GR
GS
[0.375 0 0 0.375 217.5 283.775] CT
0.149 GC
N
/f1421475339{10.694 15.267 M
10.694 14.674 L
10.694 14.627 10.741 14.564 QT
14.163 10.783 L
14.928 9.939 15.413 9.369 QT
15.897 8.799 16.366 8.056 QT
16.834 7.314 17.108 6.549 QT
17.381 5.783 17.381 4.924 QT
17.381 4.017 17.053 3.197 QT
16.725 2.377 16.061 1.885 QT
15.397 1.392 14.459 1.392 QT
13.506 1.392 12.748 1.963 QT
11.991 2.533 11.678 3.455 QT
11.756 3.424 11.913 3.424 QT
12.397 3.424 12.748 3.76 QT
13.1 4.095 13.1 4.627 QT
13.1 5.127 12.748 5.478 QT
12.397 5.83 11.913 5.83 QT
11.397 5.83 11.045 5.47 QT
10.694 5.111 10.694 4.627 QT
10.694 3.799 11.006 3.072 QT
11.319 2.345 11.905 1.783 QT
12.491 1.22 13.225 0.916 QT
13.959 0.611 14.788 0.611 QT
16.053 0.611 17.131 1.142 QT
18.209 1.674 18.85 2.65 QT
19.491 3.627 19.491 4.924 QT
19.491 5.877 19.069 6.736 QT
18.647 7.595 17.991 8.299 QT
17.334 9.002 16.311 9.892 QT
15.288 10.783 14.975 11.095 QT
12.475 13.486 L
14.6 13.486 L
16.147 13.486 17.194 13.455 QT
18.241 13.424 18.319 13.377 QT
18.569 13.095 18.834 11.345 QT
19.491 11.345 L
18.866 15.267 L
10.694 15.267 L
cp}def
f1421475339
f
GR
GS
[0.375 0 0 0.375 298.875 283.775] CT
0.149 GC
N
f-849884120
f
GR
GS
[0.375 0 0 0.375 298.875 283.775] CT
0.149 GC
N
f1089622476
f
GR
GS
[0.375 0 0 0.375 298.875 283.775] CT
0.149 GC
N
/f883480188{11.694 13.564 M
12.209 14.314 13.077 14.681 QT
13.944 15.049 14.944 15.049 QT
16.225 15.049 16.764 13.963 QT
17.303 12.877 17.303 11.486 QT
17.303 10.861 17.194 10.236 QT
17.084 9.611 16.811 9.08 QT
16.538 8.549 16.069 8.22 QT
15.6 7.892 14.928 7.892 QT
13.475 7.892 L
13.272 7.892 13.272 7.689 QT
13.272 7.502 L
13.272 7.33 13.475 7.33 QT
14.678 7.236 L
15.459 7.236 15.967 6.65 QT
16.475 6.064 16.709 5.236 QT
16.944 4.408 16.944 3.658 QT
16.944 2.595 16.452 1.924 QT
15.959 1.252 14.944 1.252 QT
14.116 1.252 13.35 1.564 QT
12.584 1.877 12.131 2.533 QT
12.178 2.517 12.209 2.51 QT
12.241 2.502 12.288 2.502 QT
12.788 2.502 13.116 2.845 QT
13.444 3.189 13.444 3.674 QT
13.444 4.142 13.116 4.486 QT
12.788 4.83 12.288 4.83 QT
11.803 4.83 11.459 4.486 QT
11.116 4.142 11.116 3.674 QT
11.116 2.736 11.686 2.033 QT
12.256 1.33 13.155 0.97 QT
14.053 0.611 14.944 0.611 QT
15.616 0.611 16.358 0.814 QT
17.1 1.017 17.702 1.385 QT
18.303 1.752 18.686 2.33 QT
19.069 2.908 19.069 3.658 QT
19.069 4.58 18.655 5.361 QT
18.241 6.142 17.522 6.713 QT
16.803 7.283 15.944 7.564 QT
16.897 7.752 17.756 8.283 QT
18.616 8.814 19.139 9.658 QT
19.663 10.502 19.663 11.47 QT
19.663 12.674 18.991 13.658 QT
18.319 14.642 17.233 15.197 QT
16.147 15.752 14.944 15.752 QT
13.913 15.752 12.881 15.361 QT
11.85 14.97 11.186 14.181 QT
10.522 13.392 10.522 12.299 QT
10.522 11.752 10.889 11.385 QT
11.256 11.017 11.803 11.017 QT
12.163 11.017 12.452 11.189 QT
12.741 11.361 12.913 11.658 QT
13.084 11.955 13.084 12.299 QT
13.084 12.845 12.709 13.205 QT
12.334 13.564 11.803 13.564 QT
11.694 13.564 L
cp}def
f883480188
f
GR
GS
[0.375 0 0 0.375 380.25 283.775] CT
0.149 GC
N
f-849884120
f
GR
GS
[0.375 0 0 0.375 380.25 283.775] CT
0.149 GC
N
f1089622476
f
GR
GS
[0.375 0 0 0.375 380.25 283.775] CT
0.149 GC
N
/f1860572462{10.209 11.642 M
10.209 10.861 L
17.006 0.72 L
17.084 0.611 17.241 0.611 QT
17.553 0.611 L
17.803 0.611 17.803 0.861 QT
17.803 10.861 L
19.959 10.861 L
19.959 11.642 L
17.803 11.642 L
17.803 13.799 L
17.803 14.252 18.452 14.369 QT
19.1 14.486 19.944 14.486 QT
19.944 15.267 L
13.881 15.267 L
13.881 14.486 L
14.741 14.486 15.381 14.369 QT
16.022 14.252 16.022 13.799 QT
16.022 11.642 L
10.209 11.642 L
cp
10.944 10.861 M
16.147 10.861 L
16.147 3.08 L
10.944 10.861 L
cp}def
f1860572462
f
GR
GS
[0.375 0 0 0.375 217.50016 299.175] CT
0.149 GC
N
/f-862288203{-135.733 29.568 M
-135.733 28.333 L
-132.123 28.333 -132.123 27.224 QT
-132.123 8.005 L
-132.123 6.896 -135.733 6.896 QT
-135.733 5.662 L
-122.827 5.662 L
-120.436 5.662 -118.452 6.693 QT
-116.467 7.724 -115.069 9.451 QT
-113.67 11.177 -112.905 13.365 QT
-112.139 15.552 -112.139 17.849 QT
-112.139 20.068 -112.913 22.162 QT
-113.686 24.255 -115.131 25.935 QT
-116.577 27.615 -118.545 28.591 QT
-120.514 29.568 -122.827 29.568 QT
-135.733 29.568 L
cp
-128.983 27.224 M
-128.983 27.974 -128.553 28.154 QT
-128.123 28.333 -127.202 28.333 QT
-123.733 28.333 L
-121.936 28.333 -120.319 27.56 QT
-118.702 26.787 -117.639 25.396 QT
-116.53 23.927 -116.155 22.107 QT
-115.78 20.287 -115.78 17.849 QT
-115.78 15.302 -116.155 13.388 QT
-116.53 11.474 -117.639 9.958 QT
-118.686 8.474 -120.295 7.685 QT
-121.905 6.896 -123.733 6.896 QT
-127.202 6.896 L
-127.827 6.896 -128.178 6.943 QT
-128.53 6.99 -128.756 7.24 QT
-128.983 7.49 -128.983 8.005 QT
-128.983 27.224 L
cp}def
f-862288203
f
GR
GS
[0.375 0 0 0.375 217.50016 299.175] CT
0.149 GC
N
/f252025761{-108.922 29.568 M
-108.922 28.333 L
-107.735 28.333 -106.961 28.146 QT
-106.188 27.958 -106.188 27.224 QT
-106.188 17.677 L
-106.188 16.318 -106.711 16.013 QT
-107.235 15.708 -108.766 15.708 QT
-108.766 14.474 L
-103.735 14.099 L
-103.735 27.224 L
-103.735 27.958 -103.063 28.146 QT
-102.391 28.333 -101.281 28.333 QT
-101.281 29.568 L
-108.922 29.568 L
cp
-107.438 8.083 M
-107.438 7.318 -106.86 6.74 QT
-106.281 6.162 -105.516 6.162 QT
-105.031 6.162 -104.57 6.412 QT
-104.11 6.662 -103.852 7.123 QT
-103.594 7.583 -103.594 8.083 QT
-103.594 8.833 -104.172 9.419 QT
-104.75 10.005 -105.516 10.005 QT
-106.281 10.005 -106.86 9.419 QT
-107.438 8.833 -107.438 8.083 QT
cp}def
f252025761
f
GR
GS
[0.375 0 0 0.375 217.50016 299.175] CT
0.149 GC
N
/f714905794{-99.066 29.677 M
-99.066 23.958 L
-99.066 23.693 -98.754 23.693 QT
-98.332 23.693 L
-98.113 23.693 -98.05 23.958 QT
-97.082 29.037 -93.332 29.037 QT
-91.675 29.037 -90.558 28.287 QT
-89.441 27.537 -89.441 25.958 QT
-89.441 24.833 -90.308 24.037 QT
-91.175 23.24 -92.379 22.958 QT
-94.722 22.49 L
-95.894 22.24 -96.863 21.708 QT
-97.832 21.177 -98.449 20.294 QT
-99.066 19.412 -99.066 18.255 QT
-99.066 16.708 -98.254 15.732 QT
-97.441 14.755 -96.136 14.318 QT
-94.832 13.88 -93.332 13.88 QT
-91.535 13.88 -90.207 14.833 QT
-89.207 13.958 L
-89.207 13.88 -89.035 13.88 QT
-88.769 13.88 L
-88.675 13.88 -88.59 13.974 QT
-88.504 14.068 -88.504 14.177 QT
-88.504 18.755 L
-88.504 19.068 -88.769 19.068 QT
-89.207 19.068 L
-89.504 19.068 -89.504 18.755 QT
-89.504 16.927 -90.519 15.81 QT
-91.535 14.693 -93.363 14.693 QT
-94.941 14.693 -96.097 15.279 QT
-97.254 15.865 -97.254 17.287 QT
-97.254 18.255 -96.425 18.88 QT
-95.597 19.505 -94.472 19.771 QT
-92.097 20.224 L
-90.91 20.49 -89.879 21.138 QT
-88.847 21.787 -88.238 22.779 QT
-87.629 23.771 -87.629 25.021 QT
-87.629 26.287 -88.066 27.216 QT
-88.504 28.146 -89.277 28.763 QT
-90.05 29.38 -91.113 29.669 QT
-92.175 29.958 -93.332 29.958 QT
-95.519 29.958 -97.082 28.49 QT
-98.363 29.88 L
-98.363 29.958 -98.55 29.958 QT
-98.754 29.958 L
-99.066 29.958 -99.066 29.677 QT
cp}def
f714905794
f
GR
GS
[0.375 0 0 0.375 217.50016 299.175] CT
0.149 GC
N
/f-1819557237{-82.76 25.365 M
-82.76 15.708 L
-85.666 15.708 L
-85.666 14.802 L
-83.385 14.802 -82.307 12.669 QT
-81.229 10.537 -81.229 8.037 QT
-80.213 8.037 L
-80.213 14.474 L
-75.275 14.474 L
-75.275 15.708 L
-80.213 15.708 L
-80.213 25.302 L
-80.213 26.755 -79.729 27.849 QT
-79.244 28.943 -77.979 28.943 QT
-76.791 28.943 -76.26 27.787 QT
-75.729 26.63 -75.729 25.302 QT
-75.729 23.224 L
-74.713 23.224 L
-74.713 25.365 L
-74.713 26.458 -75.119 27.529 QT
-75.525 28.599 -76.307 29.279 QT
-77.088 29.958 -78.213 29.958 QT
-80.322 29.958 -81.541 28.701 QT
-82.76 27.443 -82.76 25.365 QT
cp}def
f-1819557237
f
GR
GS
[0.375 0 0 0.375 217.50016 299.175] CT
0.149 GC
N
/f1825610765{-71.243 26.13 M
-71.243 24.052 -69.602 22.74 QT
-67.961 21.427 -65.665 20.888 QT
-63.368 20.349 -61.305 20.349 QT
-61.305 18.927 L
-61.305 17.912 -61.751 16.966 QT
-62.196 16.021 -63.032 15.412 QT
-63.868 14.802 -64.868 14.802 QT
-67.196 14.802 -68.415 15.849 QT
-67.743 15.849 -67.305 16.349 QT
-66.868 16.849 -66.868 17.521 QT
-66.868 18.224 -67.368 18.716 QT
-67.868 19.208 -68.54 19.208 QT
-69.243 19.208 -69.743 18.716 QT
-70.243 18.224 -70.243 17.521 QT
-70.243 15.677 -68.563 14.779 QT
-66.883 13.88 -64.868 13.88 QT
-63.461 13.88 -62.024 14.49 QT
-60.586 15.099 -59.672 16.224 QT
-58.758 17.349 -58.758 18.849 QT
-58.758 26.724 L
-58.758 27.412 -58.469 27.982 QT
-58.18 28.552 -57.555 28.552 QT
-56.977 28.552 -56.696 27.974 QT
-56.415 27.396 -56.415 26.724 QT
-56.415 24.49 L
-55.383 24.49 L
-55.383 26.724 L
-55.383 27.521 -55.797 28.232 QT
-56.211 28.943 -56.899 29.357 QT
-57.586 29.771 -58.399 29.771 QT
-59.415 29.771 -60.165 28.974 QT
-60.915 28.177 -60.993 27.083 QT
-61.649 28.412 -62.907 29.185 QT
-64.165 29.958 -65.602 29.958 QT
-66.946 29.958 -68.235 29.568 QT
-69.524 29.177 -70.383 28.333 QT
-71.243 27.49 -71.243 26.13 QT
cp
-68.415 26.13 M
-68.415 27.365 -67.508 28.201 QT
-66.602 29.037 -65.368 29.037 QT
-64.243 29.037 -63.321 28.474 QT
-62.399 27.912 -61.852 26.935 QT
-61.305 25.958 -61.305 24.88 QT
-61.305 21.24 L
-62.883 21.24 -64.555 21.763 QT
-66.227 22.287 -67.321 23.396 QT
-68.415 24.505 -68.415 26.13 QT
cp}def
f1825610765
f
GR
GS
[0.375 0 0 0.375 217.50016 299.175] CT
0.149 GC
N
/f1775862124{-54.002 29.568 M
-54.002 28.333 L
-52.815 28.333 -52.041 28.146 QT
-51.268 27.958 -51.268 27.224 QT
-51.268 17.677 L
-51.268 16.74 -51.549 16.318 QT
-51.83 15.896 -52.361 15.802 QT
-52.893 15.708 -54.002 15.708 QT
-54.002 14.474 L
-48.924 14.099 L
-48.924 17.521 L
-48.236 16.021 -46.854 15.06 QT
-45.471 14.099 -43.861 14.099 QT
-41.424 14.099 -40.205 15.263 QT
-38.986 16.427 -38.986 18.818 QT
-38.986 27.224 L
-38.986 27.958 -38.213 28.146 QT
-37.44 28.333 -36.252 28.333 QT
-36.252 29.568 L
-44.268 29.568 L
-44.268 28.333 L
-43.065 28.333 -42.299 28.146 QT
-41.533 27.958 -41.533 27.224 QT
-41.533 18.927 L
-41.533 17.208 -42.025 16.107 QT
-42.518 15.005 -44.065 15.005 QT
-46.096 15.005 -47.4 16.63 QT
-48.705 18.255 -48.705 20.318 QT
-48.705 27.224 L
-48.705 27.958 -47.94 28.146 QT
-47.174 28.333 -45.986 28.333 QT
-45.986 29.568 L
-54.002 29.568 L
cp}def
f1775862124
f
GR
GS
[0.375 0 0 0.375 217.50016 299.175] CT
0.149 GC
N
/f1458560388{-26.775 29.958 M
-28.9 29.958 -30.626 28.857 QT
-32.353 27.755 -33.345 25.919 QT
-34.337 24.083 -34.337 22.021 QT
-34.337 19.943 -33.353 18.044 QT
-32.368 16.146 -30.634 15.013 QT
-28.9 13.88 -26.775 13.88 QT
-24.728 13.88 -23.04 14.685 QT
-21.353 15.49 -21.353 17.318 QT
-21.353 18.005 -21.845 18.505 QT
-22.337 19.005 -23.04 19.005 QT
-23.728 19.005 -24.22 18.505 QT
-24.712 18.005 -24.712 17.318 QT
-24.712 16.693 -24.321 16.24 QT
-23.931 15.787 -23.337 15.677 QT
-24.556 14.912 -26.743 14.912 QT
-28.415 14.912 -29.439 16.021 QT
-30.462 17.13 -30.876 18.771 QT
-31.29 20.412 -31.29 22.021 QT
-31.29 23.708 -30.782 25.287 QT
-30.275 26.865 -29.157 27.904 QT
-28.04 28.943 -26.353 28.943 QT
-24.696 28.943 -23.532 27.919 QT
-22.368 26.896 -21.946 25.255 QT
-21.946 25.052 -21.665 25.052 QT
-21.243 25.052 L
-21.134 25.052 -21.048 25.146 QT
-20.962 25.24 -20.962 25.365 QT
-20.962 25.458 L
-21.493 27.537 -23.064 28.748 QT
-24.634 29.958 -26.775 29.958 QT
cp}def
f1458560388
f
GR
GS
[0.375 0 0 0.375 217.50016 299.175] CT
0.149 GC
N
/f766164251{-11.13 29.958 M
-13.271 29.958 -15.052 28.841 QT
-16.833 27.724 -17.857 25.849 QT
-18.88 23.974 -18.88 21.896 QT
-18.88 19.849 -17.943 17.998 QT
-17.005 16.146 -15.341 15.013 QT
-13.677 13.88 -11.63 13.88 QT
-10.021 13.88 -8.833 14.419 QT
-7.646 14.958 -6.88 15.912 QT
-6.115 16.865 -5.716 18.169 QT
-5.318 19.474 -5.318 21.021 QT
-5.318 21.49 -5.677 21.49 QT
-15.818 21.49 L
-15.818 21.865 L
-15.818 24.771 -14.646 26.857 QT
-13.474 28.943 -10.818 28.943 QT
-9.755 28.943 -8.841 28.458 QT
-7.927 27.974 -7.247 27.123 QT
-6.568 26.271 -6.333 25.302 QT
-6.302 25.177 -6.208 25.083 QT
-6.115 24.99 -5.99 24.99 QT
-5.677 24.99 L
-5.318 24.99 -5.318 25.427 QT
-5.818 27.412 -7.458 28.685 QT
-9.099 29.958 -11.13 29.958 QT
cp
-15.786 20.615 M
-7.802 20.615 L
-7.802 19.302 -8.169 17.951 QT
-8.536 16.599 -9.388 15.701 QT
-10.24 14.802 -11.63 14.802 QT
-13.615 14.802 -14.7 16.654 QT
-15.786 18.505 -15.786 20.615 QT
cp}def
f766164251
f
GR
GS
[0.375 0 0 0.375 217.50016 299.175] CT
0.149 GC
N
/f-2087843246{18.388 38.255 M
16.435 36.708 15.021 34.716 QT
13.607 32.724 12.716 30.474 QT
11.826 28.224 11.38 25.763 QT
10.935 23.302 10.935 20.818 QT
10.935 18.302 11.38 15.841 QT
11.826 13.38 12.74 11.107 QT
13.654 8.833 15.068 6.857 QT
16.482 4.88 18.388 3.38 QT
18.388 3.318 18.545 3.318 QT
18.873 3.318 L
18.982 3.318 19.068 3.412 QT
19.154 3.505 19.154 3.63 QT
19.154 3.787 19.076 3.849 QT
17.373 5.521 16.24 7.435 QT
15.107 9.349 14.412 11.513 QT
13.716 13.677 13.412 15.99 QT
13.107 18.302 13.107 20.818 QT
13.107 31.943 19.045 37.724 QT
19.154 37.818 19.154 38.005 QT
19.154 38.099 19.06 38.208 QT
18.966 38.318 18.873 38.318 QT
18.545 38.318 L
18.388 38.318 18.388 38.255 QT
cp}def
f-2087843246
f
GR
GS
[0.375 0 0 0.375 217.50016 299.175] CT
0.149 GC
N
/f2100185686{22.265 29.568 M
22.265 28.333 L
23.452 28.333 24.226 28.146 QT
24.999 27.958 24.999 27.224 QT
24.999 17.677 L
24.999 16.74 24.718 16.318 QT
24.437 15.896 23.905 15.802 QT
23.374 15.708 22.265 15.708 QT
22.265 14.474 L
27.343 14.099 L
27.343 17.521 L
28.03 16.021 29.413 15.06 QT
30.796 14.099 32.405 14.099 QT
36.452 14.099 37.14 17.38 QT
37.843 15.912 39.194 15.005 QT
40.546 14.099 42.155 14.099 QT
43.749 14.099 44.827 14.615 QT
45.905 15.13 46.452 16.177 QT
46.999 17.224 46.999 18.818 QT
46.999 27.224 L
46.999 27.958 47.78 28.146 QT
48.562 28.333 49.733 28.333 QT
49.733 29.568 L
41.733 29.568 L
41.733 28.333 L
42.921 28.333 43.694 28.146 QT
44.468 27.958 44.468 27.224 QT
44.468 18.927 L
44.468 17.162 43.968 16.083 QT
43.468 15.005 41.937 15.005 QT
39.921 15.005 38.601 16.63 QT
37.28 18.255 37.28 20.318 QT
37.28 27.224 L
37.28 27.958 38.054 28.146 QT
38.827 28.333 40.015 28.333 QT
40.015 29.568 L
31.999 29.568 L
31.999 28.333 L
33.202 28.333 33.968 28.146 QT
34.733 27.958 34.733 27.224 QT
34.733 18.927 L
34.733 17.208 34.241 16.107 QT
33.749 15.005 32.202 15.005 QT
30.171 15.005 28.866 16.63 QT
27.562 18.255 27.562 20.318 QT
27.562 27.224 L
27.562 27.958 28.327 28.146 QT
29.093 28.333 30.28 28.333 QT
30.28 29.568 L
22.265 29.568 L
cp}def
f2100185686
f
GR
GS
[0.375 0 0 0.375 217.50016 299.175] CT
0.149 GC
N
/f1109244312{59.27 29.958 M
57.129 29.958 55.348 28.841 QT
53.567 27.724 52.543 25.849 QT
51.52 23.974 51.52 21.896 QT
51.52 19.849 52.457 17.998 QT
53.395 16.146 55.059 15.013 QT
56.723 13.88 58.77 13.88 QT
60.379 13.88 61.567 14.419 QT
62.754 14.958 63.52 15.912 QT
64.286 16.865 64.684 18.169 QT
65.082 19.474 65.082 21.021 QT
65.082 21.49 64.723 21.49 QT
54.582 21.49 L
54.582 21.865 L
54.582 24.771 55.754 26.857 QT
56.926 28.943 59.582 28.943 QT
60.645 28.943 61.559 28.458 QT
62.473 27.974 63.153 27.123 QT
63.832 26.271 64.067 25.302 QT
64.098 25.177 64.192 25.083 QT
64.286 24.99 64.411 24.99 QT
64.723 24.99 L
65.082 24.99 65.082 25.427 QT
64.582 27.412 62.942 28.685 QT
61.301 29.958 59.27 29.958 QT
cp
54.614 20.615 M
62.598 20.615 L
62.598 19.302 62.231 17.951 QT
61.864 16.599 61.012 15.701 QT
60.161 14.802 58.77 14.802 QT
56.786 14.802 55.7 16.654 QT
54.614 18.505 54.614 20.615 QT
cp}def
f1109244312
f
GR
GS
[0.375 0 0 0.375 217.50016 299.175] CT
0.149 GC
N
/f-2120594809{69.774 25.365 M
69.774 15.708 L
66.868 15.708 L
66.868 14.802 L
69.149 14.802 70.227 12.669 QT
71.305 10.537 71.305 8.037 QT
72.321 8.037 L
72.321 14.474 L
77.258 14.474 L
77.258 15.708 L
72.321 15.708 L
72.321 25.302 L
72.321 26.755 72.805 27.849 QT
73.289 28.943 74.555 28.943 QT
75.743 28.943 76.274 27.787 QT
76.805 26.63 76.805 25.302 QT
76.805 23.224 L
77.821 23.224 L
77.821 25.365 L
77.821 26.458 77.414 27.529 QT
77.008 28.599 76.227 29.279 QT
75.446 29.958 74.321 29.958 QT
72.211 29.958 70.993 28.701 QT
69.774 27.443 69.774 25.365 QT
cp}def
f-2120594809
f
GR
GS
[0.375 0 0 0.375 217.50016 299.175] CT
0.149 GC
N
/f2030342496{88.603 29.958 M
86.463 29.958 84.681 28.841 QT
82.9 27.724 81.877 25.849 QT
80.853 23.974 80.853 21.896 QT
80.853 19.849 81.791 17.998 QT
82.728 16.146 84.392 15.013 QT
86.056 13.88 88.103 13.88 QT
89.713 13.88 90.9 14.419 QT
92.088 14.958 92.853 15.912 QT
93.619 16.865 94.017 18.169 QT
94.416 19.474 94.416 21.021 QT
94.416 21.49 94.056 21.49 QT
83.916 21.49 L
83.916 21.865 L
83.916 24.771 85.088 26.857 QT
86.26 28.943 88.916 28.943 QT
89.978 28.943 90.892 28.458 QT
91.806 27.974 92.486 27.123 QT
93.166 26.271 93.4 25.302 QT
93.431 25.177 93.525 25.083 QT
93.619 24.99 93.744 24.99 QT
94.056 24.99 L
94.416 24.99 94.416 25.427 QT
93.916 27.412 92.275 28.685 QT
90.635 29.958 88.603 29.958 QT
cp
83.947 20.615 M
91.931 20.615 L
91.931 19.302 91.564 17.951 QT
91.197 16.599 90.346 15.701 QT
89.494 14.802 88.103 14.802 QT
86.119 14.802 85.033 16.654 QT
83.947 18.505 83.947 20.615 QT
cp}def
f2030342496
f
GR
GS
[0.375 0 0 0.375 217.50016 299.175] CT
0.149 GC
N
/f1757274366{96.435 29.568 M
96.435 28.333 L
97.638 28.333 98.404 28.146 QT
99.17 27.958 99.17 27.224 QT
99.17 17.677 L
99.17 16.74 98.888 16.318 QT
98.607 15.896 98.076 15.802 QT
97.545 15.708 96.435 15.708 QT
96.435 14.474 L
101.435 14.099 L
101.435 17.521 L
102.013 16.005 103.052 15.052 QT
104.092 14.099 105.576 14.099 QT
106.623 14.099 107.443 14.716 QT
108.263 15.333 108.263 16.333 QT
108.263 16.974 107.81 17.443 QT
107.357 17.912 106.685 17.912 QT
106.045 17.912 105.584 17.451 QT
105.123 16.99 105.123 16.333 QT
105.123 15.396 105.779 15.005 QT
105.576 15.005 L
104.154 15.005 103.263 16.029 QT
102.373 17.052 101.99 18.576 QT
101.607 20.099 101.607 21.49 QT
101.607 27.224 L
101.607 28.333 105.013 28.333 QT
105.013 29.568 L
96.435 29.568 L
cp}def
f1757274366
f
GR
GS
[0.375 0 0 0.375 217.50016 299.175] CT
0.149 GC
N
/f-786385650{110.472 29.677 M
110.472 23.958 L
110.472 23.693 110.784 23.693 QT
111.206 23.693 L
111.425 23.693 111.488 23.958 QT
112.456 29.037 116.206 29.037 QT
117.863 29.037 118.98 28.287 QT
120.097 27.537 120.097 25.958 QT
120.097 24.833 119.23 24.037 QT
118.363 23.24 117.159 22.958 QT
114.816 22.49 L
113.644 22.24 112.675 21.708 QT
111.706 21.177 111.089 20.294 QT
110.472 19.412 110.472 18.255 QT
110.472 16.708 111.284 15.732 QT
112.097 14.755 113.402 14.318 QT
114.706 13.88 116.206 13.88 QT
118.003 13.88 119.331 14.833 QT
120.331 13.958 L
120.331 13.88 120.503 13.88 QT
120.769 13.88 L
120.863 13.88 120.949 13.974 QT
121.034 14.068 121.034 14.177 QT
121.034 18.755 L
121.034 19.068 120.769 19.068 QT
120.331 19.068 L
120.034 19.068 120.034 18.755 QT
120.034 16.927 119.019 15.81 QT
118.003 14.693 116.175 14.693 QT
114.597 14.693 113.441 15.279 QT
112.284 15.865 112.284 17.287 QT
112.284 18.255 113.113 18.88 QT
113.941 19.505 115.066 19.771 QT
117.441 20.224 L
118.628 20.49 119.659 21.138 QT
120.691 21.787 121.3 22.779 QT
121.909 23.771 121.909 25.021 QT
121.909 26.287 121.472 27.216 QT
121.034 28.146 120.261 28.763 QT
119.488 29.38 118.425 29.669 QT
117.363 29.958 116.206 29.958 QT
114.019 29.958 112.456 28.49 QT
111.175 29.88 L
111.175 29.958 110.988 29.958 QT
110.784 29.958 L
110.472 29.958 110.472 29.677 QT
cp}def
f-786385650
f
GR
GS
[0.375 0 0 0.375 217.50016 299.175] CT
0.149 GC
N
/f-363359303{125.466 38.318 M
125.169 38.318 125.169 38.005 QT
125.169 37.849 125.231 37.787 QT
131.216 31.943 131.216 20.818 QT
131.216 9.693 125.31 3.912 QT
125.169 3.833 125.169 3.63 QT
125.169 3.505 125.263 3.412 QT
125.356 3.318 125.466 3.318 QT
125.794 3.318 L
125.903 3.318 125.966 3.38 QT
128.481 5.365 130.153 8.201 QT
131.825 11.037 132.606 14.255 QT
133.388 17.474 133.388 20.818 QT
133.388 23.302 132.966 25.701 QT
132.544 28.099 131.63 30.435 QT
130.716 32.771 129.317 34.74 QT
127.919 36.708 125.966 38.255 QT
125.903 38.318 125.794 38.318 QT
125.466 38.318 L
cp}def
f-363359303
f
GR
GS
[0.375 0 0 0.375 0 0] CT
0.149 GC
2 setlinecap
1 LJ
1.333 LW
N
146 745 M
146 63 L
S
GR
GS
[0.375 0 0 0.375 0 0] CT
0.149 GC
2 setlinecap
1 LJ
1.333 LW
N
1014 745 M
1014 63 L
S
GR
GS
[0.375 0 0 0.375 0 0] CT
0.149 GC
2 setlinecap
1 LJ
1.333 LW
N
146 745 M
154.68 745 L
S
GR
GS
[0.375 0 0 0.375 0 0] CT
0.149 GC
2 setlinecap
1 LJ
1.333 LW
N
146 669.222 M
154.68 669.222 L
S
GR
GS
[0.375 0 0 0.375 0 0] CT
0.149 GC
2 setlinecap
1 LJ
1.333 LW
N
146 593.444 M
154.68 593.444 L
S
GR
GS
[0.375 0 0 0.375 0 0] CT
0.149 GC
2 setlinecap
1 LJ
1.333 LW
N
146 517.667 M
154.68 517.667 L
S
GR
GS
[0.375 0 0 0.375 0 0] CT
0.149 GC
2 setlinecap
1 LJ
1.333 LW
N
146 441.889 M
154.68 441.889 L
S
GR
GS
[0.375 0 0 0.375 0 0] CT
0.149 GC
2 setlinecap
1 LJ
1.333 LW
N
146 366.111 M
154.68 366.111 L
S
GR
GS
[0.375 0 0 0.375 0 0] CT
0.149 GC
2 setlinecap
1 LJ
1.333 LW
N
146 290.333 M
154.68 290.333 L
S
GR
GS
[0.375 0 0 0.375 0 0] CT
0.149 GC
2 setlinecap
1 LJ
1.333 LW
N
146 214.556 M
154.68 214.556 L
S
GR
GS
[0.375 0 0 0.375 0 0] CT
0.149 GC
2 setlinecap
1 LJ
1.333 LW
N
146 138.778 M
154.68 138.778 L
S
GR
GS
[0.375 0 0 0.375 0 0] CT
0.149 GC
2 setlinecap
1 LJ
1.333 LW
N
146 63 M
154.68 63 L
S
GR
GS
[0.375 0 0 0.375 0 0] CT
0.149 GC
2 setlinecap
1 LJ
1.333 LW
N
1014 745 M
1005.32 745 L
S
GR
GS
[0.375 0 0 0.375 0 0] CT
0.149 GC
2 setlinecap
1 LJ
1.333 LW
N
1014 669.222 M
1005.32 669.222 L
S
GR
GS
[0.375 0 0 0.375 0 0] CT
0.149 GC
2 setlinecap
1 LJ
1.333 LW
N
1014 593.444 M
1005.32 593.444 L
S
GR
GS
[0.375 0 0 0.375 0 0] CT
0.149 GC
2 setlinecap
1 LJ
1.333 LW
N
1014 517.667 M
1005.32 517.667 L
S
GR
GS
[0.375 0 0 0.375 0 0] CT
0.149 GC
2 setlinecap
1 LJ
1.333 LW
N
1014 441.889 M
1005.32 441.889 L
S
GR
GS
[0.375 0 0 0.375 0 0] CT
0.149 GC
2 setlinecap
1 LJ
1.333 LW
N
1014 366.111 M
1005.32 366.111 L
S
GR
GS
[0.375 0 0 0.375 0 0] CT
0.149 GC
2 setlinecap
1 LJ
1.333 LW
N
1014 290.333 M
1005.32 290.333 L
S
GR
GS
[0.375 0 0 0.375 0 0] CT
0.149 GC
2 setlinecap
1 LJ
1.333 LW
N
1014 214.556 M
1005.32 214.556 L
S
GR
GS
[0.375 0 0 0.375 0 0] CT
0.149 GC
2 setlinecap
1 LJ
1.333 LW
N
1014 138.778 M
1005.32 138.778 L
S
GR
GS
[0.375 0 0 0.375 0 0] CT
0.149 GC
2 setlinecap
1 LJ
1.333 LW
N
1014 63 M
1005.32 63 L
S
GR
GS
[0.375 0 0 0.375 50.35 279.375] CT
0.149 GC
N
/f-183509926{-31.109 2.399 M
-31.109 1.274 L
-21.219 -13.476 L
-21.109 -13.633 -20.891 -13.633 QT
-20.422 -13.633 L
-20.063 -13.633 -20.063 -13.273 QT
-20.063 1.274 L
-16.922 1.274 L
-16.922 2.399 L
-20.063 2.399 L
-20.063 5.539 L
-20.063 6.196 -19.125 6.375 QT
-18.188 6.555 -16.953 6.555 QT
-16.953 7.68 L
-25.766 7.68 L
-25.766 6.555 L
-24.531 6.555 -23.594 6.375 QT
-22.656 6.196 -22.656 5.539 QT
-22.656 2.399 L
-31.109 2.399 L
cp
-30.047 1.274 M
-22.469 1.274 L
-22.469 -10.054 L
-30.047 1.274 L
cp}def
f-183509926
f
GR
GS
[0.375 0 0 0.375 50.35 279.375] CT
0.149 GC
N
/f-1040289528{-8 8.383 M
-11.922 8.383 -13.336 5.156 QT
-14.75 1.93 -14.75 -2.523 QT
-14.75 -5.304 -14.242 -7.758 QT
-13.734 -10.211 -12.227 -11.922 QT
-10.719 -13.633 -8 -13.633 QT
-5.891 -13.633 -4.547 -12.601 QT
-3.203 -11.57 -2.5 -9.937 QT
-1.797 -8.304 -1.539 -6.437 QT
-1.281 -4.57 -1.281 -2.523 QT
-1.281 0.227 -1.789 2.625 QT
-2.297 5.024 -3.781 6.703 QT
-5.266 8.383 -8 8.383 QT
cp
-8 7.555 M
-6.219 7.555 -5.344 5.727 QT
-4.469 3.899 -4.266 1.68 QT
-4.063 -0.539 -4.063 -3.039 QT
-4.063 -5.445 -4.266 -7.476 QT
-4.469 -9.508 -5.336 -11.156 QT
-6.203 -12.804 -8 -12.804 QT
-9.813 -12.804 -10.688 -11.148 QT
-11.563 -9.492 -11.766 -7.469 QT
-11.969 -5.445 -11.969 -3.039 QT
-11.969 -1.258 -11.883 0.321 QT
-11.797 1.899 -11.422 3.578 QT
-11.047 5.258 -10.211 6.406 QT
-9.375 7.555 -8 7.555 QT
cp}def
f-1040289528
f
GR
GS
[0.375 0 0 0.375 50.35 250.95834] CT
0.149 GC
N
/f757803299{-24 8.383 M
-25.984 8.383 -27.313 7.328 QT
-28.641 6.274 -29.367 4.594 QT
-30.094 2.914 -30.375 1.071 QT
-30.656 -0.773 -30.656 -2.664 QT
-30.656 -5.195 -29.672 -7.742 QT
-28.688 -10.289 -26.774 -11.961 QT
-24.859 -13.633 -22.234 -13.633 QT
-21.141 -13.633 -20.195 -13.219 QT
-19.25 -12.804 -18.711 -12 QT
-18.172 -11.195 -18.172 -10.054 QT
-18.172 -9.398 -18.617 -8.953 QT
-19.063 -8.508 -19.719 -8.508 QT
-20.344 -8.508 -20.797 -8.961 QT
-21.25 -9.414 -21.25 -10.054 QT
-21.25 -10.679 -20.797 -11.133 QT
-20.344 -11.586 -19.719 -11.586 QT
-19.547 -11.586 L
-19.953 -12.164 -20.695 -12.437 QT
-21.438 -12.711 -22.234 -12.711 QT
-23.203 -12.711 -24.024 -12.289 QT
-24.844 -11.867 -25.5 -11.148 QT
-26.156 -10.429 -26.594 -9.562 QT
-27.031 -8.695 -27.274 -7.586 QT
-27.516 -6.476 -27.578 -5.508 QT
-27.641 -4.539 -27.641 -3.07 QT
-27.078 -4.383 -26.047 -5.219 QT
-25.016 -6.054 -23.719 -6.054 QT
-22.297 -6.054 -21.125 -5.476 QT
-19.953 -4.898 -19.109 -3.875 QT
-18.266 -2.851 -17.82 -1.539 QT
-17.375 -0.226 -17.375 1.117 QT
-17.375 2.992 -18.211 4.688 QT
-19.047 6.383 -20.563 7.383 QT
-22.078 8.383 -24 8.383 QT
cp
-24 7.367 M
-22.766 7.367 -22.016 6.805 QT
-21.266 6.242 -20.914 5.313 QT
-20.563 4.383 -20.477 3.438 QT
-20.391 2.492 -20.391 1.117 QT
-20.391 -0.695 -20.563 -1.976 QT
-20.734 -3.258 -21.5 -4.234 QT
-22.266 -5.211 -23.844 -5.211 QT
-25.141 -5.211 -25.977 -4.336 QT
-26.813 -3.461 -27.195 -2.125 QT
-27.578 -0.789 -27.578 0.446 QT
-27.578 0.867 -27.547 1.086 QT
-27.547 1.133 -27.555 1.164 QT
-27.563 1.196 -27.578 1.242 QT
-27.578 2.617 -27.297 4.024 QT
-27.016 5.43 -26.219 6.399 QT
-25.422 7.367 -24 7.367 QT
cp}def
f757803299
f
GR
GS
[0.375 0 0 0.375 50.35 250.95834] CT
0.149 GC
N
f-1040289528
f
GR
GS
[0.375 0 0 0.375 50.35 222.54167] CT
0.149 GC
N
/f-1860526136{-30.656 2.821 M
-30.656 0.899 -29.391 -0.578 QT
-28.125 -2.054 -26.141 -3.039 QT
-27.328 -3.804 L
-28.422 -4.523 -29.109 -5.719 QT
-29.797 -6.914 -29.797 -8.226 QT
-29.797 -9.758 -28.992 -10.992 QT
-28.188 -12.226 -26.852 -12.929 QT
-25.516 -13.633 -24 -13.633 QT
-22.578 -13.633 -21.258 -13.054 QT
-19.938 -12.476 -19.086 -11.398 QT
-18.234 -10.32 -18.234 -8.836 QT
-18.234 -7.758 -18.742 -6.836 QT
-19.25 -5.914 -20.133 -5.179 QT
-21.016 -4.445 -22.016 -3.929 QT
-20.188 -2.758 L
-18.922 -1.929 -18.149 -0.586 QT
-17.375 0.758 -17.375 2.242 QT
-17.375 3.977 -18.305 5.399 QT
-19.234 6.821 -20.766 7.602 QT
-22.297 8.383 -24 8.383 QT
-25.656 8.383 -27.195 7.711 QT
-28.734 7.039 -29.695 5.766 QT
-30.656 4.492 -30.656 2.821 QT
cp
-28.922 2.821 M
-28.922 4.086 -28.227 5.133 QT
-27.531 6.18 -26.391 6.774 QT
-25.25 7.367 -24 7.367 QT
-22.141 7.367 -20.625 6.281 QT
-19.109 5.196 -19.109 3.399 QT
-19.109 2.789 -19.352 2.188 QT
-19.594 1.586 -20.024 1.094 QT
-20.453 0.602 -20.984 0.289 QT
-25.281 -2.492 L
-26.281 -1.961 -27.117 -1.148 QT
-27.953 -0.336 -28.438 0.68 QT
-28.922 1.696 -28.922 2.821 QT
cp
-26.719 -6.945 M
-22.844 -4.445 L
-21.5 -5.226 -20.641 -6.336 QT
-19.781 -7.445 -19.781 -8.836 QT
-19.781 -9.914 -20.383 -10.812 QT
-20.984 -11.711 -21.953 -12.211 QT
-22.922 -12.711 -24.031 -12.711 QT
-25 -12.711 -25.984 -12.336 QT
-26.969 -11.961 -27.609 -11.219 QT
-28.25 -10.476 -28.25 -9.476 QT
-28.25 -7.976 -26.719 -6.945 QT
cp}def
f-1860526136
f
GR
GS
[0.375 0 0 0.375 50.35 222.54167] CT
0.149 GC
N
f-1040289528
f
GR
GS
[0.375 0 0 0.375 50.35 194.12501] CT
0.149 GC
N
/f-337959114{-45.031 7.68 M
-45.031 6.555 L
-41.031 6.555 -41.031 5.539 QT
-41.031 -11.258 L
-42.688 -10.461 -45.219 -10.461 QT
-45.219 -11.586 L
-41.297 -11.586 -39.297 -13.633 QT
-38.844 -13.633 L
-38.735 -13.633 -38.633 -13.547 QT
-38.531 -13.461 -38.531 -13.351 QT
-38.531 5.539 L
-38.531 6.555 -34.531 6.555 QT
-34.531 7.68 L
-45.031 7.68 L
cp}def
f-337959114
f
GR
GS
[0.375 0 0 0.375 50.35 194.12501] CT
0.149 GC
N
/f637470968{-24 8.383 M
-27.922 8.383 -29.336 5.156 QT
-30.75 1.93 -30.75 -2.523 QT
-30.75 -5.304 -30.242 -7.758 QT
-29.734 -10.211 -28.227 -11.922 QT
-26.719 -13.633 -24 -13.633 QT
-21.891 -13.633 -20.547 -12.601 QT
-19.203 -11.57 -18.5 -9.937 QT
-17.797 -8.304 -17.539 -6.437 QT
-17.281 -4.57 -17.281 -2.523 QT
-17.281 0.227 -17.789 2.625 QT
-18.297 5.024 -19.781 6.703 QT
-21.266 8.383 -24 8.383 QT
cp
-24 7.555 M
-22.219 7.555 -21.344 5.727 QT
-20.469 3.899 -20.266 1.68 QT
-20.063 -0.539 -20.063 -3.039 QT
-20.063 -5.445 -20.266 -7.476 QT
-20.469 -9.508 -21.336 -11.156 QT
-22.203 -12.804 -24 -12.804 QT
-25.813 -12.804 -26.688 -11.148 QT
-27.563 -9.492 -27.766 -7.469 QT
-27.969 -5.445 -27.969 -3.039 QT
-27.969 -1.258 -27.883 0.321 QT
-27.797 1.899 -27.422 3.578 QT
-27.047 5.258 -26.211 6.406 QT
-25.375 7.555 -24 7.555 QT
cp}def
f637470968
f
GR
GS
[0.375 0 0 0.375 50.35 194.12501] CT
0.149 GC
N
f-1040289528
f
GR
GS
[0.375 0 0 0.375 50.35 165.70833] CT
0.149 GC
N
f-337959114
f
GR
GS
[0.375 0 0 0.375 50.35 165.70833] CT
0.149 GC
N
/f1770578814{-30.406 7.68 M
-30.406 6.821 L
-30.406 6.742 -30.344 6.649 QT
-25.375 1.149 L
-24.25 -0.07 -23.547 -0.898 QT
-22.844 -1.726 -22.156 -2.804 QT
-21.469 -3.883 -21.07 -5 QT
-20.672 -6.117 -20.672 -7.367 QT
-20.672 -8.679 -21.156 -9.875 QT
-21.641 -11.07 -22.602 -11.789 QT
-23.563 -12.508 -24.922 -12.508 QT
-26.313 -12.508 -27.422 -11.672 QT
-28.531 -10.836 -28.984 -9.508 QT
-28.859 -9.539 -28.641 -9.539 QT
-27.922 -9.539 -27.414 -9.054 QT
-26.906 -8.57 -26.906 -7.804 QT
-26.906 -7.07 -27.414 -6.562 QT
-27.922 -6.054 -28.641 -6.054 QT
-29.391 -6.054 -29.899 -6.578 QT
-30.406 -7.101 -30.406 -7.804 QT
-30.406 -9.008 -29.953 -10.062 QT
-29.5 -11.117 -28.649 -11.937 QT
-27.797 -12.758 -26.727 -13.195 QT
-25.656 -13.633 -24.453 -13.633 QT
-22.625 -13.633 -21.047 -12.859 QT
-19.469 -12.086 -18.547 -10.672 QT
-17.625 -9.258 -17.625 -7.367 QT
-17.625 -5.976 -18.234 -4.726 QT
-18.844 -3.476 -19.797 -2.453 QT
-20.75 -1.429 -22.234 -0.133 QT
-23.719 1.164 -24.188 1.602 QT
-27.813 5.086 L
-24.734 5.086 L
-22.469 5.086 -20.945 5.047 QT
-19.422 5.008 -19.328 4.93 QT
-18.953 4.524 -18.563 1.977 QT
-17.625 1.977 L
-18.531 7.68 L
-30.406 7.68 L
cp}def
f1770578814
f
GR
GS
[0.375 0 0 0.375 50.35 165.70833] CT
0.149 GC
N
f-1040289528
f
GR
GS
[0.375 0 0 0.375 50.35 137.29166] CT
0.149 GC
N
f-337959114
f
GR
GS
[0.375 0 0 0.375 50.35 137.29166] CT
0.149 GC
N
f-183509926
f
GR
GS
[0.375 0 0 0.375 50.35 137.29166] CT
0.149 GC
N
f-1040289528
f
GR
GS
[0.375 0 0 0.375 50.35 108.87499] CT
0.149 GC
N
f-337959114
f
GR
GS
[0.375 0 0 0.375 50.35 108.87499] CT
0.149 GC
N
f757803299
f
GR
GS
[0.375 0 0 0.375 50.35 108.87499] CT
0.149 GC
N
f-1040289528
f
GR
GS
[0.375 0 0 0.375 50.35 80.45833] CT
0.149 GC
N
f-337959114
f
GR
GS
[0.375 0 0 0.375 50.35 80.45833] CT
0.149 GC
N
f-1860526136
f
GR
GS
[0.375 0 0 0.375 50.35 80.45833] CT
0.149 GC
N
f-1040289528
f
GR
GS
[0.375 0 0 0.375 50.35 52.04166] CT
0.149 GC
N
/f127968659{-46.406 7.68 M
-46.406 6.821 L
-46.406 6.742 -46.344 6.649 QT
-41.375 1.149 L
-40.25 -0.07 -39.547 -0.898 QT
-38.844 -1.726 -38.156 -2.804 QT
-37.469 -3.883 -37.07 -5 QT
-36.672 -6.117 -36.672 -7.367 QT
-36.672 -8.679 -37.156 -9.875 QT
-37.641 -11.07 -38.602 -11.789 QT
-39.563 -12.508 -40.922 -12.508 QT
-42.313 -12.508 -43.422 -11.672 QT
-44.531 -10.836 -44.985 -9.508 QT
-44.86 -9.539 -44.641 -9.539 QT
-43.922 -9.539 -43.414 -9.054 QT
-42.906 -8.57 -42.906 -7.804 QT
-42.906 -7.07 -43.414 -6.562 QT
-43.922 -6.054 -44.641 -6.054 QT
-45.391 -6.054 -45.899 -6.578 QT
-46.406 -7.101 -46.406 -7.804 QT
-46.406 -9.008 -45.953 -10.062 QT
-45.5 -11.117 -44.649 -11.937 QT
-43.797 -12.758 -42.727 -13.195 QT
-41.656 -13.633 -40.453 -13.633 QT
-38.625 -13.633 -37.047 -12.859 QT
-35.469 -12.086 -34.547 -10.672 QT
-33.625 -9.258 -33.625 -7.367 QT
-33.625 -5.976 -34.235 -4.726 QT
-34.844 -3.476 -35.797 -2.453 QT
-36.75 -1.429 -38.235 -0.133 QT
-39.719 1.164 -40.188 1.602 QT
-43.813 5.086 L
-40.735 5.086 L
-38.469 5.086 -36.945 5.047 QT
-35.422 5.008 -35.328 4.93 QT
-34.953 4.524 -34.563 1.977 QT
-33.625 1.977 L
-34.531 7.68 L
-46.406 7.68 L
cp}def
f127968659
f
GR
GS
[0.375 0 0 0.375 50.35 52.04166] CT
0.149 GC
N
f637470968
f
GR
GS
[0.375 0 0 0.375 50.35 52.04166] CT
0.149 GC
N
f-1040289528
f
GR
GS
[0.375 0 0 0.375 50.35 23.625] CT
0.149 GC
N
f127968659
f
GR
GS
[0.375 0 0 0.375 50.35 23.625] CT
0.149 GC
N
f1770578814
f
GR
GS
[0.375 0 0 0.375 50.35 23.625] CT
0.149 GC
N
f-1040289528
f
GR
GS
[0 -0.375 0.375 0 29.34995 151.49987] CT
0.149 GC
N
/f481824247{-117.106 -12.672 M
-117.106 -13.907 L
-113.497 -13.907 -113.497 -15.016 QT
-113.497 -34.235 L
-113.497 -35.344 -117.106 -35.344 QT
-117.106 -36.578 L
-104.637 -36.578 L
-102.731 -36.578 -100.817 -35.797 QT
-98.903 -35.016 -97.661 -33.508 QT
-96.419 -32 -96.419 -30 QT
-96.419 -28.047 -97.669 -26.578 QT
-98.919 -25.11 -100.817 -24.352 QT
-102.716 -23.594 -104.637 -23.594 QT
-110.247 -23.594 L
-110.247 -15.016 L
-110.247 -13.907 -106.637 -13.907 QT
-106.637 -12.672 L
-117.106 -12.672 L
cp
-110.356 -24.641 M
-105.606 -24.641 L
-103.669 -24.641 -102.473 -25.196 QT
-101.278 -25.75 -100.723 -26.922 QT
-100.169 -28.094 -100.169 -30 QT
-100.169 -32.86 -101.419 -34.102 QT
-102.669 -35.344 -105.606 -35.344 QT
-108.575 -35.344 L
-109.2 -35.344 -109.552 -35.297 QT
-109.903 -35.25 -110.13 -35 QT
-110.356 -34.75 -110.356 -34.235 QT
-110.356 -24.641 L
cp}def
f481824247
f
GR
GS
[0 -0.375 0.375 0 29.34995 151.49987] CT
0.149 GC
N
/f-1110587428{-93.878 -16.11 M
-93.878 -18.188 -92.238 -19.5 QT
-90.597 -20.813 -88.3 -21.352 QT
-86.003 -21.891 -83.941 -21.891 QT
-83.941 -23.313 L
-83.941 -24.328 -84.386 -25.274 QT
-84.832 -26.219 -85.667 -26.828 QT
-86.503 -27.438 -87.503 -27.438 QT
-89.832 -27.438 -91.05 -26.391 QT
-90.378 -26.391 -89.941 -25.891 QT
-89.503 -25.391 -89.503 -24.719 QT
-89.503 -24.016 -90.003 -23.524 QT
-90.503 -23.032 -91.175 -23.032 QT
-91.878 -23.032 -92.378 -23.524 QT
-92.878 -24.016 -92.878 -24.719 QT
-92.878 -26.563 -91.199 -27.461 QT
-89.519 -28.36 -87.503 -28.36 QT
-86.097 -28.36 -84.66 -27.75 QT
-83.222 -27.141 -82.308 -26.016 QT
-81.394 -24.891 -81.394 -23.391 QT
-81.394 -15.516 L
-81.394 -14.828 -81.105 -14.258 QT
-80.816 -13.688 -80.191 -13.688 QT
-79.613 -13.688 -79.332 -14.266 QT
-79.05 -14.844 -79.05 -15.516 QT
-79.05 -17.75 L
-78.019 -17.75 L
-78.019 -15.516 L
-78.019 -14.719 -78.433 -14.008 QT
-78.847 -13.297 -79.535 -12.883 QT
-80.222 -12.469 -81.035 -12.469 QT
-82.05 -12.469 -82.8 -13.266 QT
-83.55 -14.063 -83.628 -15.157 QT
-84.285 -13.828 -85.542 -13.055 QT
-86.8 -12.282 -88.238 -12.282 QT
-89.582 -12.282 -90.871 -12.672 QT
-92.16 -13.063 -93.019 -13.907 QT
-93.878 -14.75 -93.878 -16.11 QT
cp
-91.05 -16.11 M
-91.05 -14.875 -90.144 -14.039 QT
-89.238 -13.203 -88.003 -13.203 QT
-86.878 -13.203 -85.957 -13.766 QT
-85.035 -14.328 -84.488 -15.305 QT
-83.941 -16.282 -83.941 -17.36 QT
-83.941 -21 L
-85.519 -21 -87.191 -20.477 QT
-88.863 -19.953 -89.957 -18.844 QT
-91.05 -17.735 -91.05 -16.11 QT
cp}def
f-1110587428
f
GR
GS
[0 -0.375 0.375 0 29.34995 151.49987] CT
0.149 GC
N
/f-283985062{-74.106 -16.875 M
-74.106 -26.532 L
-77.013 -26.532 L
-77.013 -27.438 L
-74.731 -27.438 -73.653 -29.571 QT
-72.575 -31.703 -72.575 -34.203 QT
-71.56 -34.203 L
-71.56 -27.766 L
-66.622 -27.766 L
-66.622 -26.532 L
-71.56 -26.532 L
-71.56 -16.938 L
-71.56 -15.485 -71.075 -14.391 QT
-70.591 -13.297 -69.325 -13.297 QT
-68.138 -13.297 -67.606 -14.453 QT
-67.075 -15.61 -67.075 -16.938 QT
-67.075 -19.016 L
-66.06 -19.016 L
-66.06 -16.875 L
-66.06 -15.782 -66.466 -14.711 QT
-66.872 -13.641 -67.653 -12.961 QT
-68.435 -12.282 -69.56 -12.282 QT
-71.669 -12.282 -72.888 -13.539 QT
-74.106 -14.797 -74.106 -16.875 QT
cp}def
f-283985062
f
GR
GS
[0 -0.375 0.375 0 29.34995 151.49987] CT
0.149 GC
N
/f435225110{-62.949 -12.672 M
-62.949 -13.907 L
-61.761 -13.907 -60.988 -14.094 QT
-60.214 -14.282 -60.214 -15.016 QT
-60.214 -33.391 L
-60.214 -34.328 -60.496 -34.742 QT
-60.777 -35.157 -61.308 -35.25 QT
-61.839 -35.344 -62.949 -35.344 QT
-62.949 -36.578 L
-57.761 -36.953 L
-57.761 -24.922 L
-57.027 -26.375 -55.707 -27.258 QT
-54.386 -28.141 -52.808 -28.141 QT
-50.371 -28.141 -49.152 -26.977 QT
-47.933 -25.813 -47.933 -23.422 QT
-47.933 -15.016 L
-47.933 -14.282 -47.16 -14.094 QT
-46.386 -13.907 -45.199 -13.907 QT
-45.199 -12.672 L
-53.214 -12.672 L
-53.214 -13.907 L
-52.011 -13.907 -51.246 -14.094 QT
-50.48 -14.282 -50.48 -15.016 QT
-50.48 -23.313 L
-50.48 -25.032 -50.972 -26.133 QT
-51.464 -27.235 -53.011 -27.235 QT
-55.043 -27.235 -56.347 -25.61 QT
-57.652 -23.985 -57.652 -21.922 QT
-57.652 -15.016 L
-57.652 -14.282 -56.886 -14.094 QT
-56.121 -13.907 -54.933 -13.907 QT
-54.933 -12.672 L
-62.949 -12.672 L
cp}def
f435225110
f
GR
GS
[0 -0.375 0.375 0 29.34995 151.49987] CT
0.149 GC
N
/f-368363770{-31.629 -12.672 M
-31.629 -13.907 L
-28.019 -13.907 -28.019 -15.016 QT
-28.019 -34.235 L
-28.019 -35.344 -31.629 -35.344 QT
-31.629 -36.578 L
-20.285 -36.578 L
-20.285 -35.344 L
-24.754 -35.344 -24.754 -34.235 QT
-24.754 -15.016 L
-24.754 -14.266 -24.332 -14.086 QT
-23.91 -13.907 -22.988 -13.907 QT
-20.285 -13.907 L
-17.66 -13.907 -16.246 -14.86 QT
-14.832 -15.813 -14.238 -17.461 QT
-13.644 -19.11 -13.347 -21.844 QT
-12.332 -21.844 L
-13.316 -12.672 L
-31.629 -12.672 L
cp}def
f-368363770
f
GR
GS
[0 -0.375 0.375 0 29.34995 151.49987] CT
0.149 GC
N
/f-1541572165{-1.957 -12.282 M
-4.066 -12.282 -5.855 -13.352 QT
-7.644 -14.422 -8.691 -16.211 QT
-9.738 -18 -9.738 -20.125 QT
-9.738 -21.735 -9.16 -23.219 QT
-8.582 -24.703 -7.519 -25.875 QT
-6.457 -27.047 -5.035 -27.703 QT
-3.613 -28.36 -1.957 -28.36 QT
0.2 -28.36 1.965 -27.227 QT
3.731 -26.094 4.754 -24.188 QT
5.778 -22.282 5.778 -20.125 QT
5.778 -18.016 4.739 -16.219 QT
3.7 -14.422 1.911 -13.352 QT
0.121 -12.282 -1.957 -12.282 QT
cp
-1.957 -13.297 M
0.84 -13.297 1.786 -15.336 QT
2.731 -17.375 2.731 -20.516 QT
2.731 -22.282 2.543 -23.43 QT
2.356 -24.578 1.715 -25.532 QT
1.325 -26.11 0.715 -26.539 QT
0.106 -26.969 -0.566 -27.203 QT
-1.238 -27.438 -1.957 -27.438 QT
-3.05 -27.438 -4.035 -26.946 QT
-5.019 -26.453 -5.66 -25.532 QT
-6.316 -24.532 -6.496 -23.344 QT
-6.675 -22.157 -6.675 -20.516 QT
-6.675 -18.547 -6.332 -16.985 QT
-5.988 -15.422 -4.957 -14.36 QT
-3.925 -13.297 -1.957 -13.297 QT
cp}def
f-1541572165
f
GR
GS
[0 -0.375 0.375 0 29.34995 151.49987] CT
0.149 GC
N
/f-1415512653{8.05 -12.563 M
8.05 -18.282 L
8.05 -18.547 8.362 -18.547 QT
8.784 -18.547 L
9.003 -18.547 9.065 -18.282 QT
10.034 -13.203 13.784 -13.203 QT
15.44 -13.203 16.557 -13.953 QT
17.675 -14.703 17.675 -16.282 QT
17.675 -17.407 16.807 -18.203 QT
15.94 -19 14.737 -19.282 QT
12.393 -19.75 L
11.221 -20 10.253 -20.532 QT
9.284 -21.063 8.667 -21.946 QT
8.05 -22.828 8.05 -23.985 QT
8.05 -25.532 8.862 -26.508 QT
9.675 -27.485 10.979 -27.922 QT
12.284 -28.36 13.784 -28.36 QT
15.581 -28.36 16.909 -27.407 QT
17.909 -28.282 L
17.909 -28.36 18.081 -28.36 QT
18.346 -28.36 L
18.44 -28.36 18.526 -28.266 QT
18.612 -28.172 18.612 -28.063 QT
18.612 -23.485 L
18.612 -23.172 18.346 -23.172 QT
17.909 -23.172 L
17.612 -23.172 17.612 -23.485 QT
17.612 -25.313 16.596 -26.43 QT
15.581 -27.547 13.753 -27.547 QT
12.175 -27.547 11.018 -26.961 QT
9.862 -26.375 9.862 -24.953 QT
9.862 -23.985 10.69 -23.36 QT
11.518 -22.735 12.643 -22.469 QT
15.018 -22.016 L
16.206 -21.75 17.237 -21.102 QT
18.268 -20.453 18.878 -19.461 QT
19.487 -18.469 19.487 -17.219 QT
19.487 -15.953 19.05 -15.024 QT
18.612 -14.094 17.839 -13.477 QT
17.065 -12.86 16.003 -12.571 QT
14.94 -12.282 13.784 -12.282 QT
11.596 -12.282 10.034 -13.75 QT
8.753 -12.36 L
8.753 -12.282 8.565 -12.282 QT
8.362 -12.282 L
8.05 -12.282 8.05 -12.563 QT
cp}def
f-1415512653
f
GR
GS
[0 -0.375 0.375 0 29.34995 151.49987] CT
0.149 GC
N
/f-970344825{21.934 -12.563 M
21.934 -18.282 L
21.934 -18.547 22.247 -18.547 QT
22.668 -18.547 L
22.887 -18.547 22.95 -18.282 QT
23.918 -13.203 27.668 -13.203 QT
29.325 -13.203 30.442 -13.953 QT
31.559 -14.703 31.559 -16.282 QT
31.559 -17.407 30.692 -18.203 QT
29.825 -19 28.622 -19.282 QT
26.278 -19.75 L
25.106 -20 24.137 -20.532 QT
23.168 -21.063 22.551 -21.946 QT
21.934 -22.828 21.934 -23.985 QT
21.934 -25.532 22.747 -26.508 QT
23.559 -27.485 24.864 -27.922 QT
26.168 -28.36 27.668 -28.36 QT
29.465 -28.36 30.793 -27.407 QT
31.793 -28.282 L
31.793 -28.36 31.965 -28.36 QT
32.231 -28.36 L
32.325 -28.36 32.411 -28.266 QT
32.497 -28.172 32.497 -28.063 QT
32.497 -23.485 L
32.497 -23.172 32.231 -23.172 QT
31.793 -23.172 L
31.497 -23.172 31.497 -23.485 QT
31.497 -25.313 30.481 -26.43 QT
29.465 -27.547 27.637 -27.547 QT
26.059 -27.547 24.903 -26.961 QT
23.747 -26.375 23.747 -24.953 QT
23.747 -23.985 24.575 -23.36 QT
25.403 -22.735 26.528 -22.469 QT
28.903 -22.016 L
30.09 -21.75 31.122 -21.102 QT
32.153 -20.453 32.762 -19.461 QT
33.372 -18.469 33.372 -17.219 QT
33.372 -15.953 32.934 -15.024 QT
32.497 -14.094 31.723 -13.477 QT
30.95 -12.86 29.887 -12.571 QT
28.825 -12.282 27.668 -12.282 QT
25.481 -12.282 23.918 -13.75 QT
22.637 -12.36 L
22.637 -12.282 22.45 -12.282 QT
22.247 -12.282 L
21.934 -12.282 21.934 -12.563 QT
cp}def
f-970344825
f
GR
GS
[0 -0.375 0.375 0 29.34995 151.49987] CT
0.149 GC
N
/f-987207579{57.255 -3.985 M
55.302 -5.532 53.888 -7.524 QT
52.474 -9.516 51.583 -11.766 QT
50.692 -14.016 50.247 -16.477 QT
49.802 -18.938 49.802 -21.422 QT
49.802 -23.938 50.247 -26.399 QT
50.692 -28.86 51.606 -31.133 QT
52.521 -33.407 53.935 -35.383 QT
55.349 -37.36 57.255 -38.86 QT
57.255 -38.922 57.411 -38.922 QT
57.739 -38.922 L
57.849 -38.922 57.935 -38.828 QT
58.021 -38.735 58.021 -38.61 QT
58.021 -38.453 57.942 -38.391 QT
56.239 -36.719 55.106 -34.805 QT
53.974 -32.891 53.278 -30.727 QT
52.583 -28.563 52.278 -26.25 QT
51.974 -23.938 51.974 -21.422 QT
51.974 -10.297 57.911 -4.516 QT
58.021 -4.422 58.021 -4.235 QT
58.021 -4.141 57.927 -4.032 QT
57.833 -3.922 57.739 -3.922 QT
57.411 -3.922 L
57.255 -3.922 57.255 -3.985 QT
cp}def
f-987207579
f
GR
GS
[0 -0.375 0.375 0 29.34995 151.49987] CT
0.149 GC
N
/f-694797574{68.631 -12.282 M
66.569 -12.282 64.858 -13.399 QT
63.147 -14.516 62.194 -16.344 QT
61.241 -18.172 61.241 -20.219 QT
61.241 -22.344 62.28 -24.164 QT
63.319 -25.985 65.092 -27.063 QT
66.866 -28.141 69.006 -28.141 QT
70.288 -28.141 71.436 -27.602 QT
72.584 -27.063 73.413 -26.11 QT
73.413 -33.391 L
73.413 -34.328 73.131 -34.742 QT
72.85 -35.157 72.327 -35.25 QT
71.803 -35.344 70.694 -35.344 QT
70.694 -36.578 L
75.881 -36.953 L
75.881 -15.844 L
75.881 -14.922 76.163 -14.508 QT
76.444 -14.094 76.959 -14 QT
77.475 -13.907 78.6 -13.907 QT
78.6 -12.672 L
73.319 -12.282 L
73.319 -14.485 L
72.413 -13.438 71.163 -12.86 QT
69.913 -12.282 68.631 -12.282 QT
cp
65.053 -15.719 M
65.663 -14.563 66.663 -13.883 QT
67.663 -13.203 68.834 -13.203 QT
70.288 -13.203 71.499 -14.039 QT
72.709 -14.875 73.319 -16.203 QT
73.319 -24.594 L
72.897 -25.375 72.272 -25.977 QT
71.647 -26.578 70.874 -26.907 QT
70.1 -27.235 69.225 -27.235 QT
67.397 -27.235 66.288 -26.203 QT
65.178 -25.172 64.733 -23.563 QT
64.288 -21.953 64.288 -20.188 QT
64.288 -18.797 64.436 -17.75 QT
64.584 -16.703 65.053 -15.719 QT
cp}def
f-694797574
f
GR
GS
[0 -0.375 0.375 0 29.34995 151.49987] CT
0.149 GC
N
/f-441660491{80.843 -12.672 M
80.843 -13.907 L
84.437 -13.907 84.437 -15.016 QT
84.437 -34.235 L
84.437 -35.344 80.843 -35.344 QT
80.843 -36.578 L
93.703 -36.578 L
95.484 -36.578 97.296 -35.891 QT
99.109 -35.203 100.296 -33.844 QT
101.484 -32.485 101.484 -30.641 QT
101.484 -28.5 99.734 -27.055 QT
97.984 -25.61 95.64 -25.172 QT
97.156 -25.172 98.765 -24.328 QT
100.374 -23.485 101.398 -22.086 QT
102.421 -20.688 102.421 -19.11 QT
102.421 -17.203 101.289 -15.735 QT
100.156 -14.266 98.343 -13.469 QT
96.531 -12.672 94.703 -12.672 QT
80.843 -12.672 L
cp
87.484 -15.016 M
87.484 -14.266 87.914 -14.086 QT
88.343 -13.907 89.265 -13.907 QT
93.703 -13.907 L
95.078 -13.907 96.249 -14.625 QT
97.421 -15.344 98.101 -16.547 QT
98.781 -17.75 98.781 -19.11 QT
98.781 -20.453 98.218 -21.727 QT
97.656 -23 96.601 -23.821 QT
95.546 -24.641 94.203 -24.641 QT
87.484 -24.641 L
87.484 -15.016 L
cp
87.484 -25.563 M
92.734 -25.563 L
93.796 -25.563 94.726 -25.946 QT
95.656 -26.328 96.398 -27.055 QT
97.14 -27.782 97.539 -28.696 QT
97.937 -29.61 97.937 -30.641 QT
97.937 -31.547 97.64 -32.383 QT
97.343 -33.219 96.765 -33.899 QT
96.187 -34.578 95.398 -34.961 QT
94.609 -35.344 93.703 -35.344 QT
89.265 -35.344 L
88.624 -35.344 88.273 -35.297 QT
87.921 -35.25 87.703 -35 QT
87.484 -34.75 87.484 -34.235 QT
87.484 -25.563 L
cp}def
f-441660491
f
GR
GS
[0 -0.375 0.375 0 29.34995 151.49987] CT
0.149 GC
N
/f623191596{106.839 -3.922 M
106.542 -3.922 106.542 -4.235 QT
106.542 -4.391 106.605 -4.453 QT
112.589 -10.297 112.589 -21.422 QT
112.589 -32.547 106.683 -38.328 QT
106.542 -38.407 106.542 -38.61 QT
106.542 -38.735 106.636 -38.828 QT
106.73 -38.922 106.839 -38.922 QT
107.167 -38.922 L
107.277 -38.922 107.339 -38.86 QT
109.855 -36.875 111.527 -34.039 QT
113.199 -31.203 113.98 -27.985 QT
114.761 -24.766 114.761 -21.422 QT
114.761 -18.938 114.339 -16.539 QT
113.917 -14.141 113.003 -11.805 QT
112.089 -9.469 110.691 -7.5 QT
109.292 -5.532 107.339 -3.985 QT
107.277 -3.922 107.167 -3.922 QT
106.839 -3.922 L
cp}def
f623191596
f
GR
GS
[0.375 0 0 0.375 0 0] CT
1 LJ
5.333 LW
N
146 720.671 M
363 644.893 L
580 569.115 L
797 493.338 L
1014 417.56 L
S
GR
GS
[0.375 0 0 0.375 0 0] CT
1 0 0 RC
[20 20] 0 setdash
2 LJ
5.333 LW
N
146 720.671 M
363 607.004 L
580 493.338 L
797 379.671 L
1014 266.004 L
S
GR
GS
[0.375 0 0 0.375 0 0] CT
0 0 1 RC
[5 5] 0 setdash
2 LJ
5.333 LW
N
146 720.671 M
363 569.115 L
580 417.56 L
797 266.004 L
1014 114.449 L
S
GR
GS
[0.375 0 0 0.375 0 0] CT
1 GC
N
383 198 M
383 84 L
167 84 L
167 198 L
cp
f
GR
GS
[0.375 0 0 0.375 97.87495 39.50246] CT
N
/f1031605886{0.969 6.912 M
0.969 5.896 L
3.953 5.896 3.953 4.974 QT
3.953 -10.963 L
3.953 -11.885 0.969 -11.885 QT
0.969 -12.901 L
11.281 -12.901 L
12.875 -12.901 14.461 -12.244 QT
16.047 -11.588 17.07 -10.346 QT
18.094 -9.104 18.094 -7.447 QT
18.094 -5.838 17.063 -4.619 QT
16.031 -3.401 14.461 -2.768 QT
12.891 -2.135 11.281 -2.135 QT
6.641 -2.135 L
6.641 4.974 L
6.641 5.896 9.625 5.896 QT
9.625 6.912 L
0.969 6.912 L
cp
6.563 -2.994 M
10.5 -2.994 L
12.094 -2.994 13.086 -3.455 QT
14.078 -3.916 14.539 -4.885 QT
15 -5.854 15 -7.447 QT
15 -9.807 13.961 -10.846 QT
12.922 -11.885 10.5 -11.885 QT
8.031 -11.885 L
7.5 -11.885 7.211 -11.838 QT
6.922 -11.791 6.742 -11.588 QT
6.563 -11.385 6.563 -10.963 QT
6.563 -2.994 L
cp}def
f1031605886
f
GR
GS
[0.375 0 0 0.375 97.87495 39.50246] CT
N
/f-1050983813{20.491 6.912 M
20.491 5.896 L
23.475 5.896 23.475 4.974 QT
23.475 -10.963 L
23.475 -11.885 20.491 -11.885 QT
20.491 -12.901 L
29.897 -12.901 L
29.897 -11.885 L
26.178 -11.885 26.178 -10.963 QT
26.178 4.974 L
26.178 5.599 26.538 5.748 QT
26.897 5.896 27.663 5.896 QT
29.897 5.896 L
32.069 5.896 33.241 5.099 QT
34.413 4.303 34.897 2.935 QT
35.381 1.568 35.647 -0.697 QT
36.475 -0.697 L
35.678 6.912 L
20.491 6.912 L
cp}def
f-1050983813
f
GR
GS
[0.375 0 0 0.375 97.87495 39.50246] CT
N
/f784799134{38.491 6.912 M
38.491 5.896 L
41.475 5.896 41.475 4.974 QT
41.475 -10.963 L
41.475 -11.885 38.491 -11.885 QT
38.491 -12.901 L
54.897 -12.901 L
55.694 -6.26 L
54.866 -6.26 L
54.553 -8.76 53.991 -9.893 QT
53.428 -11.026 52.202 -11.455 QT
50.975 -11.885 48.506 -11.885 QT
45.663 -11.885 L
45.131 -11.885 44.842 -11.838 QT
44.553 -11.791 44.366 -11.588 QT
44.178 -11.385 44.178 -10.963 QT
44.178 -3.885 L
46.319 -3.885 L
47.803 -3.885 48.53 -4.127 QT
49.256 -4.369 49.53 -5.072 QT
49.803 -5.776 49.803 -7.26 QT
50.663 -7.26 L
50.663 0.521 L
49.803 0.521 L
49.803 -0.947 49.53 -1.658 QT
49.256 -2.369 48.53 -2.612 QT
47.803 -2.854 46.319 -2.854 QT
44.178 -2.854 L
44.178 4.974 L
44.178 5.599 44.538 5.748 QT
44.897 5.896 45.663 5.896 QT
48.725 5.896 L
50.741 5.896 51.983 5.576 QT
53.225 5.256 53.913 4.513 QT
54.6 3.771 54.975 2.584 QT
55.35 1.396 55.663 -0.697 QT
56.506 -0.697 L
55.288 6.912 L
38.491 6.912 L
cp}def
f784799134
f
GR
GS
[0.375 0 0 0.375 97.87495 39.50246] CT
N
/f1191840736{74.05 7.24 M
72.316 7.24 70.824 6.357 QT
69.331 5.474 68.472 3.982 QT
67.613 2.49 67.613 0.74 QT
67.613 -0.588 68.081 -1.822 QT
68.55 -3.057 69.441 -4.026 QT
70.331 -4.994 71.503 -5.541 QT
72.675 -6.088 74.05 -6.088 QT
75.831 -6.088 77.3 -5.143 QT
78.769 -4.197 79.62 -2.619 QT
80.472 -1.041 80.472 0.74 QT
80.472 2.474 79.605 3.974 QT
78.738 5.474 77.261 6.357 QT
75.785 7.24 74.05 7.24 QT
cp
74.05 6.381 M
76.378 6.381 77.152 4.701 QT
77.925 3.021 77.925 0.412 QT
77.925 -1.041 77.769 -2.002 QT
77.613 -2.963 77.097 -3.744 QT
76.769 -4.213 76.269 -4.58 QT
75.769 -4.947 75.206 -5.135 QT
74.644 -5.322 74.05 -5.322 QT
73.144 -5.322 72.331 -4.908 QT
71.519 -4.494 70.972 -3.744 QT
70.441 -2.916 70.292 -1.932 QT
70.144 -0.947 70.144 0.412 QT
70.144 2.037 70.425 3.334 QT
70.706 4.631 71.566 5.506 QT
72.425 6.381 74.05 6.381 QT
cp}def
f1191840736
f
GR
GS
[0.375 0 0 0.375 97.87495 39.50246] CT
N
/f-939508895{82.138 6.912 M
82.138 5.896 L
83.106 5.896 83.747 5.74 QT
84.388 5.584 84.388 4.974 QT
84.388 -4.572 L
82.169 -4.572 L
82.169 -5.588 L
84.388 -5.588 L
84.388 -9.057 L
84.388 -9.994 84.778 -10.807 QT
85.169 -11.619 85.825 -12.229 QT
86.481 -12.838 87.341 -13.19 QT
88.2 -13.541 89.122 -13.541 QT
90.091 -13.541 90.88 -12.955 QT
91.669 -12.369 91.669 -11.416 QT
91.669 -10.854 91.294 -10.479 QT
90.919 -10.104 90.356 -10.104 QT
89.81 -10.104 89.419 -10.479 QT
89.028 -10.854 89.028 -11.416 QT
89.028 -12.322 89.81 -12.635 QT
89.341 -12.791 88.981 -12.791 QT
88.122 -12.791 87.52 -12.19 QT
86.919 -11.588 86.622 -10.721 QT
86.325 -9.854 86.325 -9.01 QT
86.325 -5.588 L
89.669 -5.588 L
89.669 -4.572 L
86.419 -4.572 L
86.419 4.974 L
86.419 5.568 87.27 5.732 QT
88.122 5.896 89.231 5.896 QT
89.231 6.912 L
82.138 6.912 L
cp}def
f-939508895
f
GR
GS
[0.375 0 0 0.375 97.87495 39.50246] CT
N
/f-1242335733{101.038 6.912 M
101.038 6.131 L
101.038 6.068 101.1 5.974 QT
105.6 0.99 L
106.631 -0.119 107.264 -0.869 QT
107.897 -1.619 108.522 -2.596 QT
109.147 -3.572 109.506 -4.58 QT
109.866 -5.588 109.866 -6.729 QT
109.866 -7.916 109.428 -9.002 QT
108.991 -10.088 108.116 -10.737 QT
107.241 -11.385 106.022 -11.385 QT
104.756 -11.385 103.749 -10.627 QT
102.741 -9.869 102.335 -8.666 QT
102.444 -8.697 102.647 -8.697 QT
103.303 -8.697 103.756 -8.26 QT
104.21 -7.822 104.21 -7.119 QT
104.21 -6.463 103.756 -6.002 QT
103.303 -5.541 102.647 -5.541 QT
101.96 -5.541 101.499 -6.01 QT
101.038 -6.479 101.038 -7.119 QT
101.038 -8.213 101.452 -9.166 QT
101.866 -10.119 102.639 -10.862 QT
103.413 -11.604 104.381 -12.002 QT
105.35 -12.401 106.444 -12.401 QT
108.1 -12.401 109.53 -11.697 QT
110.96 -10.994 111.796 -9.713 QT
112.631 -8.432 112.631 -6.729 QT
112.631 -5.463 112.077 -4.33 QT
111.522 -3.197 110.663 -2.268 QT
109.803 -1.338 108.452 -0.166 QT
107.1 1.006 106.678 1.396 QT
103.397 4.568 L
106.178 4.568 L
108.241 4.568 109.624 4.529 QT
111.006 4.49 111.085 4.412 QT
111.428 4.053 111.772 1.74 QT
112.631 1.74 L
111.803 6.912 L
101.038 6.912 L
cp}def
f-1242335733
f
GR
GS
[0.375 0 0 0.375 0 0] CT
1 LJ
5.333 LW
N
175 105.34 M
255 105.34 L
S
GR
GS
[0.375 0 0 0.375 97.87495 52.875] CT
N
f1031605886
f
GR
GS
[0.375 0 0 0.375 97.87495 52.875] CT
N
f-1050983813
f
GR
GS
[0.375 0 0 0.375 97.87495 52.875] CT
N
f784799134
f
GR
GS
[0.375 0 0 0.375 97.87495 52.875] CT
N
f1191840736
f
GR
GS
[0.375 0 0 0.375 97.87495 52.875] CT
N
f-939508895
f
GR
GS
[0.375 0 0 0.375 97.87495 52.875] CT
N
/f258139185{102.366 4.678 M
103.038 5.662 104.186 6.146 QT
105.335 6.631 106.647 6.631 QT
108.335 6.631 109.046 5.193 QT
109.756 3.756 109.756 1.928 QT
109.756 1.099 109.608 0.279 QT
109.46 -0.541 109.1 -1.244 QT
108.741 -1.947 108.131 -2.377 QT
107.522 -2.807 106.631 -2.807 QT
104.694 -2.807 L
104.444 -2.807 104.444 -3.072 QT
104.444 -3.322 L
104.444 -3.557 104.694 -3.557 QT
106.303 -3.682 L
107.319 -3.682 107.991 -4.447 QT
108.663 -5.213 108.975 -6.307 QT
109.288 -7.401 109.288 -8.401 QT
109.288 -9.776 108.639 -10.674 QT
107.991 -11.572 106.647 -11.572 QT
105.553 -11.572 104.546 -11.151 QT
103.538 -10.729 102.944 -9.885 QT
103.006 -9.901 103.046 -9.908 QT
103.085 -9.916 103.147 -9.916 QT
103.788 -9.916 104.225 -9.463 QT
104.663 -9.01 104.663 -8.369 QT
104.663 -7.744 104.225 -7.291 QT
103.788 -6.838 103.147 -6.838 QT
102.506 -6.838 102.053 -7.291 QT
101.6 -7.744 101.6 -8.369 QT
101.6 -9.619 102.35 -10.533 QT
103.1 -11.447 104.28 -11.924 QT
105.46 -12.401 106.647 -12.401 QT
107.538 -12.401 108.514 -12.143 QT
109.491 -11.885 110.28 -11.393 QT
111.069 -10.901 111.569 -10.135 QT
112.069 -9.369 112.069 -8.401 QT
112.069 -7.182 111.53 -6.143 QT
110.991 -5.104 110.038 -4.354 QT
109.085 -3.604 107.96 -3.244 QT
109.21 -2.994 110.342 -2.291 QT
111.475 -1.588 112.163 -0.479 QT
112.85 0.631 112.85 1.896 QT
112.85 3.506 111.975 4.795 QT
111.1 6.084 109.671 6.818 QT
108.241 7.553 106.647 7.553 QT
105.288 7.553 103.921 7.037 QT
102.553 6.521 101.686 5.482 QT
100.819 4.443 100.819 3.006 QT
100.819 2.287 101.303 1.803 QT
101.788 1.318 102.506 1.318 QT
102.975 1.318 103.366 1.537 QT
103.756 1.756 103.975 2.154 QT
104.194 2.553 104.194 3.006 QT
104.194 3.709 103.694 4.193 QT
103.194 4.678 102.506 4.678 QT
102.366 4.678 L
cp}def
f258139185
f
GR
GS
[0.375 0 0 0.375 0 0] CT
1 0 0 RC
[20 20] 0 setdash
2 LJ
5.333 LW
N
175 141 M
255 141 L
S
GR
GS
[0.375 0 0 0.375 97.87495 66.24754] CT
N
f1031605886
f
GR
GS
[0.375 0 0 0.375 97.87495 66.24754] CT
N
f-1050983813
f
GR
GS
[0.375 0 0 0.375 97.87495 66.24754] CT
N
f784799134
f
GR
GS
[0.375 0 0 0.375 97.87495 66.24754] CT
N
f1191840736
f
GR
GS
[0.375 0 0 0.375 97.87495 66.24754] CT
N
f-939508895
f
GR
GS
[0.375 0 0 0.375 97.87495 66.24754] CT
N
/f-1816178686{100.413 2.131 M
100.413 1.099 L
109.366 -12.26 L
109.475 -12.401 109.663 -12.401 QT
110.1 -12.401 L
110.413 -12.401 110.413 -12.072 QT
110.413 1.099 L
113.272 1.099 L
113.272 2.131 L
110.413 2.131 L
110.413 4.974 L
110.413 5.568 111.264 5.732 QT
112.116 5.896 113.241 5.896 QT
113.241 6.912 L
105.256 6.912 L
105.256 5.896 L
106.366 5.896 107.217 5.732 QT
108.069 5.568 108.069 4.974 QT
108.069 2.131 L
100.413 2.131 L
cp
101.366 1.099 M
108.241 1.099 L
108.241 -9.166 L
101.366 1.099 L
cp}def
f-1816178686
f
GR
GS
[0.375 0 0 0.375 0 0] CT
0 0 1 RC
[5 5] 0 setdash
2 LJ
5.333 LW
N
175 176.66 M
255 176.66 L
S
GR
GS
[0.375 0 0 0.375 0 0] CT
0.149 GC
10.0 ML
1.333 LW
N
167 198 M
167 84 L
383 84 L
383 198 L
cp
S
GR
%%Trailer
%%Pages: 1
%%EOF
