%!PS-Adobe-3.0 EPSF-3.0
%%Creator: (MATLAB, The Mathworks, Inc. Version 9.14.0.2337262 \(R2023a\) Update 5. Operating System: Linux)
%%Title: ./path_loss_two_slope.eps
%%CreationDate: 2023-10-23T22:18:21
%%Pages: (atend)
%%BoundingBox:    10     1   388   297
%%LanguageLevel: 3
%%EndComments
%%BeginProlog
%%BeginResource: procset (Apache XML Graphics Std ProcSet) 1.2 0
%%Version: 1.2 0
%%Copyright: (Copyright 2001-2003,2010 The Apache Software Foundation. License terms: http://www.apache.org/licenses/LICENSE-2.0)
/bd{bind def}bind def
/ld{load def}bd
/GR/grestore ld
/GS/gsave ld
/RM/rmoveto ld
/C/curveto ld
/t/show ld
/L/lineto ld
/ML/setmiterlimit ld
/CT/concat ld
/f/fill ld
/N/newpath ld
/S/stroke ld
/CC/setcmykcolor ld
/A/ashow ld
/cp/closepath ld
/RC/setrgbcolor ld
/LJ/setlinejoin ld
/GC/setgray ld
/LW/setlinewidth ld
/M/moveto ld
/re {4 2 roll M
1 index 0 rlineto
0 exch rlineto
neg 0 rlineto
cp } bd
/_ctm matrix def
/_tm matrix def
/BT { _ctm currentmatrix pop matrix _tm copy pop 0 0 moveto } bd
/ET { _ctm setmatrix } bd
/iTm { _ctm setmatrix _tm concat } bd
/Tm { _tm astore pop iTm 0 0 moveto } bd
/ux 0.0 def
/uy 0.0 def
/F {
  /Tp exch def
  /Tf exch def
  Tf findfont Tp scalefont setfont
  /cf Tf def  /cs Tp def
} bd
/ULS {currentpoint /uy exch def /ux exch def} bd
/ULE {
  /Tcx currentpoint pop def
  gsave
  newpath
  cf findfont cs scalefont dup
  /FontMatrix get 0 get /Ts exch def /FontInfo get dup
  /UnderlinePosition get Ts mul /To exch def
  /UnderlineThickness get Ts mul /Tt exch def
  ux uy To add moveto  Tcx uy To add lineto
  Tt setlinewidth stroke
  grestore
} bd
/OLE {
  /Tcx currentpoint pop def
  gsave
  newpath
  cf findfont cs scalefont dup
  /FontMatrix get 0 get /Ts exch def /FontInfo get dup
  /UnderlinePosition get Ts mul /To exch def
  /UnderlineThickness get Ts mul /Tt exch def
  ux uy To add cs add moveto Tcx uy To add cs add lineto
  Tt setlinewidth stroke
  grestore
} bd
/SOE {
  /Tcx currentpoint pop def
  gsave
  newpath
  cf findfont cs scalefont dup
  /FontMatrix get 0 get /Ts exch def /FontInfo get dup
  /UnderlinePosition get Ts mul /To exch def
  /UnderlineThickness get Ts mul /Tt exch def
  ux uy To add cs 10 mul 26 idiv add moveto Tcx uy To add cs 10 mul 26 idiv add lineto
  Tt setlinewidth stroke
  grestore
} bd
/QT {
/Y22 exch store
/X22 exch store
/Y21 exch store
/X21 exch store
currentpoint
/Y21 load 2 mul add 3 div exch
/X21 load 2 mul add 3 div exch
/X21 load 2 mul /X22 load add 3 div
/Y21 load 2 mul /Y22 load add 3 div
/X22 load /Y22 load curveto
} bd
/SSPD {
dup length /d exch dict def
{
/v exch def
/k exch def
currentpagedevice k known {
/cpdv currentpagedevice k get def
v cpdv ne {
/upd false def
/nullv v type /nulltype eq def
/nullcpdv cpdv type /nulltype eq def
nullv nullcpdv or
{
/upd true def
} {
/sametype v type cpdv type eq def
sametype {
v type /arraytype eq {
/vlen v length def
/cpdvlen cpdv length def
vlen cpdvlen eq {
0 1 vlen 1 sub {
/i exch def
/obj v i get def
/cpdobj cpdv i get def
obj cpdobj ne {
/upd true def
exit
} if
} for
} {
/upd true def
} ifelse
} {
v type /dicttype eq {
v {
/dv exch def
/dk exch def
/cpddv cpdv dk get def
dv cpddv ne {
/upd true def
exit
} if
} forall
} {
/upd true def
} ifelse
} ifelse
} if
} ifelse
upd true eq {
d k v put
} if
} if
} if
} forall
d length 0 gt {
d setpagedevice
} if
} bd
/RE { % /NewFontName [NewEncodingArray] /FontName RE -
  findfont dup length dict begin
  {
    1 index /FID ne
    {def} {pop pop} ifelse
  } forall
  /Encoding exch def
  /FontName 1 index def
  currentdict definefont pop
  end
} bind def
%%EndResource
%%BeginResource: procset (Apache XML Graphics EPS ProcSet) 1.0 0
%%Version: 1.0 0
%%Copyright: (Copyright 2002-2003 The Apache Software Foundation. License terms: http://www.apache.org/licenses/LICENSE-2.0)
/BeginEPSF { %def
/b4_Inc_state save def         % Save state for cleanup
/dict_count countdictstack def % Count objects on dict stack
/op_count count 1 sub def      % Count objects on operand stack
userdict begin                 % Push userdict on dict stack
/showpage { } def              % Redefine showpage, { } = null proc
0 setgray 0 setlinecap         % Prepare graphics state
1 setlinewidth 0 setlinejoin
10 setmiterlimit [ ] 0 setdash newpath
/languagelevel where           % If level not equal to 1 then
{pop languagelevel             % set strokeadjust and
1 ne                           % overprint to their defaults.
{false setstrokeadjust false setoverprint
} if
} if
} bd
/EndEPSF { %def
count op_count sub {pop} repeat            % Clean up stacks
countdictstack dict_count sub {end} repeat
b4_Inc_state restore
} bd
%%EndResource
%FOPBeginFontDict
%%IncludeResource: font Courier-Oblique
%%IncludeResource: font Courier-BoldOblique
%%IncludeResource: font Courier-Bold
%%IncludeResource: font ZapfDingbats
%%IncludeResource: font Symbol
%%IncludeResource: font Helvetica
%%IncludeResource: font Helvetica-Oblique
%%IncludeResource: font Helvetica-Bold
%%IncludeResource: font Helvetica-BoldOblique
%%IncludeResource: font Times-Roman
%%IncludeResource: font Times-Italic
%%IncludeResource: font Times-Bold
%%IncludeResource: font Times-BoldItalic
%%IncludeResource: font Courier
%FOPEndFontDict
%%BeginResource: encoding WinAnsiEncoding
/WinAnsiEncoding [
/.notdef /.notdef /.notdef /.notdef /.notdef
/.notdef /.notdef /.notdef /.notdef /.notdef
/.notdef /.notdef /.notdef /.notdef /.notdef
/.notdef /.notdef /.notdef /.notdef /.notdef
/.notdef /.notdef /.notdef /.notdef /.notdef
/.notdef /.notdef /.notdef /.notdef /.notdef
/.notdef /.notdef /space /exclam /quotedbl
/numbersign /dollar /percent /ampersand /quotesingle
/parenleft /parenright /asterisk /plus /comma
/hyphen /period /slash /zero /one
/two /three /four /five /six
/seven /eight /nine /colon /semicolon
/less /equal /greater /question /at
/A /B /C /D /E
/F /G /H /I /J
/K /L /M /N /O
/P /Q /R /S /T
/U /V /W /X /Y
/Z /bracketleft /backslash /bracketright /asciicircum
/underscore /quoteleft /a /b /c
/d /e /f /g /h
/i /j /k /l /m
/n /o /p /q /r
/s /t /u /v /w
/x /y /z /braceleft /bar
/braceright /asciitilde /bullet /Euro /bullet
/quotesinglbase /florin /quotedblbase /ellipsis /dagger
/daggerdbl /circumflex /perthousand /Scaron /guilsinglleft
/OE /bullet /Zcaron /bullet /bullet
/quoteleft /quoteright /quotedblleft /quotedblright /bullet
/endash /emdash /asciitilde /trademark /scaron
/guilsinglright /oe /bullet /zcaron /Ydieresis
/space /exclamdown /cent /sterling /currency
/yen /brokenbar /section /dieresis /copyright
/ordfeminine /guillemotleft /logicalnot /sfthyphen /registered
/macron /degree /plusminus /twosuperior /threesuperior
/acute /mu /paragraph /middot /cedilla
/onesuperior /ordmasculine /guillemotright /onequarter /onehalf
/threequarters /questiondown /Agrave /Aacute /Acircumflex
/Atilde /Adieresis /Aring /AE /Ccedilla
/Egrave /Eacute /Ecircumflex /Edieresis /Igrave
/Iacute /Icircumflex /Idieresis /Eth /Ntilde
/Ograve /Oacute /Ocircumflex /Otilde /Odieresis
/multiply /Oslash /Ugrave /Uacute /Ucircumflex
/Udieresis /Yacute /Thorn /germandbls /agrave
/aacute /acircumflex /atilde /adieresis /aring
/ae /ccedilla /egrave /eacute /ecircumflex
/edieresis /igrave /iacute /icircumflex /idieresis
/eth /ntilde /ograve /oacute /ocircumflex
/otilde /odieresis /divide /oslash /ugrave
/uacute /ucircumflex /udieresis /yacute /thorn
/ydieresis
] def
%%EndResource
%FOPBeginFontReencode
/Courier-Oblique findfont
dup length dict begin
  {1 index /FID ne {def} {pop pop} ifelse} forall
  /Encoding WinAnsiEncoding def
  currentdict
end
/Courier-Oblique exch definefont pop
/Courier-BoldOblique findfont
dup length dict begin
  {1 index /FID ne {def} {pop pop} ifelse} forall
  /Encoding WinAnsiEncoding def
  currentdict
end
/Courier-BoldOblique exch definefont pop
/Courier-Bold findfont
dup length dict begin
  {1 index /FID ne {def} {pop pop} ifelse} forall
  /Encoding WinAnsiEncoding def
  currentdict
end
/Courier-Bold exch definefont pop
/Helvetica findfont
dup length dict begin
  {1 index /FID ne {def} {pop pop} ifelse} forall
  /Encoding WinAnsiEncoding def
  currentdict
end
/Helvetica exch definefont pop
/Helvetica-Oblique findfont
dup length dict begin
  {1 index /FID ne {def} {pop pop} ifelse} forall
  /Encoding WinAnsiEncoding def
  currentdict
end
/Helvetica-Oblique exch definefont pop
/Helvetica-Bold findfont
dup length dict begin
  {1 index /FID ne {def} {pop pop} ifelse} forall
  /Encoding WinAnsiEncoding def
  currentdict
end
/Helvetica-Bold exch definefont pop
/Helvetica-BoldOblique findfont
dup length dict begin
  {1 index /FID ne {def} {pop pop} ifelse} forall
  /Encoding WinAnsiEncoding def
  currentdict
end
/Helvetica-BoldOblique exch definefont pop
/Times-Roman findfont
dup length dict begin
  {1 index /FID ne {def} {pop pop} ifelse} forall
  /Encoding WinAnsiEncoding def
  currentdict
end
/Times-Roman exch definefont pop
/Times-Italic findfont
dup length dict begin
  {1 index /FID ne {def} {pop pop} ifelse} forall
  /Encoding WinAnsiEncoding def
  currentdict
end
/Times-Italic exch definefont pop
/Times-Bold findfont
dup length dict begin
  {1 index /FID ne {def} {pop pop} ifelse} forall
  /Encoding WinAnsiEncoding def
  currentdict
end
/Times-Bold exch definefont pop
/Times-BoldItalic findfont
dup length dict begin
  {1 index /FID ne {def} {pop pop} ifelse} forall
  /Encoding WinAnsiEncoding def
  currentdict
end
/Times-BoldItalic exch definefont pop
/Courier findfont
dup length dict begin
  {1 index /FID ne {def} {pop pop} ifelse} forall
  /Encoding WinAnsiEncoding def
  currentdict
end
/Courier exch definefont pop
%FOPEndFontReencode
%%EndProlog
%%Page: 1 1
%%PageBoundingBox: 0 0 420 315
%%BeginPageSetup
N
   10     1 M
  398     1 L
  398   298 L
   10   298 L
cp
clip
[1 0 0 -1 0 315] CT
%%EndPageSetup
GS
[0.75 0 0 0.75 0 0] CT
1 GC
N
0 0 560 420 re
f
GR
GS
[0.75 0 0 0.75 0 0] CT
1 GC
N
0 0 560 420 re
f
GR
GS
[0.75 0 0 0.75 0 0] CT
1 GC
N
73 372 M
507 372 L
507 31 L
73 31 L
cp
f
GR
GS
[0.75 0 0 0.75 0 0] CT
0.775 GC
[1 3] 0 setdash
2 LJ
0.667 LW
N
116.549 372 M
116.549 31 L
S
GR
GS
[0.75 0 0 0.75 0 0] CT
0.775 GC
[1 3] 0 setdash
2 LJ
0.667 LW
N
142.024 372 M
142.024 31 L
S
GR
GS
[0.75 0 0 0.75 0 0] CT
0.775 GC
[1 3] 0 setdash
2 LJ
0.667 LW
N
160.098 372 M
160.098 31 L
S
GR
GS
[0.75 0 0 0.75 0 0] CT
0.775 GC
[1 3] 0 setdash
2 LJ
0.667 LW
N
174.118 372 M
174.118 31 L
S
GR
GS
[0.75 0 0 0.75 0 0] CT
0.775 GC
[1 3] 0 setdash
2 LJ
0.667 LW
N
185.573 372 M
185.573 31 L
S
GR
GS
[0.75 0 0 0.75 0 0] CT
0.775 GC
[1 3] 0 setdash
2 LJ
0.667 LW
N
195.258 372 M
195.258 31 L
S
GR
GS
[0.75 0 0 0.75 0 0] CT
0.775 GC
[1 3] 0 setdash
2 LJ
0.667 LW
N
203.647 372 M
203.647 31 L
S
GR
GS
[0.75 0 0 0.75 0 0] CT
0.775 GC
[1 3] 0 setdash
2 LJ
0.667 LW
N
211.047 372 M
211.047 31 L
S
GR
GS
[0.75 0 0 0.75 0 0] CT
0.775 GC
[1 3] 0 setdash
2 LJ
0.667 LW
N
261.216 372 M
261.216 31 L
S
GR
GS
[0.75 0 0 0.75 0 0] CT
0.775 GC
[1 3] 0 setdash
2 LJ
0.667 LW
N
286.69 372 M
286.69 31 L
S
GR
GS
[0.75 0 0 0.75 0 0] CT
0.775 GC
[1 3] 0 setdash
2 LJ
0.667 LW
N
304.765 372 M
304.765 31 L
S
GR
GS
[0.75 0 0 0.75 0 0] CT
0.775 GC
[1 3] 0 setdash
2 LJ
0.667 LW
N
318.784 372 M
318.784 31 L
S
GR
GS
[0.75 0 0 0.75 0 0] CT
0.775 GC
[1 3] 0 setdash
2 LJ
0.667 LW
N
330.239 372 M
330.239 31 L
S
GR
GS
[0.75 0 0 0.75 0 0] CT
0.775 GC
[1 3] 0 setdash
2 LJ
0.667 LW
N
339.924 372 M
339.924 31 L
S
GR
GS
[0.75 0 0 0.75 0 0] CT
0.775 GC
[1 3] 0 setdash
2 LJ
0.667 LW
N
348.314 372 M
348.314 31 L
S
GR
GS
[0.75 0 0 0.75 0 0] CT
0.775 GC
[1 3] 0 setdash
2 LJ
0.667 LW
N
355.714 372 M
355.714 31 L
S
GR
GS
[0.75 0 0 0.75 0 0] CT
0.775 GC
[1 3] 0 setdash
2 LJ
0.667 LW
N
405.882 372 M
405.882 31 L
S
GR
GS
[0.75 0 0 0.75 0 0] CT
0.775 GC
[1 3] 0 setdash
2 LJ
0.667 LW
N
431.357 372 M
431.357 31 L
S
GR
GS
[0.75 0 0 0.75 0 0] CT
0.775 GC
[1 3] 0 setdash
2 LJ
0.667 LW
N
449.431 372 M
449.431 31 L
S
GR
GS
[0.75 0 0 0.75 0 0] CT
0.775 GC
[1 3] 0 setdash
2 LJ
0.667 LW
N
463.451 372 M
463.451 31 L
S
GR
GS
[0.75 0 0 0.75 0 0] CT
0.775 GC
[1 3] 0 setdash
2 LJ
0.667 LW
N
474.906 372 M
474.906 31 L
S
GR
GS
[0.75 0 0 0.75 0 0] CT
0.775 GC
[1 3] 0 setdash
2 LJ
0.667 LW
N
484.591 372 M
484.591 31 L
S
GR
GS
[0.75 0 0 0.75 0 0] CT
0.775 GC
[1 3] 0 setdash
2 LJ
0.667 LW
N
492.98 372 M
492.98 31 L
S
GR
GS
[0.75 0 0 0.75 0 0] CT
0.775 GC
[1 3] 0 setdash
2 LJ
0.667 LW
N
500.38 372 M
500.38 31 L
S
GR
GS
[0.75 0 0 0.75 0 0] CT
0.873 GC
1 LJ
0.667 LW
N
73 372 M
73 31 L
S
GR
GS
[0.75 0 0 0.75 0 0] CT
0.873 GC
1 LJ
0.667 LW
N
217.667 372 M
217.667 31 L
S
GR
GS
[0.75 0 0 0.75 0 0] CT
0.873 GC
1 LJ
0.667 LW
N
362.333 372 M
362.333 31 L
S
GR
GS
[0.75 0 0 0.75 0 0] CT
0.873 GC
1 LJ
0.667 LW
N
507 372 M
507 31 L
S
GR
GS
[0.75 0 0 0.75 0 0] CT
0.873 GC
1 LJ
0.667 LW
N
507 372 M
73 372 L
S
GR
GS
[0.75 0 0 0.75 0 0] CT
0.873 GC
1 LJ
0.667 LW
N
507 329.375 M
73 329.375 L
S
GR
GS
[0.75 0 0 0.75 0 0] CT
0.873 GC
1 LJ
0.667 LW
N
507 286.75 M
73 286.75 L
S
GR
GS
[0.75 0 0 0.75 0 0] CT
0.873 GC
1 LJ
0.667 LW
N
507 244.125 M
73 244.125 L
S
GR
GS
[0.75 0 0 0.75 0 0] CT
0.873 GC
1 LJ
0.667 LW
N
507 201.5 M
73 201.5 L
S
GR
GS
[0.75 0 0 0.75 0 0] CT
0.873 GC
1 LJ
0.667 LW
N
507 158.875 M
73 158.875 L
S
GR
GS
[0.75 0 0 0.75 0 0] CT
0.873 GC
1 LJ
0.667 LW
N
507 116.25 M
73 116.25 L
S
GR
GS
[0.75 0 0 0.75 0 0] CT
0.873 GC
1 LJ
0.667 LW
N
507 73.625 M
73 73.625 L
S
GR
GS
[0.75 0 0 0.75 0 0] CT
0.873 GC
1 LJ
0.667 LW
N
507 31 M
73 31 L
S
GR
GS
[0.75 0 0 0.75 0 0] CT
0.149 GC
2 setlinecap
1 LJ
0.667 LW
N
73 372 M
507 372 L
S
GR
GS
[0.75 0 0 0.75 0 0] CT
0.149 GC
2 setlinecap
1 LJ
0.667 LW
N
73 31 M
507 31 L
S
GR
GS
[0.75 0 0 0.75 0 0] CT
0.149 GC
2 setlinecap
1 LJ
0.667 LW
N
73 372 M
73 367.66 L
S
GR
GS
[0.75 0 0 0.75 0 0] CT
0.149 GC
2 setlinecap
1 LJ
0.667 LW
N
217.667 372 M
217.667 367.66 L
S
GR
GS
[0.75 0 0 0.75 0 0] CT
0.149 GC
2 setlinecap
1 LJ
0.667 LW
N
362.333 372 M
362.333 367.66 L
S
GR
GS
[0.75 0 0 0.75 0 0] CT
0.149 GC
2 setlinecap
1 LJ
0.667 LW
N
507 372 M
507 367.66 L
S
GR
GS
[0.75 0 0 0.75 0 0] CT
0.149 GC
2 setlinecap
1 LJ
0.667 LW
N
73 31 M
73 35.34 L
S
GR
GS
[0.75 0 0 0.75 0 0] CT
0.149 GC
2 setlinecap
1 LJ
0.667 LW
N
217.667 31 M
217.667 35.34 L
S
GR
GS
[0.75 0 0 0.75 0 0] CT
0.149 GC
2 setlinecap
1 LJ
0.667 LW
N
362.333 31 M
362.333 35.34 L
S
GR
GS
[0.75 0 0 0.75 0 0] CT
0.149 GC
2 setlinecap
1 LJ
0.667 LW
N
507 31 M
507 35.34 L
S
GR
GS
[0.75 0 0 0.75 0 0] CT
0.149 GC
2 setlinecap
1 LJ
0.667 LW
N
73 372 M
73 369.83 L
S
GR
GS
[0.75 0 0 0.75 0 0] CT
0.149 GC
2 setlinecap
1 LJ
0.667 LW
N
116.549 372 M
116.549 369.83 L
S
GR
GS
[0.75 0 0 0.75 0 0] CT
0.149 GC
2 setlinecap
1 LJ
0.667 LW
N
142.024 372 M
142.024 369.83 L
S
GR
GS
[0.75 0 0 0.75 0 0] CT
0.149 GC
2 setlinecap
1 LJ
0.667 LW
N
160.098 372 M
160.098 369.83 L
S
GR
GS
[0.75 0 0 0.75 0 0] CT
0.149 GC
2 setlinecap
1 LJ
0.667 LW
N
174.118 372 M
174.118 369.83 L
S
GR
GS
[0.75 0 0 0.75 0 0] CT
0.149 GC
2 setlinecap
1 LJ
0.667 LW
N
185.573 372 M
185.573 369.83 L
S
GR
GS
[0.75 0 0 0.75 0 0] CT
0.149 GC
2 setlinecap
1 LJ
0.667 LW
N
195.258 372 M
195.258 369.83 L
S
GR
GS
[0.75 0 0 0.75 0 0] CT
0.149 GC
2 setlinecap
1 LJ
0.667 LW
N
203.647 372 M
203.647 369.83 L
S
GR
GS
[0.75 0 0 0.75 0 0] CT
0.149 GC
2 setlinecap
1 LJ
0.667 LW
N
211.047 372 M
211.047 369.83 L
S
GR
GS
[0.75 0 0 0.75 0 0] CT
0.149 GC
2 setlinecap
1 LJ
0.667 LW
N
217.667 372 M
217.667 369.83 L
S
GR
GS
[0.75 0 0 0.75 0 0] CT
0.149 GC
2 setlinecap
1 LJ
0.667 LW
N
261.216 372 M
261.216 369.83 L
S
GR
GS
[0.75 0 0 0.75 0 0] CT
0.149 GC
2 setlinecap
1 LJ
0.667 LW
N
286.69 372 M
286.69 369.83 L
S
GR
GS
[0.75 0 0 0.75 0 0] CT
0.149 GC
2 setlinecap
1 LJ
0.667 LW
N
304.765 372 M
304.765 369.83 L
S
GR
GS
[0.75 0 0 0.75 0 0] CT
0.149 GC
2 setlinecap
1 LJ
0.667 LW
N
318.784 372 M
318.784 369.83 L
S
GR
GS
[0.75 0 0 0.75 0 0] CT
0.149 GC
2 setlinecap
1 LJ
0.667 LW
N
330.239 372 M
330.239 369.83 L
S
GR
GS
[0.75 0 0 0.75 0 0] CT
0.149 GC
2 setlinecap
1 LJ
0.667 LW
N
339.924 372 M
339.924 369.83 L
S
GR
GS
[0.75 0 0 0.75 0 0] CT
0.149 GC
2 setlinecap
1 LJ
0.667 LW
N
348.314 372 M
348.314 369.83 L
S
GR
GS
[0.75 0 0 0.75 0 0] CT
0.149 GC
2 setlinecap
1 LJ
0.667 LW
N
355.714 372 M
355.714 369.83 L
S
GR
GS
[0.75 0 0 0.75 0 0] CT
0.149 GC
2 setlinecap
1 LJ
0.667 LW
N
362.333 372 M
362.333 369.83 L
S
GR
GS
[0.75 0 0 0.75 0 0] CT
0.149 GC
2 setlinecap
1 LJ
0.667 LW
N
405.882 372 M
405.882 369.83 L
S
GR
GS
[0.75 0 0 0.75 0 0] CT
0.149 GC
2 setlinecap
1 LJ
0.667 LW
N
431.357 372 M
431.357 369.83 L
S
GR
GS
[0.75 0 0 0.75 0 0] CT
0.149 GC
2 setlinecap
1 LJ
0.667 LW
N
449.431 372 M
449.431 369.83 L
S
GR
GS
[0.75 0 0 0.75 0 0] CT
0.149 GC
2 setlinecap
1 LJ
0.667 LW
N
463.451 372 M
463.451 369.83 L
S
GR
GS
[0.75 0 0 0.75 0 0] CT
0.149 GC
2 setlinecap
1 LJ
0.667 LW
N
474.906 372 M
474.906 369.83 L
S
GR
GS
[0.75 0 0 0.75 0 0] CT
0.149 GC
2 setlinecap
1 LJ
0.667 LW
N
484.591 372 M
484.591 369.83 L
S
GR
GS
[0.75 0 0 0.75 0 0] CT
0.149 GC
2 setlinecap
1 LJ
0.667 LW
N
492.98 372 M
492.98 369.83 L
S
GR
GS
[0.75 0 0 0.75 0 0] CT
0.149 GC
2 setlinecap
1 LJ
0.667 LW
N
500.38 372 M
500.38 369.83 L
S
GR
GS
[0.75 0 0 0.75 0 0] CT
0.149 GC
2 setlinecap
1 LJ
0.667 LW
N
507 372 M
507 369.83 L
S
GR
GS
[0.75 0 0 0.75 0 0] CT
0.149 GC
2 setlinecap
1 LJ
0.667 LW
N
73 31 M
73 33.17 L
S
GR
GS
[0.75 0 0 0.75 0 0] CT
0.149 GC
2 setlinecap
1 LJ
0.667 LW
N
116.549 31 M
116.549 33.17 L
S
GR
GS
[0.75 0 0 0.75 0 0] CT
0.149 GC
2 setlinecap
1 LJ
0.667 LW
N
142.024 31 M
142.024 33.17 L
S
GR
GS
[0.75 0 0 0.75 0 0] CT
0.149 GC
2 setlinecap
1 LJ
0.667 LW
N
160.098 31 M
160.098 33.17 L
S
GR
GS
[0.75 0 0 0.75 0 0] CT
0.149 GC
2 setlinecap
1 LJ
0.667 LW
N
174.118 31 M
174.118 33.17 L
S
GR
GS
[0.75 0 0 0.75 0 0] CT
0.149 GC
2 setlinecap
1 LJ
0.667 LW
N
185.573 31 M
185.573 33.17 L
S
GR
GS
[0.75 0 0 0.75 0 0] CT
0.149 GC
2 setlinecap
1 LJ
0.667 LW
N
195.258 31 M
195.258 33.17 L
S
GR
GS
[0.75 0 0 0.75 0 0] CT
0.149 GC
2 setlinecap
1 LJ
0.667 LW
N
203.647 31 M
203.647 33.17 L
S
GR
GS
[0.75 0 0 0.75 0 0] CT
0.149 GC
2 setlinecap
1 LJ
0.667 LW
N
211.047 31 M
211.047 33.17 L
S
GR
GS
[0.75 0 0 0.75 0 0] CT
0.149 GC
2 setlinecap
1 LJ
0.667 LW
N
217.667 31 M
217.667 33.17 L
S
GR
GS
[0.75 0 0 0.75 0 0] CT
0.149 GC
2 setlinecap
1 LJ
0.667 LW
N
261.216 31 M
261.216 33.17 L
S
GR
GS
[0.75 0 0 0.75 0 0] CT
0.149 GC
2 setlinecap
1 LJ
0.667 LW
N
286.69 31 M
286.69 33.17 L
S
GR
GS
[0.75 0 0 0.75 0 0] CT
0.149 GC
2 setlinecap
1 LJ
0.667 LW
N
304.765 31 M
304.765 33.17 L
S
GR
GS
[0.75 0 0 0.75 0 0] CT
0.149 GC
2 setlinecap
1 LJ
0.667 LW
N
318.784 31 M
318.784 33.17 L
S
GR
GS
[0.75 0 0 0.75 0 0] CT
0.149 GC
2 setlinecap
1 LJ
0.667 LW
N
330.239 31 M
330.239 33.17 L
S
GR
GS
[0.75 0 0 0.75 0 0] CT
0.149 GC
2 setlinecap
1 LJ
0.667 LW
N
339.924 31 M
339.924 33.17 L
S
GR
GS
[0.75 0 0 0.75 0 0] CT
0.149 GC
2 setlinecap
1 LJ
0.667 LW
N
348.314 31 M
348.314 33.17 L
S
GR
GS
[0.75 0 0 0.75 0 0] CT
0.149 GC
2 setlinecap
1 LJ
0.667 LW
N
355.714 31 M
355.714 33.17 L
S
GR
GS
[0.75 0 0 0.75 0 0] CT
0.149 GC
2 setlinecap
1 LJ
0.667 LW
N
362.333 31 M
362.333 33.17 L
S
GR
GS
[0.75 0 0 0.75 0 0] CT
0.149 GC
2 setlinecap
1 LJ
0.667 LW
N
405.882 31 M
405.882 33.17 L
S
GR
GS
[0.75 0 0 0.75 0 0] CT
0.149 GC
2 setlinecap
1 LJ
0.667 LW
N
431.357 31 M
431.357 33.17 L
S
GR
GS
[0.75 0 0 0.75 0 0] CT
0.149 GC
2 setlinecap
1 LJ
0.667 LW
N
449.431 31 M
449.431 33.17 L
S
GR
GS
[0.75 0 0 0.75 0 0] CT
0.149 GC
2 setlinecap
1 LJ
0.667 LW
N
463.451 31 M
463.451 33.17 L
S
GR
GS
[0.75 0 0 0.75 0 0] CT
0.149 GC
2 setlinecap
1 LJ
0.667 LW
N
474.906 31 M
474.906 33.17 L
S
GR
GS
[0.75 0 0 0.75 0 0] CT
0.149 GC
2 setlinecap
1 LJ
0.667 LW
N
484.591 31 M
484.591 33.17 L
S
GR
GS
[0.75 0 0 0.75 0 0] CT
0.149 GC
2 setlinecap
1 LJ
0.667 LW
N
492.98 31 M
492.98 33.17 L
S
GR
GS
[0.75 0 0 0.75 0 0] CT
0.149 GC
2 setlinecap
1 LJ
0.667 LW
N
500.38 31 M
500.38 33.17 L
S
GR
GS
[0.75 0 0 0.75 0 0] CT
0.149 GC
2 setlinecap
1 LJ
0.667 LW
N
507 31 M
507 33.17 L
S
GR
GS
[0.75 0 0 0.75 54.75 283.4] CT
0.149 GC
N
-9.716 13.44 M
-9.716 12.877 L
-7.716 12.877 -7.716 12.362 QT
-7.716 3.971 L
-8.544 4.362 -9.809 4.362 QT
-9.809 3.799 L
-7.841 3.799 -6.841 2.784 QT
-6.622 2.784 L
-6.559 2.784 -6.513 2.823 QT
-6.466 2.862 -6.466 2.924 QT
-6.466 12.362 L
-6.466 12.877 -4.466 12.877 QT
-4.466 13.44 L
-9.716 13.44 L
cp
f
GR
GS
[0.75 0 0 0.75 54.75 283.4] CT
0.149 GC
N
0.8 13.799 M
-1.153 13.799 -1.864 12.182 QT
-2.575 10.565 -2.575 8.331 QT
-2.575 6.94 -2.317 5.713 QT
-2.059 4.487 -1.309 3.635 QT
-0.559 2.784 0.8 2.784 QT
1.862 2.784 2.534 3.299 QT
3.206 3.815 3.558 4.627 QT
3.909 5.44 4.034 6.377 QT
4.159 7.315 4.159 8.331 QT
4.159 9.706 3.909 10.909 QT
3.659 12.112 2.917 12.956 QT
2.175 13.799 0.8 13.799 QT
cp
0.8 13.377 M
1.691 13.377 2.128 12.463 QT
2.566 11.549 2.667 10.44 QT
2.769 9.331 2.769 8.081 QT
2.769 6.877 2.667 5.862 QT
2.566 4.846 2.136 4.018 QT
1.706 3.19 0.8 3.19 QT
-0.106 3.19 -0.544 4.018 QT
-0.981 4.846 -1.083 5.862 QT
-1.184 6.877 -1.184 8.081 QT
-1.184 8.971 -1.138 9.76 QT
-1.091 10.549 -0.903 11.385 QT
-0.716 12.221 -0.302 12.799 QT
0.112 13.377 0.8 13.377 QT
cp
f
GR
GS
[0.75 0 0 0.75 54.75 283.4] CT
0.149 GC
N
7.55 7.868 M
6.206 7.868 5.722 6.759 QT
5.238 5.649 5.238 4.134 QT
5.238 3.165 5.409 2.321 QT
5.581 1.477 6.097 0.891 QT
6.613 0.306 7.55 0.306 QT
8.269 0.306 8.738 0.657 QT
9.206 1.009 9.441 1.571 QT
9.675 2.134 9.769 2.774 QT
9.863 3.415 9.863 4.134 QT
9.863 5.071 9.683 5.899 QT
9.503 6.727 8.995 7.298 QT
8.488 7.868 7.55 7.868 QT
cp
7.55 7.587 M
8.159 7.587 8.464 6.962 QT
8.769 6.337 8.839 5.571 QT
8.909 4.806 8.909 3.946 QT
8.909 3.118 8.839 2.423 QT
8.769 1.727 8.472 1.157 QT
8.175 0.587 7.55 0.587 QT
6.925 0.587 6.628 1.157 QT
6.331 1.727 6.261 2.423 QT
6.191 3.118 6.191 3.946 QT
6.191 4.556 6.214 5.102 QT
6.238 5.649 6.37 6.227 QT
6.503 6.806 6.792 7.196 QT
7.081 7.587 7.55 7.587 QT
cp
f
GR
GS
[0.75 0 0 0.75 163.25 283.4] CT
0.149 GC
N
/f1694880289{-9.716 13.44 M
-9.716 12.877 L
-7.716 12.877 -7.716 12.362 QT
-7.716 3.971 L
-8.544 4.362 -9.809 4.362 QT
-9.809 3.799 L
-7.841 3.799 -6.841 2.784 QT
-6.622 2.784 L
-6.559 2.784 -6.513 2.823 QT
-6.466 2.862 -6.466 2.924 QT
-6.466 12.362 L
-6.466 12.877 -4.466 12.877 QT
-4.466 13.44 L
-9.716 13.44 L
cp}def
f1694880289
f
GR
GS
[0.75 0 0 0.75 163.25 283.4] CT
0.149 GC
N
/f-570576543{0.8 13.799 M
-1.153 13.799 -1.864 12.182 QT
-2.575 10.565 -2.575 8.331 QT
-2.575 6.94 -2.317 5.713 QT
-2.059 4.487 -1.309 3.635 QT
-0.559 2.784 0.8 2.784 QT
1.862 2.784 2.534 3.299 QT
3.206 3.815 3.558 4.627 QT
3.909 5.44 4.034 6.377 QT
4.159 7.315 4.159 8.331 QT
4.159 9.706 3.909 10.909 QT
3.659 12.112 2.917 12.956 QT
2.175 13.799 0.8 13.799 QT
cp
0.8 13.377 M
1.691 13.377 2.128 12.463 QT
2.566 11.549 2.667 10.44 QT
2.769 9.331 2.769 8.081 QT
2.769 6.877 2.667 5.862 QT
2.566 4.846 2.136 4.018 QT
1.706 3.19 0.8 3.19 QT
-0.106 3.19 -0.544 4.018 QT
-0.981 4.846 -1.083 5.862 QT
-1.184 6.877 -1.184 8.081 QT
-1.184 8.971 -1.138 9.76 QT
-1.091 10.549 -0.903 11.385 QT
-0.716 12.221 -0.302 12.799 QT
0.112 13.377 0.8 13.377 QT
cp}def
f-570576543
f
GR
GS
[0.75 0 0 0.75 163.25 283.4] CT
0.149 GC
N
/f672350655{5.816 7.634 M
5.816 7.243 L
7.191 7.243 7.191 6.899 QT
7.191 1.118 L
6.628 1.399 5.753 1.399 QT
5.753 1.009 L
7.097 1.009 7.784 0.306 QT
7.941 0.306 L
7.988 0.306 8.019 0.337 QT
8.05 0.368 8.05 0.399 QT
8.05 6.899 L
8.05 7.243 9.425 7.243 QT
9.425 7.634 L
5.816 7.634 L
cp}def
f672350655
f
GR
GS
[0.75 0 0 0.75 271.75001 283.4] CT
0.149 GC
N
f1694880289
f
GR
GS
[0.75 0 0 0.75 271.75001 283.4] CT
0.149 GC
N
f-570576543
f
GR
GS
[0.75 0 0 0.75 271.75001 283.4] CT
0.149 GC
N
/f-425490914{5.347 7.634 M
5.347 7.337 L
5.347 7.306 5.363 7.274 QT
7.081 5.384 L
7.472 4.962 7.706 4.681 QT
7.941 4.399 8.183 4.032 QT
8.425 3.665 8.558 3.274 QT
8.691 2.884 8.691 2.462 QT
8.691 2.009 8.527 1.595 QT
8.363 1.181 8.034 0.938 QT
7.706 0.696 7.238 0.696 QT
6.753 0.696 6.37 0.985 QT
5.988 1.274 5.831 1.727 QT
5.878 1.712 5.956 1.712 QT
6.206 1.712 6.378 1.876 QT
6.55 2.04 6.55 2.306 QT
6.55 2.556 6.378 2.735 QT
6.206 2.915 5.956 2.915 QT
5.691 2.915 5.519 2.735 QT
5.347 2.556 5.347 2.306 QT
5.347 1.899 5.503 1.532 QT
5.659 1.165 5.948 0.884 QT
6.238 0.602 6.613 0.454 QT
6.988 0.306 7.394 0.306 QT
8.019 0.306 8.566 0.571 QT
9.113 0.837 9.425 1.321 QT
9.738 1.806 9.738 2.462 QT
9.738 2.946 9.527 3.376 QT
9.316 3.806 8.995 4.157 QT
8.675 4.509 8.159 4.954 QT
7.644 5.399 7.488 5.54 QT
6.238 6.743 L
7.3 6.743 L
8.081 6.743 8.605 6.727 QT
9.128 6.712 9.159 6.681 QT
9.284 6.556 9.425 5.681 QT
9.738 5.681 L
9.425 7.634 L
5.347 7.634 L
cp}def
f-425490914
f
GR
GS
[0.75 0 0 0.75 380.25 283.4] CT
0.149 GC
N
f1694880289
f
GR
GS
[0.75 0 0 0.75 380.25 283.4] CT
0.149 GC
N
f-570576543
f
GR
GS
[0.75 0 0 0.75 380.25 283.4] CT
0.149 GC
N
/f2098139249{5.847 6.79 M
6.113 7.165 6.542 7.345 QT
6.972 7.524 7.472 7.524 QT
8.113 7.524 8.378 6.977 QT
8.644 6.431 8.644 5.743 QT
8.644 5.431 8.589 5.118 QT
8.534 4.806 8.402 4.54 QT
8.269 4.274 8.034 4.11 QT
7.8 3.946 7.472 3.946 QT
6.738 3.946 L
6.644 3.946 6.644 3.852 QT
6.644 3.743 L
6.644 3.665 6.738 3.665 QT
7.347 3.618 L
7.722 3.618 7.98 3.329 QT
8.238 3.04 8.355 2.618 QT
8.472 2.196 8.472 1.821 QT
8.472 1.306 8.23 0.962 QT
7.988 0.618 7.472 0.618 QT
7.05 0.618 6.675 0.782 QT
6.3 0.946 6.066 1.259 QT
6.097 1.259 6.113 1.259 QT
6.128 1.259 6.144 1.259 QT
6.394 1.259 6.558 1.431 QT
6.722 1.602 6.722 1.837 QT
6.722 2.071 6.558 2.243 QT
6.394 2.415 6.144 2.415 QT
5.894 2.415 5.722 2.243 QT
5.55 2.071 5.55 1.837 QT
5.55 1.368 5.839 1.016 QT
6.128 0.665 6.573 0.485 QT
7.019 0.306 7.472 0.306 QT
7.816 0.306 8.183 0.407 QT
8.55 0.509 8.847 0.696 QT
9.144 0.884 9.339 1.173 QT
9.534 1.462 9.534 1.821 QT
9.534 2.29 9.323 2.681 QT
9.113 3.071 8.753 3.36 QT
8.394 3.649 7.972 3.79 QT
8.441 3.868 8.87 4.141 QT
9.3 4.415 9.566 4.829 QT
9.831 5.243 9.831 5.727 QT
9.831 6.337 9.495 6.829 QT
9.159 7.321 8.62 7.595 QT
8.081 7.868 7.472 7.868 QT
6.956 7.868 6.441 7.673 QT
5.925 7.477 5.597 7.087 QT
5.269 6.696 5.269 6.149 QT
5.269 5.884 5.448 5.696 QT
5.628 5.509 5.894 5.509 QT
6.081 5.509 6.23 5.595 QT
6.378 5.681 6.456 5.829 QT
6.534 5.977 6.534 6.149 QT
6.534 6.415 6.347 6.602 QT
6.159 6.79 5.894 6.79 QT
5.847 6.79 L
cp}def
f2098139249
f
GR
GS
[0.75 0 0 0.75 217.50016 298.8] CT
0.149 GC
N
/f1250514995{-67.851 14.784 M
-67.851 14.143 L
-65.991 14.143 -65.991 13.581 QT
-65.991 3.69 L
-65.991 3.128 -67.851 3.128 QT
-67.851 2.487 L
-61.21 2.487 L
-59.976 2.487 -58.96 3.018 QT
-57.945 3.55 -57.226 4.44 QT
-56.507 5.331 -56.109 6.456 QT
-55.71 7.581 -55.71 8.753 QT
-55.71 9.893 -56.109 10.971 QT
-56.507 12.05 -57.249 12.917 QT
-57.991 13.784 -59.007 14.284 QT
-60.023 14.784 -61.21 14.784 QT
-67.851 14.784 L
cp
-64.382 13.581 M
-64.382 13.971 -64.155 14.057 QT
-63.929 14.143 -63.46 14.143 QT
-61.679 14.143 L
-60.757 14.143 -59.921 13.745 QT
-59.085 13.346 -58.554 12.643 QT
-57.976 11.878 -57.78 10.948 QT
-57.585 10.018 -57.585 8.753 QT
-57.585 7.44 -57.78 6.456 QT
-57.976 5.471 -58.554 4.706 QT
-59.085 3.94 -59.913 3.534 QT
-60.741 3.128 -61.679 3.128 QT
-63.46 3.128 L
-63.788 3.128 -63.968 3.151 QT
-64.148 3.175 -64.265 3.3 QT
-64.382 3.425 -64.382 3.69 QT
-64.382 13.581 L
cp}def
f1250514995
f
GR
GS
[0.75 0 0 0.75 217.50016 298.8] CT
0.149 GC
N
/f-581890516{-54.453 14.784 M
-54.453 14.143 L
-53.828 14.143 -53.438 14.05 QT
-53.047 13.956 -53.047 13.581 QT
-53.047 8.659 L
-53.047 7.971 -53.313 7.815 QT
-53.578 7.659 -54.359 7.659 QT
-54.359 7.018 L
-51.781 6.831 L
-51.781 13.581 L
-51.781 13.956 -51.438 14.05 QT
-51.094 14.143 -50.516 14.143 QT
-50.516 14.784 L
-54.453 14.784 L
cp
-53.688 3.737 M
-53.688 3.346 -53.383 3.042 QT
-53.078 2.737 -52.703 2.737 QT
-52.438 2.737 -52.203 2.87 QT
-51.969 3.003 -51.836 3.245 QT
-51.703 3.487 -51.703 3.737 QT
-51.703 4.128 -52 4.425 QT
-52.297 4.721 -52.703 4.721 QT
-53.078 4.721 -53.383 4.425 QT
-53.688 4.128 -53.688 3.737 QT
cp}def
f-581890516
f
GR
GS
[0.75 0 0 0.75 217.50016 298.8] CT
0.149 GC
N
/f-329571425{-49.517 14.831 M
-49.517 11.893 L
-49.517 11.753 -49.361 11.753 QT
-49.142 11.753 L
-49.033 11.753 -49.002 11.893 QT
-48.486 14.518 -46.564 14.518 QT
-45.721 14.518 -45.142 14.128 QT
-44.564 13.737 -44.564 12.925 QT
-44.564 12.346 -45.01 11.94 QT
-45.455 11.534 -46.08 11.378 QT
-47.283 11.143 L
-47.892 11.018 -48.385 10.745 QT
-48.877 10.471 -49.197 10.018 QT
-49.517 9.565 -49.517 8.971 QT
-49.517 8.175 -49.096 7.667 QT
-48.674 7.159 -48.01 6.94 QT
-47.346 6.721 -46.564 6.721 QT
-45.642 6.721 -44.955 7.206 QT
-44.439 6.753 L
-44.439 6.721 -44.361 6.721 QT
-44.221 6.721 L
-44.174 6.721 -44.127 6.768 QT
-44.08 6.815 -44.08 6.862 QT
-44.08 9.221 L
-44.08 9.393 -44.221 9.393 QT
-44.439 9.393 L
-44.596 9.393 -44.596 9.221 QT
-44.596 8.284 -45.119 7.714 QT
-45.642 7.143 -46.58 7.143 QT
-47.392 7.143 -47.986 7.44 QT
-48.58 7.737 -48.58 8.471 QT
-48.58 8.971 -48.158 9.292 QT
-47.736 9.612 -47.158 9.753 QT
-45.939 9.971 L
-45.314 10.112 -44.783 10.448 QT
-44.252 10.784 -43.939 11.292 QT
-43.627 11.8 -43.627 12.44 QT
-43.627 13.096 -43.853 13.573 QT
-44.08 14.05 -44.478 14.37 QT
-44.877 14.69 -45.424 14.839 QT
-45.971 14.987 -46.564 14.987 QT
-47.689 14.987 -48.486 14.237 QT
-49.158 14.94 L
-49.158 14.987 -49.252 14.987 QT
-49.361 14.987 L
-49.517 14.987 -49.517 14.831 QT
cp}def
f-329571425
f
GR
GS
[0.75 0 0 0.75 217.50016 298.8] CT
0.149 GC
N
/f-2115402756{-41.325 12.628 M
-41.325 7.659 L
-42.825 7.659 L
-42.825 7.19 L
-41.653 7.19 -41.099 6.089 QT
-40.544 4.987 -40.544 3.706 QT
-40.028 3.706 L
-40.028 7.018 L
-37.481 7.018 L
-37.481 7.659 L
-40.028 7.659 L
-40.028 12.581 L
-40.028 13.331 -39.778 13.893 QT
-39.528 14.456 -38.872 14.456 QT
-38.263 14.456 -37.989 13.862 QT
-37.716 13.268 -37.716 12.581 QT
-37.716 11.518 L
-37.185 11.518 L
-37.185 12.628 L
-37.185 13.19 -37.396 13.737 QT
-37.606 14.284 -38.013 14.635 QT
-38.419 14.987 -38.997 14.987 QT
-40.075 14.987 -40.7 14.339 QT
-41.325 13.69 -41.325 12.628 QT
cp}def
f-2115402756
f
GR
GS
[0.75 0 0 0.75 217.50016 298.8] CT
0.149 GC
N
/f829853723{-35.606 13.018 M
-35.606 11.94 -34.762 11.268 QT
-33.918 10.596 -32.739 10.323 QT
-31.559 10.05 -30.481 10.05 QT
-30.481 9.315 L
-30.481 8.784 -30.715 8.3 QT
-30.949 7.815 -31.379 7.503 QT
-31.809 7.19 -32.324 7.19 QT
-33.528 7.19 -34.137 7.721 QT
-33.809 7.721 -33.582 7.979 QT
-33.356 8.237 -33.356 8.581 QT
-33.356 8.94 -33.606 9.198 QT
-33.856 9.456 -34.215 9.456 QT
-34.574 9.456 -34.832 9.198 QT
-35.09 8.94 -35.09 8.581 QT
-35.09 7.643 -34.223 7.182 QT
-33.356 6.721 -32.324 6.721 QT
-31.59 6.721 -30.856 7.034 QT
-30.121 7.346 -29.653 7.925 QT
-29.184 8.503 -29.184 9.268 QT
-29.184 13.331 L
-29.184 13.675 -29.035 13.971 QT
-28.887 14.268 -28.559 14.268 QT
-28.262 14.268 -28.121 13.971 QT
-27.981 13.675 -27.981 13.331 QT
-27.981 12.175 L
-27.449 12.175 L
-27.449 13.331 L
-27.449 13.721 -27.66 14.089 QT
-27.871 14.456 -28.223 14.675 QT
-28.574 14.893 -28.996 14.893 QT
-29.528 14.893 -29.91 14.479 QT
-30.293 14.065 -30.324 13.503 QT
-30.668 14.19 -31.317 14.589 QT
-31.965 14.987 -32.699 14.987 QT
-33.387 14.987 -34.051 14.784 QT
-34.715 14.581 -35.16 14.143 QT
-35.606 13.706 -35.606 13.018 QT
cp
-34.137 13.018 M
-34.137 13.643 -33.676 14.081 QT
-33.215 14.518 -32.574 14.518 QT
-31.996 14.518 -31.52 14.221 QT
-31.043 13.925 -30.762 13.425 QT
-30.481 12.925 -30.481 12.378 QT
-30.481 10.503 L
-31.309 10.503 -32.16 10.768 QT
-33.012 11.034 -33.574 11.604 QT
-34.137 12.175 -34.137 13.018 QT
cp}def
f829853723
f
GR
GS
[0.75 0 0 0.75 217.50016 298.8] CT
0.149 GC
N
/f-1233132171{-26.993 14.784 M
-26.993 14.143 L
-26.368 14.143 -25.978 14.05 QT
-25.587 13.956 -25.587 13.581 QT
-25.587 8.659 L
-25.587 8.19 -25.728 7.971 QT
-25.868 7.753 -26.142 7.706 QT
-26.415 7.659 -26.993 7.659 QT
-26.993 7.018 L
-24.384 6.831 L
-24.384 8.581 L
-24.024 7.815 -23.314 7.323 QT
-22.603 6.831 -21.774 6.831 QT
-20.524 6.831 -19.892 7.425 QT
-19.259 8.018 -19.259 9.253 QT
-19.259 13.581 L
-19.259 13.956 -18.868 14.05 QT
-18.478 14.143 -17.853 14.143 QT
-17.853 14.784 L
-21.978 14.784 L
-21.978 14.143 L
-21.368 14.143 -20.97 14.05 QT
-20.571 13.956 -20.571 13.581 QT
-20.571 9.315 L
-20.571 8.425 -20.829 7.862 QT
-21.087 7.3 -21.868 7.3 QT
-22.915 7.3 -23.587 8.135 QT
-24.259 8.971 -24.259 10.034 QT
-24.259 13.581 L
-24.259 13.956 -23.868 14.05 QT
-23.478 14.143 -22.868 14.143 QT
-22.868 14.784 L
-26.993 14.784 L
cp}def
f-1233132171
f
GR
GS
[0.75 0 0 0.75 217.50016 298.8] CT
0.149 GC
N
/f1837511979{-13.262 14.987 M
-14.356 14.987 -15.239 14.417 QT
-16.122 13.846 -16.637 12.901 QT
-17.153 11.956 -17.153 10.893 QT
-17.153 9.831 -16.645 8.854 QT
-16.137 7.878 -15.247 7.3 QT
-14.356 6.721 -13.262 6.721 QT
-12.215 6.721 -11.348 7.128 QT
-10.481 7.534 -10.481 8.487 QT
-10.481 8.831 -10.731 9.089 QT
-10.981 9.346 -11.34 9.346 QT
-11.7 9.346 -11.95 9.089 QT
-12.2 8.831 -12.2 8.487 QT
-12.2 8.159 -11.997 7.932 QT
-11.794 7.706 -11.497 7.643 QT
-12.122 7.237 -13.247 7.237 QT
-14.106 7.237 -14.637 7.807 QT
-15.169 8.378 -15.379 9.221 QT
-15.59 10.065 -15.59 10.893 QT
-15.59 11.768 -15.325 12.581 QT
-15.059 13.393 -14.489 13.925 QT
-13.919 14.456 -13.044 14.456 QT
-12.184 14.456 -11.59 13.932 QT
-10.997 13.409 -10.778 12.565 QT
-10.778 12.456 -10.637 12.456 QT
-10.419 12.456 L
-10.356 12.456 -10.317 12.51 QT
-10.278 12.565 -10.278 12.628 QT
-10.278 12.675 L
-10.544 13.737 -11.356 14.362 QT
-12.169 14.987 -13.262 14.987 QT
cp}def
f1837511979
f
GR
GS
[0.75 0 0 0.75 217.50016 298.8] CT
0.149 GC
N
/f-1843040242{-5.44 14.987 M
-6.534 14.987 -7.456 14.409 QT
-8.378 13.831 -8.901 12.87 QT
-9.424 11.909 -9.424 10.831 QT
-9.424 9.784 -8.948 8.831 QT
-8.471 7.878 -7.612 7.3 QT
-6.753 6.721 -5.69 6.721 QT
-4.878 6.721 -4.26 6.995 QT
-3.643 7.268 -3.253 7.76 QT
-2.862 8.253 -2.659 8.925 QT
-2.456 9.596 -2.456 10.393 QT
-2.456 10.628 -2.643 10.628 QT
-7.846 10.628 L
-7.846 10.815 L
-7.846 12.315 -7.245 13.385 QT
-6.643 14.456 -5.284 14.456 QT
-4.737 14.456 -4.26 14.214 QT
-3.784 13.971 -3.44 13.526 QT
-3.096 13.081 -2.971 12.581 QT
-2.956 12.518 -2.909 12.471 QT
-2.862 12.425 -2.799 12.425 QT
-2.643 12.425 L
-2.456 12.425 -2.456 12.659 QT
-2.706 13.675 -3.549 14.331 QT
-4.393 14.987 -5.44 14.987 QT
cp
-7.831 10.175 M
-3.721 10.175 L
-3.721 9.503 -3.917 8.807 QT
-4.112 8.112 -4.549 7.651 QT
-4.987 7.19 -5.69 7.19 QT
-6.721 7.19 -7.276 8.143 QT
-7.831 9.096 -7.831 10.175 QT
cp}def
f-1843040242
f
GR
GS
[0.75 0 0 0.75 217.50016 298.8] CT
0.149 GC
N
/f-1275373799{9.343 19.253 M
8.343 18.456 7.616 17.432 QT
6.889 16.409 6.429 15.253 QT
5.968 14.096 5.741 12.831 QT
5.514 11.565 5.514 10.284 QT
5.514 8.987 5.741 7.721 QT
5.968 6.456 6.436 5.292 QT
6.905 4.128 7.639 3.104 QT
8.374 2.081 9.343 1.315 QT
9.343 1.284 9.436 1.284 QT
9.608 1.284 L
9.655 1.284 9.702 1.331 QT
9.749 1.378 9.749 1.44 QT
9.749 1.518 9.702 1.55 QT
8.827 2.425 8.241 3.409 QT
7.655 4.393 7.304 5.503 QT
6.952 6.612 6.788 7.8 QT
6.624 8.987 6.624 10.284 QT
6.624 16.003 9.686 18.971 QT
9.749 19.034 9.749 19.128 QT
9.749 19.175 9.694 19.229 QT
9.639 19.284 9.608 19.284 QT
9.436 19.284 L
9.343 19.284 9.343 19.253 QT
cp}def
f-1275373799
f
GR
GS
[0.75 0 0 0.75 217.50016 298.8] CT
0.149 GC
N
/f-1882849417{11.14 14.784 M
11.14 14.143 L
11.765 14.143 12.156 14.05 QT
12.546 13.956 12.546 13.581 QT
12.546 8.659 L
12.546 8.19 12.406 7.971 QT
12.265 7.753 11.992 7.706 QT
11.718 7.659 11.14 7.659 QT
11.14 7.018 L
13.75 6.831 L
13.75 8.581 L
14.109 7.815 14.82 7.323 QT
15.531 6.831 16.359 6.831 QT
18.437 6.831 18.796 8.518 QT
19.156 7.768 19.851 7.3 QT
20.546 6.831 21.375 6.831 QT
22.187 6.831 22.75 7.096 QT
23.312 7.362 23.593 7.901 QT
23.875 8.44 23.875 9.253 QT
23.875 13.581 L
23.875 13.956 24.273 14.05 QT
24.671 14.143 25.281 14.143 QT
25.281 14.784 L
21.156 14.784 L
21.156 14.143 L
21.765 14.143 22.164 14.05 QT
22.562 13.956 22.562 13.581 QT
22.562 9.315 L
22.562 8.409 22.304 7.854 QT
22.046 7.3 21.265 7.3 QT
20.218 7.3 19.546 8.135 QT
18.875 8.971 18.875 10.034 QT
18.875 13.581 L
18.875 13.956 19.265 14.05 QT
19.656 14.143 20.281 14.143 QT
20.281 14.784 L
16.156 14.784 L
16.156 14.143 L
16.765 14.143 17.164 14.05 QT
17.562 13.956 17.562 13.581 QT
17.562 9.315 L
17.562 8.425 17.304 7.862 QT
17.046 7.3 16.265 7.3 QT
15.218 7.3 14.546 8.135 QT
13.875 8.971 13.875 10.034 QT
13.875 13.581 L
13.875 13.956 14.265 14.05 QT
14.656 14.143 15.265 14.143 QT
15.265 14.784 L
11.14 14.784 L
cp}def
f-1882849417
f
GR
GS
[0.75 0 0 0.75 217.50016 298.8] CT
0.149 GC
N
/f-889952059{29.76 14.987 M
28.666 14.987 27.744 14.409 QT
26.822 13.831 26.299 12.87 QT
25.776 11.909 25.776 10.831 QT
25.776 9.784 26.252 8.831 QT
26.729 7.878 27.588 7.3 QT
28.447 6.721 29.51 6.721 QT
30.322 6.721 30.94 6.995 QT
31.557 7.268 31.947 7.76 QT
32.338 8.253 32.541 8.925 QT
32.744 9.596 32.744 10.393 QT
32.744 10.628 32.557 10.628 QT
27.354 10.628 L
27.354 10.815 L
27.354 12.315 27.955 13.385 QT
28.557 14.456 29.916 14.456 QT
30.463 14.456 30.94 14.214 QT
31.416 13.971 31.76 13.526 QT
32.104 13.081 32.229 12.581 QT
32.244 12.518 32.291 12.471 QT
32.338 12.425 32.401 12.425 QT
32.557 12.425 L
32.744 12.425 32.744 12.659 QT
32.494 13.675 31.651 14.331 QT
30.807 14.987 29.76 14.987 QT
cp
27.369 10.175 M
31.479 10.175 L
31.479 9.503 31.283 8.807 QT
31.088 8.112 30.651 7.651 QT
30.213 7.19 29.51 7.19 QT
28.479 7.19 27.924 8.143 QT
27.369 9.096 27.369 10.175 QT
cp}def
f-889952059
f
GR
GS
[0.75 0 0 0.75 217.50016 298.8] CT
0.149 GC
N
/f664492151{34.942 12.628 M
34.942 7.659 L
33.442 7.659 L
33.442 7.19 L
34.613 7.19 35.168 6.089 QT
35.723 4.987 35.723 3.706 QT
36.238 3.706 L
36.238 7.018 L
38.785 7.018 L
38.785 7.659 L
36.238 7.659 L
36.238 12.581 L
36.238 13.331 36.488 13.893 QT
36.738 14.456 37.395 14.456 QT
38.004 14.456 38.278 13.862 QT
38.551 13.268 38.551 12.581 QT
38.551 11.518 L
39.082 11.518 L
39.082 12.628 L
39.082 13.19 38.871 13.737 QT
38.66 14.284 38.254 14.635 QT
37.848 14.987 37.27 14.987 QT
36.192 14.987 35.567 14.339 QT
34.942 13.69 34.942 12.628 QT
cp}def
f664492151
f
GR
GS
[0.75 0 0 0.75 217.50016 298.8] CT
0.149 GC
N
/f1810586974{44.427 14.987 M
43.333 14.987 42.411 14.409 QT
41.489 13.831 40.966 12.87 QT
40.442 11.909 40.442 10.831 QT
40.442 9.784 40.919 8.831 QT
41.395 7.878 42.255 7.3 QT
43.114 6.721 44.177 6.721 QT
44.989 6.721 45.606 6.995 QT
46.224 7.268 46.614 7.76 QT
47.005 8.253 47.208 8.925 QT
47.411 9.596 47.411 10.393 QT
47.411 10.628 47.224 10.628 QT
42.02 10.628 L
42.02 10.815 L
42.02 12.315 42.622 13.385 QT
43.224 14.456 44.583 14.456 QT
45.13 14.456 45.606 14.214 QT
46.083 13.971 46.427 13.526 QT
46.77 13.081 46.895 12.581 QT
46.911 12.518 46.958 12.471 QT
47.005 12.425 47.067 12.425 QT
47.224 12.425 L
47.411 12.425 47.411 12.659 QT
47.161 13.675 46.317 14.331 QT
45.474 14.987 44.427 14.987 QT
cp
42.036 10.175 M
46.145 10.175 L
46.145 9.503 45.95 8.807 QT
45.755 8.112 45.317 7.651 QT
44.88 7.19 44.177 7.19 QT
43.145 7.19 42.591 8.143 QT
42.036 9.096 42.036 10.175 QT
cp}def
f1810586974
f
GR
GS
[0.75 0 0 0.75 217.50016 298.8] CT
0.149 GC
N
/f-718950807{48.233 14.784 M
48.233 14.143 L
48.843 14.143 49.241 14.05 QT
49.64 13.956 49.64 13.581 QT
49.64 8.659 L
49.64 8.19 49.491 7.971 QT
49.343 7.753 49.069 7.706 QT
48.796 7.659 48.233 7.659 QT
48.233 7.018 L
50.811 6.831 L
50.811 8.581 L
51.093 7.8 51.632 7.315 QT
52.171 6.831 52.936 6.831 QT
53.468 6.831 53.89 7.143 QT
54.311 7.456 54.311 7.987 QT
54.311 8.3 54.077 8.542 QT
53.843 8.784 53.499 8.784 QT
53.171 8.784 52.936 8.55 QT
52.702 8.315 52.702 7.987 QT
52.702 7.503 53.046 7.3 QT
52.936 7.3 L
52.202 7.3 51.741 7.823 QT
51.28 8.346 51.085 9.128 QT
50.89 9.909 50.89 10.628 QT
50.89 13.581 L
50.89 14.143 52.64 14.143 QT
52.64 14.784 L
48.233 14.784 L
cp}def
f-718950807
f
GR
GS
[0.75 0 0 0.75 217.50016 298.8] CT
0.149 GC
N
/f-1809651023{55.252 14.831 M
55.252 11.893 L
55.252 11.753 55.408 11.753 QT
55.627 11.753 L
55.736 11.753 55.767 11.893 QT
56.283 14.518 58.205 14.518 QT
59.048 14.518 59.627 14.128 QT
60.205 13.737 60.205 12.925 QT
60.205 12.346 59.759 11.94 QT
59.314 11.534 58.689 11.378 QT
57.486 11.143 L
56.877 11.018 56.384 10.745 QT
55.892 10.471 55.572 10.018 QT
55.252 9.565 55.252 8.971 QT
55.252 8.175 55.673 7.667 QT
56.095 7.159 56.759 6.94 QT
57.423 6.721 58.205 6.721 QT
59.127 6.721 59.814 7.206 QT
60.33 6.753 L
60.33 6.721 60.408 6.721 QT
60.548 6.721 L
60.595 6.721 60.642 6.768 QT
60.689 6.815 60.689 6.862 QT
60.689 9.221 L
60.689 9.393 60.548 9.393 QT
60.33 9.393 L
60.173 9.393 60.173 9.221 QT
60.173 8.284 59.65 7.714 QT
59.127 7.143 58.189 7.143 QT
57.377 7.143 56.783 7.44 QT
56.189 7.737 56.189 8.471 QT
56.189 8.971 56.611 9.292 QT
57.033 9.612 57.611 9.753 QT
58.83 9.971 L
59.455 10.112 59.986 10.448 QT
60.517 10.784 60.83 11.292 QT
61.142 11.8 61.142 12.44 QT
61.142 13.096 60.916 13.573 QT
60.689 14.05 60.291 14.37 QT
59.892 14.69 59.345 14.839 QT
58.798 14.987 58.205 14.987 QT
57.08 14.987 56.283 14.237 QT
55.611 14.94 L
55.611 14.987 55.517 14.987 QT
55.408 14.987 L
55.252 14.987 55.252 14.831 QT
cp}def
f-1809651023
f
GR
GS
[0.75 0 0 0.75 217.50016 298.8] CT
0.149 GC
N
/f-1557897406{62.772 19.284 M
62.616 19.284 62.616 19.128 QT
62.616 19.05 62.647 19.018 QT
65.725 16.003 65.725 10.284 QT
65.725 4.565 62.678 1.596 QT
62.616 1.55 62.616 1.44 QT
62.616 1.378 62.663 1.331 QT
62.709 1.284 62.772 1.284 QT
62.944 1.284 L
62.991 1.284 63.022 1.315 QT
64.319 2.331 65.178 3.792 QT
66.038 5.253 66.436 6.909 QT
66.834 8.565 66.834 10.284 QT
66.834 11.565 66.624 12.8 QT
66.413 14.034 65.944 15.229 QT
65.475 16.425 64.749 17.44 QT
64.022 18.456 63.022 19.253 QT
62.991 19.284 62.944 19.284 QT
62.772 19.284 L
cp}def
f-1557897406
f
GR
GS
[0.75 0 0 0.75 0 0] CT
0.149 GC
2 setlinecap
1 LJ
0.667 LW
N
73 372 M
73 31 L
S
GR
GS
[0.75 0 0 0.75 0 0] CT
0.149 GC
2 setlinecap
1 LJ
0.667 LW
N
507 372 M
507 31 L
S
GR
GS
[0.75 0 0 0.75 0 0] CT
0.149 GC
2 setlinecap
1 LJ
0.667 LW
N
73 372 M
77.34 372 L
S
GR
GS
[0.75 0 0 0.75 0 0] CT
0.149 GC
2 setlinecap
1 LJ
0.667 LW
N
73 329.375 M
77.34 329.375 L
S
GR
GS
[0.75 0 0 0.75 0 0] CT
0.149 GC
2 setlinecap
1 LJ
0.667 LW
N
73 286.75 M
77.34 286.75 L
S
GR
GS
[0.75 0 0 0.75 0 0] CT
0.149 GC
2 setlinecap
1 LJ
0.667 LW
N
73 244.125 M
77.34 244.125 L
S
GR
GS
[0.75 0 0 0.75 0 0] CT
0.149 GC
2 setlinecap
1 LJ
0.667 LW
N
73 201.5 M
77.34 201.5 L
S
GR
GS
[0.75 0 0 0.75 0 0] CT
0.149 GC
2 setlinecap
1 LJ
0.667 LW
N
73 158.875 M
77.34 158.875 L
S
GR
GS
[0.75 0 0 0.75 0 0] CT
0.149 GC
2 setlinecap
1 LJ
0.667 LW
N
73 116.25 M
77.34 116.25 L
S
GR
GS
[0.75 0 0 0.75 0 0] CT
0.149 GC
2 setlinecap
1 LJ
0.667 LW
N
73 73.625 M
77.34 73.625 L
S
GR
GS
[0.75 0 0 0.75 0 0] CT
0.149 GC
2 setlinecap
1 LJ
0.667 LW
N
73 31 M
77.34 31 L
S
GR
GS
[0.75 0 0 0.75 0 0] CT
0.149 GC
2 setlinecap
1 LJ
0.667 LW
N
507 372 M
502.66 372 L
S
GR
GS
[0.75 0 0 0.75 0 0] CT
0.149 GC
2 setlinecap
1 LJ
0.667 LW
N
507 329.375 M
502.66 329.375 L
S
GR
GS
[0.75 0 0 0.75 0 0] CT
0.149 GC
2 setlinecap
1 LJ
0.667 LW
N
507 286.75 M
502.66 286.75 L
S
GR
GS
[0.75 0 0 0.75 0 0] CT
0.149 GC
2 setlinecap
1 LJ
0.667 LW
N
507 244.125 M
502.66 244.125 L
S
GR
GS
[0.75 0 0 0.75 0 0] CT
0.149 GC
2 setlinecap
1 LJ
0.667 LW
N
507 201.5 M
502.66 201.5 L
S
GR
GS
[0.75 0 0 0.75 0 0] CT
0.149 GC
2 setlinecap
1 LJ
0.667 LW
N
507 158.875 M
502.66 158.875 L
S
GR
GS
[0.75 0 0 0.75 0 0] CT
0.149 GC
2 setlinecap
1 LJ
0.667 LW
N
507 116.25 M
502.66 116.25 L
S
GR
GS
[0.75 0 0 0.75 0 0] CT
0.149 GC
2 setlinecap
1 LJ
0.667 LW
N
507 73.625 M
502.66 73.625 L
S
GR
GS
[0.75 0 0 0.75 0 0] CT
0.149 GC
2 setlinecap
1 LJ
0.667 LW
N
507 31 M
502.66 31 L
S
GR
GS
[0.75 0 0 0.75 50.35 279] CT
0.149 GC
N
/f-1098992673{-29.146 0.871 M
-29.146 -0.113 L
-24.912 -0.113 L
-24.912 0.871 L
-29.146 0.871 L
cp}def
f-1098992673
f
GR
GS
[0.75 0 0 0.75 50.35 279] CT
0.149 GC
N
/f-1428727853{-22.516 3.84 M
-22.516 3.277 L
-20.516 3.277 -20.516 2.762 QT
-20.516 -5.629 L
-21.344 -5.238 -22.609 -5.238 QT
-22.609 -5.801 L
-20.641 -5.801 -19.641 -6.816 QT
-19.422 -6.816 L
-19.359 -6.816 -19.313 -6.777 QT
-19.266 -6.738 -19.266 -6.676 QT
-19.266 2.762 L
-19.266 3.277 -17.266 3.277 QT
-17.266 3.84 L
-22.516 3.84 L
cp}def
f-1428727853
f
GR
GS
[0.75 0 0 0.75 50.35 279] CT
0.149 GC
N
/f906190273{-15.547 1.199 M
-15.547 0.637 L
-10.609 -6.738 L
-10.547 -6.816 -10.438 -6.816 QT
-10.203 -6.816 L
-10.031 -6.816 -10.031 -6.644 QT
-10.031 0.637 L
-8.453 0.637 L
-8.453 1.199 L
-10.031 1.199 L
-10.031 2.762 L
-10.031 3.09 -9.563 3.184 QT
-9.094 3.277 -8.469 3.277 QT
-8.469 3.84 L
-12.875 3.84 L
-12.875 3.277 L
-12.266 3.277 -11.797 3.184 QT
-11.328 3.09 -11.328 2.762 QT
-11.328 1.199 L
-15.547 1.199 L
cp
-15.016 0.637 M
-11.234 0.637 L
-11.234 -5.035 L
-15.016 0.637 L
cp}def
f906190273
f
GR
GS
[0.75 0 0 0.75 50.35 279] CT
0.149 GC
N
/f-778410435{-4 4.199 M
-5.953 4.199 -6.664 2.582 QT
-7.375 0.965 -7.375 -1.269 QT
-7.375 -2.66 -7.117 -3.887 QT
-6.859 -5.113 -6.109 -5.965 QT
-5.359 -6.816 -4 -6.816 QT
-2.938 -6.816 -2.266 -6.301 QT
-1.594 -5.785 -1.242 -4.973 QT
-0.891 -4.16 -0.766 -3.223 QT
-0.641 -2.285 -0.641 -1.269 QT
-0.641 0.106 -0.891 1.309 QT
-1.141 2.512 -1.883 3.356 QT
-2.625 4.199 -4 4.199 QT
cp
-4 3.777 M
-3.109 3.777 -2.672 2.863 QT
-2.234 1.949 -2.133 0.84 QT
-2.031 -0.269 -2.031 -1.519 QT
-2.031 -2.723 -2.133 -3.738 QT
-2.234 -4.754 -2.664 -5.582 QT
-3.094 -6.41 -4 -6.41 QT
-4.906 -6.41 -5.344 -5.582 QT
-5.781 -4.754 -5.883 -3.738 QT
-5.984 -2.723 -5.984 -1.519 QT
-5.984 -0.629 -5.938 0.16 QT
-5.891 0.949 -5.703 1.785 QT
-5.516 2.621 -5.102 3.199 QT
-4.688 3.777 -4 3.777 QT
cp}def
f-778410435
f
GR
GS
[0.75 0 0 0.75 50.35 247.03125] CT
0.149 GC
N
f-1098992673
f
GR
GS
[0.75 0 0 0.75 50.35 247.03125] CT
0.149 GC
N
f-1428727853
f
GR
GS
[0.75 0 0 0.75 50.35 247.03125] CT
0.149 GC
N
/f-1931395715{-14.469 2.606 M
-14.094 3.152 -13.461 3.418 QT
-12.828 3.684 -12.109 3.684 QT
-11.172 3.684 -10.781 2.887 QT
-10.391 2.09 -10.391 1.09 QT
-10.391 0.637 -10.477 0.184 QT
-10.563 -0.269 -10.758 -0.66 QT
-10.953 -1.051 -11.289 -1.285 QT
-11.625 -1.519 -12.125 -1.519 QT
-13.188 -1.519 L
-13.328 -1.519 -13.328 -1.676 QT
-13.328 -1.816 L
-13.328 -1.941 -13.188 -1.941 QT
-12.297 -2.004 L
-11.734 -2.004 -11.367 -2.426 QT
-11 -2.848 -10.828 -3.457 QT
-10.656 -4.066 -10.656 -4.613 QT
-10.656 -5.379 -11.016 -5.871 QT
-11.375 -6.363 -12.109 -6.363 QT
-12.719 -6.363 -13.273 -6.129 QT
-13.828 -5.894 -14.156 -5.426 QT
-14.125 -5.441 -14.102 -5.441 QT
-14.078 -5.441 -14.047 -5.441 QT
-13.688 -5.441 -13.445 -5.191 QT
-13.203 -4.941 -13.203 -4.598 QT
-13.203 -4.254 -13.445 -4.004 QT
-13.688 -3.754 -14.047 -3.754 QT
-14.391 -3.754 -14.641 -4.004 QT
-14.891 -4.254 -14.891 -4.598 QT
-14.891 -5.285 -14.477 -5.793 QT
-14.063 -6.301 -13.414 -6.558 QT
-12.766 -6.816 -12.109 -6.816 QT
-11.625 -6.816 -11.086 -6.676 QT
-10.547 -6.535 -10.109 -6.262 QT
-9.672 -5.988 -9.391 -5.566 QT
-9.109 -5.144 -9.109 -4.613 QT
-9.109 -3.941 -9.414 -3.371 QT
-9.719 -2.801 -10.242 -2.387 QT
-10.766 -1.973 -11.391 -1.769 QT
-10.688 -1.629 -10.063 -1.238 QT
-9.438 -0.848 -9.063 -0.238 QT
-8.688 0.371 -8.688 1.074 QT
-8.688 1.949 -9.172 2.668 QT
-9.656 3.387 -10.445 3.793 QT
-11.234 4.199 -12.109 4.199 QT
-12.859 4.199 -13.609 3.91 QT
-14.359 3.621 -14.844 3.051 QT
-15.328 2.481 -15.328 1.684 QT
-15.328 1.277 -15.063 1.012 QT
-14.797 0.746 -14.391 0.746 QT
-14.141 0.746 -13.922 0.871 QT
-13.703 0.996 -13.586 1.215 QT
-13.469 1.434 -13.469 1.684 QT
-13.469 2.074 -13.742 2.34 QT
-14.016 2.606 -14.391 2.606 QT
-14.469 2.606 L
cp}def
f-1931395715
f
GR
GS
[0.75 0 0 0.75 50.35 247.03125] CT
0.149 GC
N
f-778410435
f
GR
GS
[0.75 0 0 0.75 50.35 215.0625] CT
0.149 GC
N
f-1098992673
f
GR
GS
[0.75 0 0 0.75 50.35 215.0625] CT
0.149 GC
N
f-1428727853
f
GR
GS
[0.75 0 0 0.75 50.35 215.0625] CT
0.149 GC
N
/f1710886435{-15.203 3.84 M
-15.203 3.402 L
-15.203 3.371 -15.172 3.324 QT
-12.688 0.574 L
-12.125 -0.035 -11.773 -0.449 QT
-11.422 -0.863 -11.078 -1.402 QT
-10.734 -1.941 -10.531 -2.504 QT
-10.328 -3.066 -10.328 -3.691 QT
-10.328 -4.348 -10.57 -4.941 QT
-10.813 -5.535 -11.297 -5.894 QT
-11.781 -6.254 -12.453 -6.254 QT
-13.156 -6.254 -13.711 -5.84 QT
-14.266 -5.426 -14.484 -4.754 QT
-14.422 -4.769 -14.313 -4.769 QT
-13.953 -4.769 -13.703 -4.527 QT
-13.453 -4.285 -13.453 -3.91 QT
-13.453 -3.535 -13.703 -3.285 QT
-13.953 -3.035 -14.313 -3.035 QT
-14.688 -3.035 -14.945 -3.293 QT
-15.203 -3.551 -15.203 -3.91 QT
-15.203 -4.504 -14.977 -5.035 QT
-14.75 -5.566 -14.32 -5.973 QT
-13.891 -6.379 -13.359 -6.598 QT
-12.828 -6.816 -12.219 -6.816 QT
-11.313 -6.816 -10.523 -6.433 QT
-9.734 -6.051 -9.273 -5.34 QT
-8.813 -4.629 -8.813 -3.691 QT
-8.813 -2.988 -9.117 -2.363 QT
-9.422 -1.738 -9.898 -1.23 QT
-10.375 -0.723 -11.117 -0.074 QT
-11.859 0.574 -12.094 0.793 QT
-13.906 2.543 L
-12.359 2.543 L
-11.234 2.543 -10.469 2.52 QT
-9.703 2.496 -9.656 2.465 QT
-9.469 2.262 -9.281 0.981 QT
-8.813 0.981 L
-9.266 3.84 L
-15.203 3.84 L
cp}def
f1710886435
f
GR
GS
[0.75 0 0 0.75 50.35 215.0625] CT
0.149 GC
N
f-778410435
f
GR
GS
[0.75 0 0 0.75 50.35 183.09375] CT
0.149 GC
N
f-1098992673
f
GR
GS
[0.75 0 0 0.75 50.35 183.09375] CT
0.149 GC
N
f-1428727853
f
GR
GS
[0.75 0 0 0.75 50.35 183.09375] CT
0.149 GC
N
/f-36096227{-14.516 3.84 M
-14.516 3.277 L
-12.516 3.277 -12.516 2.762 QT
-12.516 -5.629 L
-13.344 -5.238 -14.609 -5.238 QT
-14.609 -5.801 L
-12.641 -5.801 -11.641 -6.816 QT
-11.422 -6.816 L
-11.359 -6.816 -11.313 -6.777 QT
-11.266 -6.738 -11.266 -6.676 QT
-11.266 2.762 L
-11.266 3.277 -9.266 3.277 QT
-9.266 3.84 L
-14.516 3.84 L
cp}def
f-36096227
f
GR
GS
[0.75 0 0 0.75 50.35 183.09375] CT
0.149 GC
N
f-778410435
f
GR
GS
[0.75 0 0 0.75 50.35 151.125] CT
0.149 GC
N
f-1098992673
f
GR
GS
[0.75 0 0 0.75 50.35 151.125] CT
0.149 GC
N
f-1428727853
f
GR
GS
[0.75 0 0 0.75 50.35 151.125] CT
0.149 GC
N
/f-268641983{-12 4.199 M
-13.953 4.199 -14.664 2.582 QT
-15.375 0.965 -15.375 -1.269 QT
-15.375 -2.66 -15.117 -3.887 QT
-14.859 -5.113 -14.109 -5.965 QT
-13.359 -6.816 -12 -6.816 QT
-10.938 -6.816 -10.266 -6.301 QT
-9.594 -5.785 -9.242 -4.973 QT
-8.891 -4.16 -8.766 -3.223 QT
-8.641 -2.285 -8.641 -1.269 QT
-8.641 0.106 -8.891 1.309 QT
-9.141 2.512 -9.883 3.356 QT
-10.625 4.199 -12 4.199 QT
cp
-12 3.777 M
-11.109 3.777 -10.672 2.863 QT
-10.234 1.949 -10.133 0.84 QT
-10.031 -0.269 -10.031 -1.519 QT
-10.031 -2.723 -10.133 -3.738 QT
-10.234 -4.754 -10.664 -5.582 QT
-11.094 -6.41 -12 -6.41 QT
-12.906 -6.41 -13.344 -5.582 QT
-13.781 -4.754 -13.883 -3.738 QT
-13.984 -2.723 -13.984 -1.519 QT
-13.984 -0.629 -13.938 0.16 QT
-13.891 0.949 -13.703 1.785 QT
-13.516 2.621 -13.102 3.199 QT
-12.688 3.777 -12 3.777 QT
cp}def
f-268641983
f
GR
GS
[0.75 0 0 0.75 50.35 151.125] CT
0.149 GC
N
f-778410435
f
GR
GS
[0.75 0 0 0.75 50.35 119.15625] CT
0.149 GC
N
/f-1965390697{-21.146 0.871 M
-21.146 -0.113 L
-16.912 -0.113 L
-16.912 0.871 L
-21.146 0.871 L
cp}def
f-1965390697
f
GR
GS
[0.75 0 0 0.75 50.35 119.15625] CT
0.149 GC
N
/f739355595{-14.188 3.168 M
-13.75 3.684 -12.672 3.684 QT
-12.063 3.684 -11.531 3.27 QT
-11 2.856 -10.719 2.246 QT
-10.375 1.574 -10.281 0.801 QT
-10.188 0.027 -10.188 -1.113 QT
-10.469 -0.457 -10.977 -0.043 QT
-11.484 0.371 -12.156 0.371 QT
-13.078 0.371 -13.813 -0.137 QT
-14.547 -0.644 -14.938 -1.465 QT
-15.328 -2.285 -15.328 -3.223 QT
-15.328 -4.176 -14.891 -5.012 QT
-14.453 -5.848 -13.68 -6.332 QT
-12.906 -6.816 -11.922 -6.816 QT
-10.953 -6.816 -10.297 -6.293 QT
-9.641 -5.769 -9.297 -4.933 QT
-8.953 -4.098 -8.82 -3.168 QT
-8.688 -2.238 -8.688 -1.332 QT
-8.688 -0.098 -9.141 1.184 QT
-9.594 2.465 -10.492 3.332 QT
-11.391 4.199 -12.672 4.199 QT
-13.609 4.199 -14.266 3.746 QT
-14.922 3.293 -14.922 2.402 QT
-14.922 2.074 -14.703 1.848 QT
-14.484 1.621 -14.156 1.621 QT
-13.828 1.621 -13.609 1.848 QT
-13.391 2.074 -13.391 2.402 QT
-13.391 2.715 -13.617 2.942 QT
-13.844 3.168 -14.156 3.168 QT
-14.188 3.168 L
cp
-12.094 -0.051 M
-11.438 -0.051 -11.016 -0.496 QT
-10.594 -0.941 -10.406 -1.598 QT
-10.219 -2.254 -10.219 -2.894 QT
-10.219 -3.207 L
-10.219 -3.269 L
-10.219 -4.473 -10.57 -5.418 QT
-10.922 -6.363 -11.922 -6.363 QT
-12.547 -6.363 -12.945 -6.082 QT
-13.344 -5.801 -13.531 -5.34 QT
-13.719 -4.879 -13.766 -4.355 QT
-13.813 -3.832 -13.813 -3.223 QT
-13.813 -2.316 -13.727 -1.676 QT
-13.641 -1.035 -13.258 -0.543 QT
-12.875 -0.051 -12.094 -0.051 QT
cp}def
f739355595
f
GR
GS
[0.75 0 0 0.75 50.35 119.15625] CT
0.149 GC
N
f-778410435
f
GR
GS
[0.75 0 0 0.75 50.35 87.1875] CT
0.149 GC
N
f-1965390697
f
GR
GS
[0.75 0 0 0.75 50.35 87.1875] CT
0.149 GC
N
/f-1046561076{-15.328 1.402 M
-15.328 0.449 -14.695 -0.293 QT
-14.063 -1.035 -13.063 -1.519 QT
-13.656 -1.91 L
-14.203 -2.269 -14.547 -2.863 QT
-14.891 -3.457 -14.891 -4.113 QT
-14.891 -4.879 -14.492 -5.496 QT
-14.094 -6.113 -13.422 -6.465 QT
-12.75 -6.816 -12 -6.816 QT
-11.281 -6.816 -10.625 -6.527 QT
-9.969 -6.238 -9.539 -5.699 QT
-9.109 -5.16 -9.109 -4.426 QT
-9.109 -3.879 -9.367 -3.418 QT
-9.625 -2.957 -10.063 -2.59 QT
-10.5 -2.223 -11 -1.973 QT
-10.094 -1.379 L
-9.453 -0.973 -9.07 -0.301 QT
-8.688 0.371 -8.688 1.121 QT
-8.688 1.981 -9.148 2.692 QT
-9.609 3.402 -10.375 3.801 QT
-11.141 4.199 -12 4.199 QT
-12.828 4.199 -13.594 3.856 QT
-14.359 3.512 -14.844 2.879 QT
-15.328 2.246 -15.328 1.402 QT
cp
-14.453 1.402 M
-14.453 2.043 -14.109 2.567 QT
-13.766 3.09 -13.195 3.387 QT
-12.625 3.684 -12 3.684 QT
-11.063 3.684 -10.305 3.137 QT
-9.547 2.59 -9.547 1.699 QT
-9.547 1.387 -9.672 1.09 QT
-9.797 0.793 -10.008 0.543 QT
-10.219 0.293 -10.484 0.137 QT
-12.641 -1.254 L
-13.141 -0.988 -13.555 -0.582 QT
-13.969 -0.176 -14.211 0.332 QT
-14.453 0.84 -14.453 1.402 QT
cp
-13.359 -3.473 M
-11.422 -2.223 L
-10.75 -2.613 -10.32 -3.168 QT
-9.891 -3.723 -9.891 -4.426 QT
-9.891 -4.957 -10.188 -5.41 QT
-10.484 -5.863 -10.969 -6.113 QT
-11.453 -6.363 -12.016 -6.363 QT
-12.5 -6.363 -12.992 -6.176 QT
-13.484 -5.988 -13.805 -5.613 QT
-14.125 -5.238 -14.125 -4.738 QT
-14.125 -3.988 -13.359 -3.473 QT
cp}def
f-1046561076
f
GR
GS
[0.75 0 0 0.75 50.35 87.1875] CT
0.149 GC
N
f-778410435
f
GR
GS
[0.75 0 0 0.75 50.35 55.21875] CT
0.149 GC
N
f-1965390697
f
GR
GS
[0.75 0 0 0.75 50.35 55.21875] CT
0.149 GC
N
/f-1049826609{-13.219 3.418 M
-13.219 2.527 -13.063 1.676 QT
-12.906 0.824 -12.602 -0.004 QT
-12.297 -0.832 -11.875 -1.637 QT
-11.453 -2.441 -10.938 -3.144 QT
-9.484 -5.176 L
-11.313 -5.176 L
-14.156 -5.176 -14.234 -5.098 QT
-14.453 -4.832 -14.641 -3.613 QT
-15.094 -3.613 L
-14.578 -6.973 L
-14.109 -6.973 L
-14.109 -6.926 L
-14.109 -6.644 -13.133 -6.558 QT
-12.156 -6.473 -11.219 -6.473 QT
-8.234 -6.473 L
-8.234 -6.051 L
-8.234 -6.035 -8.242 -6.027 QT
-8.25 -6.019 -8.25 -6.004 QT
-10.453 -2.91 L
-11.266 -1.707 -11.469 -0.238 QT
-11.672 1.231 -11.672 3.418 QT
-11.672 3.731 -11.898 3.965 QT
-12.125 4.199 -12.438 4.199 QT
-12.766 4.199 -12.992 3.965 QT
-13.219 3.731 -13.219 3.418 QT
cp}def
f-1049826609
f
GR
GS
[0.75 0 0 0.75 50.35 55.21875] CT
0.149 GC
N
f-778410435
f
GR
GS
[0.75 0 0 0.75 50.35 23.25] CT
0.149 GC
N
f-1965390697
f
GR
GS
[0.75 0 0 0.75 50.35 23.25] CT
0.149 GC
N
/f-531576254{-12 4.199 M
-12.984 4.199 -13.648 3.668 QT
-14.313 3.137 -14.68 2.293 QT
-15.047 1.449 -15.188 0.527 QT
-15.328 -0.394 -15.328 -1.332 QT
-15.328 -2.598 -14.836 -3.871 QT
-14.344 -5.144 -13.383 -5.98 QT
-12.422 -6.816 -11.109 -6.816 QT
-10.563 -6.816 -10.094 -6.613 QT
-9.625 -6.41 -9.352 -6.004 QT
-9.078 -5.598 -9.078 -5.035 QT
-9.078 -4.707 -9.305 -4.48 QT
-9.531 -4.254 -9.859 -4.254 QT
-10.172 -4.254 -10.398 -4.48 QT
-10.625 -4.707 -10.625 -5.035 QT
-10.625 -5.348 -10.398 -5.574 QT
-10.172 -5.801 -9.859 -5.801 QT
-9.766 -5.801 L
-9.969 -6.082 -10.344 -6.223 QT
-10.719 -6.363 -11.109 -6.363 QT
-11.594 -6.363 -12.008 -6.152 QT
-12.422 -5.941 -12.75 -5.582 QT
-13.078 -5.223 -13.297 -4.785 QT
-13.516 -4.348 -13.633 -3.793 QT
-13.75 -3.238 -13.781 -2.754 QT
-13.813 -2.269 -13.813 -1.535 QT
-13.531 -2.191 -13.016 -2.613 QT
-12.5 -3.035 -11.859 -3.035 QT
-11.141 -3.035 -10.555 -2.746 QT
-9.969 -2.457 -9.547 -1.941 QT
-9.125 -1.426 -8.906 -0.769 QT
-8.688 -0.113 -8.688 0.559 QT
-8.688 1.496 -9.102 2.34 QT
-9.516 3.184 -10.273 3.692 QT
-11.031 4.199 -12 4.199 QT
cp
-12 3.684 M
-11.375 3.684 -11 3.402 QT
-10.625 3.121 -10.453 2.652 QT
-10.281 2.184 -10.234 1.715 QT
-10.188 1.246 -10.188 0.559 QT
-10.188 -0.348 -10.273 -0.988 QT
-10.359 -1.629 -10.742 -2.121 QT
-11.125 -2.613 -11.922 -2.613 QT
-12.563 -2.613 -12.984 -2.176 QT
-13.406 -1.738 -13.594 -1.066 QT
-13.781 -0.394 -13.781 0.215 QT
-13.781 0.434 -13.766 0.543 QT
-13.766 0.559 -13.773 0.574 QT
-13.781 0.59 -13.781 0.621 QT
-13.781 1.309 -13.641 2.012 QT
-13.5 2.715 -13.102 3.199 QT
-12.703 3.684 -12 3.684 QT
cp}def
f-531576254
f
GR
GS
[0.75 0 0 0.75 50.35 23.25] CT
0.149 GC
N
f-778410435
f
GR
GS
[0 -0.75 0.75 0 25.34995 151.12487] CT
0.149 GC
N
/f1656828146{-88.558 -6.336 M
-88.558 -6.977 L
-86.621 -6.977 -86.621 -7.539 QT
-86.621 -17.43 L
-86.621 -17.992 -88.558 -17.992 QT
-88.558 -18.633 L
-82.996 -18.633 L
-82.996 -17.992 L
-84.933 -17.992 -84.933 -17.43 QT
-84.933 -7.539 L
-84.933 -6.977 -82.996 -6.977 QT
-82.996 -6.336 L
-88.558 -6.336 L
cp}def
f1656828146
f
GR
GS
[0 -0.75 0.75 0 25.34995 151.12487] CT
0.149 GC
N
/f471774257{-82.14 -6.336 M
-82.14 -6.977 L
-81.515 -6.977 -81.124 -7.07 QT
-80.734 -7.164 -80.734 -7.539 QT
-80.734 -12.461 L
-80.734 -12.93 -80.874 -13.149 QT
-81.015 -13.367 -81.288 -13.414 QT
-81.562 -13.461 -82.14 -13.461 QT
-82.14 -14.102 L
-79.531 -14.289 L
-79.531 -12.539 L
-79.171 -13.305 -78.46 -13.797 QT
-77.749 -14.289 -76.921 -14.289 QT
-75.671 -14.289 -75.038 -13.695 QT
-74.406 -13.102 -74.406 -11.867 QT
-74.406 -7.539 L
-74.406 -7.164 -74.015 -7.07 QT
-73.624 -6.977 -72.999 -6.977 QT
-72.999 -6.336 L
-77.124 -6.336 L
-77.124 -6.977 L
-76.515 -6.977 -76.117 -7.07 QT
-75.718 -7.164 -75.718 -7.539 QT
-75.718 -11.805 L
-75.718 -12.695 -75.976 -13.258 QT
-76.234 -13.82 -77.015 -13.82 QT
-78.062 -13.82 -78.734 -12.985 QT
-79.406 -12.149 -79.406 -11.086 QT
-79.406 -7.539 L
-79.406 -7.164 -79.015 -7.07 QT
-78.624 -6.977 -78.015 -6.977 QT
-78.015 -6.336 L
-82.14 -6.336 L
cp}def
f471774257
f
GR
GS
[0 -0.75 0.75 0 25.34995 151.12487] CT
0.149 GC
N
/f1508729321{-68.992 -6.336 M
-71.617 -12.945 L
-71.789 -13.274 -72.132 -13.367 QT
-72.476 -13.461 -73.039 -13.461 QT
-73.039 -14.102 L
-69.257 -14.102 L
-69.257 -13.461 L
-70.273 -13.461 -70.273 -13.039 QT
-70.273 -12.961 -70.257 -12.93 QT
-68.226 -7.852 L
-66.414 -12.43 L
-66.367 -12.57 -66.367 -12.727 QT
-66.367 -13.07 -66.625 -13.266 QT
-66.882 -13.461 -67.226 -13.461 QT
-67.226 -14.102 L
-64.242 -14.102 L
-64.242 -13.461 L
-64.789 -13.461 -65.21 -13.211 QT
-65.632 -12.961 -65.851 -12.461 QT
-68.289 -6.336 L
-68.351 -6.133 -68.57 -6.133 QT
-68.71 -6.133 L
-68.929 -6.133 -68.992 -6.336 QT
cp}def
f1508729321
f
GR
GS
[0 -0.75 0.75 0 25.34995 151.12487] CT
0.149 GC
N
/f1524716306{-60.098 -6.133 M
-61.192 -6.133 -62.114 -6.711 QT
-63.035 -7.289 -63.559 -8.25 QT
-64.082 -9.211 -64.082 -10.289 QT
-64.082 -11.336 -63.606 -12.289 QT
-63.129 -13.242 -62.27 -13.82 QT
-61.41 -14.399 -60.348 -14.399 QT
-59.535 -14.399 -58.918 -14.125 QT
-58.301 -13.852 -57.91 -13.36 QT
-57.52 -12.867 -57.317 -12.195 QT
-57.114 -11.524 -57.114 -10.727 QT
-57.114 -10.492 -57.301 -10.492 QT
-62.504 -10.492 L
-62.504 -10.305 L
-62.504 -8.805 -61.903 -7.735 QT
-61.301 -6.664 -59.942 -6.664 QT
-59.395 -6.664 -58.918 -6.906 QT
-58.442 -7.149 -58.098 -7.594 QT
-57.754 -8.039 -57.629 -8.539 QT
-57.614 -8.602 -57.567 -8.649 QT
-57.52 -8.695 -57.457 -8.695 QT
-57.301 -8.695 L
-57.114 -8.695 -57.114 -8.461 QT
-57.364 -7.445 -58.207 -6.789 QT
-59.051 -6.133 -60.098 -6.133 QT
cp
-62.489 -10.945 M
-58.379 -10.945 L
-58.379 -11.617 -58.574 -12.313 QT
-58.77 -13.008 -59.207 -13.469 QT
-59.645 -13.93 -60.348 -13.93 QT
-61.379 -13.93 -61.934 -12.977 QT
-62.489 -12.024 -62.489 -10.945 QT
cp}def
f1524716306
f
GR
GS
[0 -0.75 0.75 0 25.34995 151.12487] CT
0.149 GC
N
/f194212577{-56.291 -6.336 M
-56.291 -6.977 L
-55.682 -6.977 -55.284 -7.07 QT
-54.885 -7.164 -54.885 -7.539 QT
-54.885 -12.461 L
-54.885 -12.93 -55.034 -13.149 QT
-55.182 -13.367 -55.455 -13.414 QT
-55.729 -13.461 -56.291 -13.461 QT
-56.291 -14.102 L
-53.713 -14.289 L
-53.713 -12.539 L
-53.432 -13.32 -52.893 -13.805 QT
-52.354 -14.289 -51.588 -14.289 QT
-51.057 -14.289 -50.635 -13.977 QT
-50.213 -13.664 -50.213 -13.133 QT
-50.213 -12.82 -50.448 -12.578 QT
-50.682 -12.336 -51.026 -12.336 QT
-51.354 -12.336 -51.588 -12.57 QT
-51.823 -12.805 -51.823 -13.133 QT
-51.823 -13.617 -51.479 -13.82 QT
-51.588 -13.82 L
-52.323 -13.82 -52.784 -13.297 QT
-53.244 -12.774 -53.44 -11.992 QT
-53.635 -11.211 -53.635 -10.492 QT
-53.635 -7.539 L
-53.635 -6.977 -51.885 -6.977 QT
-51.885 -6.336 L
-56.291 -6.336 L
cp}def
f194212577
f
GR
GS
[0 -0.75 0.75 0 25.34995 151.12487] CT
0.149 GC
N
/f878647148{-49.273 -6.289 M
-49.273 -9.227 L
-49.273 -9.367 -49.117 -9.367 QT
-48.898 -9.367 L
-48.789 -9.367 -48.757 -9.227 QT
-48.242 -6.602 -46.32 -6.602 QT
-45.476 -6.602 -44.898 -6.992 QT
-44.32 -7.383 -44.32 -8.195 QT
-44.32 -8.774 -44.765 -9.18 QT
-45.21 -9.586 -45.835 -9.742 QT
-47.039 -9.977 L
-47.648 -10.102 -48.14 -10.375 QT
-48.632 -10.649 -48.953 -11.102 QT
-49.273 -11.555 -49.273 -12.149 QT
-49.273 -12.945 -48.851 -13.453 QT
-48.429 -13.961 -47.765 -14.18 QT
-47.101 -14.399 -46.32 -14.399 QT
-45.398 -14.399 -44.71 -13.914 QT
-44.195 -14.367 L
-44.195 -14.399 -44.117 -14.399 QT
-43.976 -14.399 L
-43.929 -14.399 -43.882 -14.352 QT
-43.835 -14.305 -43.835 -14.258 QT
-43.835 -11.899 L
-43.835 -11.727 -43.976 -11.727 QT
-44.195 -11.727 L
-44.351 -11.727 -44.351 -11.899 QT
-44.351 -12.836 -44.875 -13.406 QT
-45.398 -13.977 -46.335 -13.977 QT
-47.148 -13.977 -47.742 -13.68 QT
-48.335 -13.383 -48.335 -12.649 QT
-48.335 -12.149 -47.914 -11.828 QT
-47.492 -11.508 -46.914 -11.367 QT
-45.695 -11.149 L
-45.07 -11.008 -44.539 -10.672 QT
-44.007 -10.336 -43.695 -9.828 QT
-43.382 -9.32 -43.382 -8.68 QT
-43.382 -8.024 -43.609 -7.547 QT
-43.835 -7.07 -44.234 -6.75 QT
-44.632 -6.43 -45.179 -6.281 QT
-45.726 -6.133 -46.32 -6.133 QT
-47.445 -6.133 -48.242 -6.883 QT
-48.914 -6.18 L
-48.914 -6.133 -49.007 -6.133 QT
-49.117 -6.133 L
-49.273 -6.133 -49.273 -6.289 QT
cp}def
f878647148
f
GR
GS
[0 -0.75 0.75 0 25.34995 151.12487] CT
0.149 GC
N
/f104010031{-38.44 -6.133 M
-39.534 -6.133 -40.456 -6.711 QT
-41.378 -7.289 -41.901 -8.25 QT
-42.425 -9.211 -42.425 -10.289 QT
-42.425 -11.336 -41.948 -12.289 QT
-41.471 -13.242 -40.612 -13.82 QT
-39.753 -14.399 -38.69 -14.399 QT
-37.878 -14.399 -37.26 -14.125 QT
-36.643 -13.852 -36.253 -13.36 QT
-35.862 -12.867 -35.659 -12.195 QT
-35.456 -11.524 -35.456 -10.727 QT
-35.456 -10.492 -35.643 -10.492 QT
-40.846 -10.492 L
-40.846 -10.305 L
-40.846 -8.805 -40.245 -7.735 QT
-39.643 -6.664 -38.284 -6.664 QT
-37.737 -6.664 -37.26 -6.906 QT
-36.784 -7.149 -36.44 -7.594 QT
-36.096 -8.039 -35.971 -8.539 QT
-35.956 -8.602 -35.909 -8.649 QT
-35.862 -8.695 -35.8 -8.695 QT
-35.643 -8.695 L
-35.456 -8.695 -35.456 -8.461 QT
-35.706 -7.445 -36.55 -6.789 QT
-37.393 -6.133 -38.44 -6.133 QT
cp
-40.831 -10.945 M
-36.721 -10.945 L
-36.721 -11.617 -36.917 -12.313 QT
-37.112 -13.008 -37.55 -13.469 QT
-37.987 -13.93 -38.69 -13.93 QT
-39.721 -13.93 -40.276 -12.977 QT
-40.831 -12.024 -40.831 -10.945 QT
cp}def
f104010031
f
GR
GS
[0 -0.75 0.75 0 25.34995 151.12487] CT
0.149 GC
N
/f-1544449532{-28.642 -6.336 M
-28.642 -6.977 L
-26.783 -6.977 -26.783 -7.539 QT
-26.783 -17.43 L
-26.783 -17.992 -28.642 -17.992 QT
-28.642 -18.633 L
-22.236 -18.633 L
-21.251 -18.633 -20.267 -18.227 QT
-19.283 -17.82 -18.642 -17.047 QT
-18.001 -16.274 -18.001 -15.242 QT
-18.001 -14.242 -18.642 -13.492 QT
-19.283 -12.742 -20.259 -12.344 QT
-21.236 -11.945 -22.236 -11.945 QT
-25.111 -11.945 L
-25.111 -7.539 L
-25.111 -6.977 -23.251 -6.977 QT
-23.251 -6.336 L
-28.642 -6.336 L
cp
-25.173 -12.492 M
-22.72 -12.492 L
-21.736 -12.492 -21.118 -12.774 QT
-20.501 -13.055 -20.212 -13.656 QT
-19.923 -14.258 -19.923 -15.242 QT
-19.923 -16.711 -20.572 -17.352 QT
-21.22 -17.992 -22.72 -17.992 QT
-24.251 -17.992 L
-24.579 -17.992 -24.759 -17.969 QT
-24.939 -17.945 -25.056 -17.82 QT
-25.173 -17.695 -25.173 -17.43 QT
-25.173 -12.492 L
cp}def
f-1544449532
f
GR
GS
[0 -0.75 0.75 0 25.34995 151.12487] CT
0.149 GC
N
/f-1943863415{-17.028 -8.102 M
-17.028 -9.18 -16.184 -9.852 QT
-15.34 -10.524 -14.161 -10.797 QT
-12.981 -11.07 -11.903 -11.07 QT
-11.903 -11.805 L
-11.903 -12.336 -12.137 -12.82 QT
-12.372 -13.305 -12.801 -13.617 QT
-13.231 -13.93 -13.747 -13.93 QT
-14.95 -13.93 -15.559 -13.399 QT
-15.231 -13.399 -15.005 -13.141 QT
-14.778 -12.883 -14.778 -12.539 QT
-14.778 -12.18 -15.028 -11.922 QT
-15.278 -11.664 -15.637 -11.664 QT
-15.997 -11.664 -16.255 -11.922 QT
-16.512 -12.18 -16.512 -12.539 QT
-16.512 -13.477 -15.645 -13.938 QT
-14.778 -14.399 -13.747 -14.399 QT
-13.012 -14.399 -12.278 -14.086 QT
-11.544 -13.774 -11.075 -13.195 QT
-10.606 -12.617 -10.606 -11.852 QT
-10.606 -7.789 L
-10.606 -7.445 -10.458 -7.149 QT
-10.309 -6.852 -9.981 -6.852 QT
-9.684 -6.852 -9.544 -7.149 QT
-9.403 -7.445 -9.403 -7.789 QT
-9.403 -8.945 L
-8.872 -8.945 L
-8.872 -7.789 L
-8.872 -7.399 -9.083 -7.031 QT
-9.294 -6.664 -9.645 -6.445 QT
-9.997 -6.227 -10.419 -6.227 QT
-10.95 -6.227 -11.333 -6.641 QT
-11.715 -7.055 -11.747 -7.617 QT
-12.09 -6.93 -12.739 -6.531 QT
-13.387 -6.133 -14.122 -6.133 QT
-14.809 -6.133 -15.473 -6.336 QT
-16.137 -6.539 -16.583 -6.977 QT
-17.028 -7.414 -17.028 -8.102 QT
cp
-15.559 -8.102 M
-15.559 -7.477 -15.098 -7.039 QT
-14.637 -6.602 -13.997 -6.602 QT
-13.419 -6.602 -12.942 -6.899 QT
-12.465 -7.195 -12.184 -7.695 QT
-11.903 -8.195 -11.903 -8.742 QT
-11.903 -10.617 L
-12.731 -10.617 -13.583 -10.352 QT
-14.434 -10.086 -14.997 -9.516 QT
-15.559 -8.945 -15.559 -8.102 QT
cp}def
f-1943863415
f
GR
GS
[0 -0.75 0.75 0 25.34995 151.12487] CT
0.149 GC
N
/f-1315090250{-7.103 -8.492 M
-7.103 -13.461 L
-8.603 -13.461 L
-8.603 -13.93 L
-7.431 -13.93 -6.876 -15.031 QT
-6.322 -16.133 -6.322 -17.414 QT
-5.806 -17.414 L
-5.806 -14.102 L
-3.259 -14.102 L
-3.259 -13.461 L
-5.806 -13.461 L
-5.806 -8.539 L
-5.806 -7.789 -5.556 -7.227 QT
-5.306 -6.664 -4.65 -6.664 QT
-4.04 -6.664 -3.767 -7.258 QT
-3.494 -7.852 -3.494 -8.539 QT
-3.494 -9.602 L
-2.962 -9.602 L
-2.962 -8.492 L
-2.962 -7.93 -3.173 -7.383 QT
-3.384 -6.836 -3.79 -6.485 QT
-4.197 -6.133 -4.775 -6.133 QT
-5.853 -6.133 -6.478 -6.781 QT
-7.103 -7.43 -7.103 -8.492 QT
cp}def
f-1315090250
f
GR
GS
[0 -0.75 0.75 0 25.34995 151.12487] CT
0.149 GC
N
/f-1933893584{-1.571 -6.336 M
-1.571 -6.977 L
-0.946 -6.977 -0.555 -7.07 QT
-0.165 -7.164 -0.165 -7.539 QT
-0.165 -16.992 L
-0.165 -17.477 -0.305 -17.688 QT
-0.446 -17.899 -0.719 -17.945 QT
-0.993 -17.992 -1.571 -17.992 QT
-1.571 -18.633 L
1.101 -18.82 L
1.101 -12.633 L
1.492 -13.383 2.163 -13.836 QT
2.835 -14.289 3.648 -14.289 QT
4.898 -14.289 5.531 -13.695 QT
6.163 -13.102 6.163 -11.867 QT
6.163 -7.539 L
6.163 -7.164 6.554 -7.07 QT
6.945 -6.977 7.57 -6.977 QT
7.57 -6.336 L
3.445 -6.336 L
3.445 -6.977 L
4.054 -6.977 4.452 -7.07 QT
4.851 -7.164 4.851 -7.539 QT
4.851 -11.805 L
4.851 -12.695 4.593 -13.258 QT
4.335 -13.82 3.554 -13.82 QT
2.507 -13.82 1.835 -12.985 QT
1.163 -12.149 1.163 -11.086 QT
1.163 -7.539 L
1.163 -7.164 1.554 -7.07 QT
1.945 -6.977 2.554 -6.977 QT
2.554 -6.336 L
-1.571 -6.336 L
cp}def
f-1933893584
f
GR
GS
[0 -0.75 0.75 0 25.34995 151.12487] CT
0.149 GC
N
/f-361521160{14.089 -6.336 M
14.089 -6.977 L
15.948 -6.977 15.948 -7.539 QT
15.948 -17.43 L
15.948 -17.992 14.089 -17.992 QT
14.089 -18.633 L
19.933 -18.633 L
19.933 -17.992 L
17.636 -17.992 17.636 -17.43 QT
17.636 -7.539 L
17.636 -7.149 17.855 -7.063 QT
18.073 -6.977 18.542 -6.977 QT
19.933 -6.977 L
21.277 -6.977 22.003 -7.469 QT
22.73 -7.961 23.034 -8.805 QT
23.339 -9.649 23.495 -11.055 QT
24.027 -11.055 L
23.511 -6.336 L
14.089 -6.336 L
cp}def
f-361521160
f
GR
GS
[0 -0.75 0.75 0 25.34995 151.12487] CT
0.149 GC
N
/f-1279739253{29.042 -6.133 M
27.964 -6.133 27.042 -6.68 QT
26.12 -7.227 25.581 -8.156 QT
25.042 -9.086 25.042 -10.164 QT
25.042 -10.992 25.339 -11.758 QT
25.636 -12.524 26.183 -13.125 QT
26.73 -13.727 27.456 -14.063 QT
28.183 -14.399 29.042 -14.399 QT
30.152 -14.399 31.058 -13.82 QT
31.964 -13.242 32.495 -12.258 QT
33.027 -11.274 33.027 -10.164 QT
33.027 -9.086 32.488 -8.156 QT
31.948 -7.227 31.034 -6.68 QT
30.12 -6.133 29.042 -6.133 QT
cp
29.042 -6.664 M
30.48 -6.664 30.964 -7.711 QT
31.448 -8.758 31.448 -10.367 QT
31.448 -11.274 31.355 -11.867 QT
31.261 -12.461 30.933 -12.945 QT
30.73 -13.242 30.417 -13.469 QT
30.105 -13.695 29.761 -13.813 QT
29.417 -13.93 29.042 -13.93 QT
28.48 -13.93 27.972 -13.672 QT
27.464 -13.414 27.136 -12.945 QT
26.808 -12.43 26.714 -11.82 QT
26.62 -11.211 26.62 -10.367 QT
26.62 -9.367 26.792 -8.563 QT
26.964 -7.758 27.495 -7.211 QT
28.027 -6.664 29.042 -6.664 QT
cp}def
f-1279739253
f
GR
GS
[0 -0.75 0.75 0 25.34995 151.12487] CT
0.149 GC
N
/f1731924326{33.936 -6.289 M
33.936 -9.227 L
33.936 -9.367 34.092 -9.367 QT
34.311 -9.367 L
34.42 -9.367 34.452 -9.227 QT
34.967 -6.602 36.889 -6.602 QT
37.733 -6.602 38.311 -6.992 QT
38.889 -7.383 38.889 -8.195 QT
38.889 -8.774 38.444 -9.18 QT
37.999 -9.586 37.374 -9.742 QT
36.17 -9.977 L
35.561 -10.102 35.069 -10.375 QT
34.577 -10.649 34.256 -11.102 QT
33.936 -11.555 33.936 -12.149 QT
33.936 -12.945 34.358 -13.453 QT
34.78 -13.961 35.444 -14.18 QT
36.108 -14.399 36.889 -14.399 QT
37.811 -14.399 38.499 -13.914 QT
39.014 -14.367 L
39.014 -14.399 39.092 -14.399 QT
39.233 -14.399 L
39.28 -14.399 39.327 -14.352 QT
39.374 -14.305 39.374 -14.258 QT
39.374 -11.899 L
39.374 -11.727 39.233 -11.727 QT
39.014 -11.727 L
38.858 -11.727 38.858 -11.899 QT
38.858 -12.836 38.334 -13.406 QT
37.811 -13.977 36.874 -13.977 QT
36.061 -13.977 35.467 -13.68 QT
34.874 -13.383 34.874 -12.649 QT
34.874 -12.149 35.295 -11.828 QT
35.717 -11.508 36.295 -11.367 QT
37.514 -11.149 L
38.139 -11.008 38.67 -10.672 QT
39.202 -10.336 39.514 -9.828 QT
39.827 -9.32 39.827 -8.68 QT
39.827 -8.024 39.6 -7.547 QT
39.374 -7.07 38.975 -6.75 QT
38.577 -6.43 38.03 -6.281 QT
37.483 -6.133 36.889 -6.133 QT
35.764 -6.133 34.967 -6.883 QT
34.295 -6.18 L
34.295 -6.133 34.202 -6.133 QT
34.092 -6.133 L
33.936 -6.133 33.936 -6.289 QT
cp}def
f1731924326
f
GR
GS
[0 -0.75 0.75 0 25.34995 151.12487] CT
0.149 GC
N
/f-405958647{40.878 -6.289 M
40.878 -9.227 L
40.878 -9.367 41.034 -9.367 QT
41.253 -9.367 L
41.363 -9.367 41.394 -9.227 QT
41.909 -6.602 43.831 -6.602 QT
44.675 -6.602 45.253 -6.992 QT
45.831 -7.383 45.831 -8.195 QT
45.831 -8.774 45.386 -9.18 QT
44.941 -9.586 44.316 -9.742 QT
43.113 -9.977 L
42.503 -10.102 42.011 -10.375 QT
41.519 -10.649 41.199 -11.102 QT
40.878 -11.555 40.878 -12.149 QT
40.878 -12.945 41.3 -13.453 QT
41.722 -13.961 42.386 -14.18 QT
43.05 -14.399 43.831 -14.399 QT
44.753 -14.399 45.441 -13.914 QT
45.956 -14.367 L
45.956 -14.399 46.034 -14.399 QT
46.175 -14.399 L
46.222 -14.399 46.269 -14.352 QT
46.316 -14.305 46.316 -14.258 QT
46.316 -11.899 L
46.316 -11.727 46.175 -11.727 QT
45.956 -11.727 L
45.8 -11.727 45.8 -11.899 QT
45.8 -12.836 45.277 -13.406 QT
44.753 -13.977 43.816 -13.977 QT
43.003 -13.977 42.409 -13.68 QT
41.816 -13.383 41.816 -12.649 QT
41.816 -12.149 42.238 -11.828 QT
42.659 -11.508 43.238 -11.367 QT
44.456 -11.149 L
45.081 -11.008 45.613 -10.672 QT
46.144 -10.336 46.456 -9.828 QT
46.769 -9.32 46.769 -8.68 QT
46.769 -8.024 46.542 -7.547 QT
46.316 -7.07 45.917 -6.75 QT
45.519 -6.43 44.972 -6.281 QT
44.425 -6.133 43.831 -6.133 QT
42.706 -6.133 41.909 -6.883 QT
41.238 -6.18 L
41.238 -6.133 41.144 -6.133 QT
41.034 -6.133 L
40.878 -6.133 40.878 -6.289 QT
cp}def
f-405958647
f
GR
GS
[0 -0.75 0.75 0 25.34995 151.12487] CT
0.149 GC
N
/f1512734682{58.671 -1.867 M
57.671 -2.664 56.945 -3.688 QT
56.218 -4.711 55.757 -5.867 QT
55.296 -7.024 55.07 -8.289 QT
54.843 -9.555 54.843 -10.836 QT
54.843 -12.133 55.07 -13.399 QT
55.296 -14.664 55.765 -15.828 QT
56.234 -16.992 56.968 -18.016 QT
57.703 -19.039 58.671 -19.805 QT
58.671 -19.836 58.765 -19.836 QT
58.937 -19.836 L
58.984 -19.836 59.031 -19.789 QT
59.078 -19.742 59.078 -19.68 QT
59.078 -19.602 59.031 -19.57 QT
58.156 -18.695 57.57 -17.711 QT
56.984 -16.727 56.632 -15.617 QT
56.281 -14.508 56.117 -13.32 QT
55.953 -12.133 55.953 -10.836 QT
55.953 -5.117 59.015 -2.149 QT
59.078 -2.086 59.078 -1.992 QT
59.078 -1.945 59.023 -1.891 QT
58.968 -1.836 58.937 -1.836 QT
58.765 -1.836 L
58.671 -1.836 58.671 -1.867 QT
cp}def
f1512734682
f
GR
GS
[0 -0.75 0.75 0 25.34995 151.12487] CT
0.149 GC
N
/f536677182{64.328 -6.133 M
63.266 -6.133 62.391 -6.711 QT
61.516 -7.289 61.024 -8.227 QT
60.532 -9.164 60.532 -10.227 QT
60.532 -11.305 61.063 -12.242 QT
61.594 -13.18 62.508 -13.735 QT
63.422 -14.289 64.532 -14.289 QT
65.188 -14.289 65.774 -14.016 QT
66.36 -13.742 66.797 -13.242 QT
66.797 -16.992 L
66.797 -17.477 66.649 -17.688 QT
66.5 -17.899 66.235 -17.945 QT
65.969 -17.992 65.391 -17.992 QT
65.391 -18.633 L
68.063 -18.82 L
68.063 -7.977 L
68.063 -7.492 68.203 -7.281 QT
68.344 -7.07 68.618 -7.024 QT
68.891 -6.977 69.453 -6.977 QT
69.453 -6.336 L
66.735 -6.133 L
66.735 -7.274 L
66.282 -6.727 65.633 -6.43 QT
64.985 -6.133 64.328 -6.133 QT
cp
62.5 -7.899 M
62.797 -7.305 63.313 -6.953 QT
63.828 -6.602 64.438 -6.602 QT
65.188 -6.602 65.813 -7.039 QT
66.438 -7.477 66.735 -8.149 QT
66.735 -12.477 L
66.532 -12.867 66.211 -13.18 QT
65.891 -13.492 65.493 -13.656 QT
65.094 -13.82 64.641 -13.82 QT
63.703 -13.82 63.133 -13.289 QT
62.563 -12.758 62.328 -11.93 QT
62.094 -11.102 62.094 -10.211 QT
62.094 -9.477 62.172 -8.945 QT
62.25 -8.414 62.5 -7.899 QT
cp}def
f536677182
f
GR
GS
[0 -0.75 0.75 0 25.34995 151.12487] CT
0.149 GC
N
/f-2022708040{70.325 -6.336 M
70.325 -6.977 L
72.184 -6.977 72.184 -7.539 QT
72.184 -17.43 L
72.184 -17.992 70.325 -17.992 QT
70.325 -18.633 L
76.95 -18.633 L
77.856 -18.633 78.794 -18.274 QT
79.731 -17.914 80.341 -17.219 QT
80.95 -16.524 80.95 -15.57 QT
80.95 -14.477 80.052 -13.735 QT
79.153 -12.992 77.95 -12.758 QT
78.731 -12.758 79.552 -12.328 QT
80.372 -11.899 80.903 -11.18 QT
81.434 -10.461 81.434 -9.649 QT
81.434 -8.664 80.848 -7.906 QT
80.263 -7.149 79.333 -6.742 QT
78.403 -6.336 77.466 -6.336 QT
70.325 -6.336 L
cp
73.747 -7.539 M
73.747 -7.149 73.966 -7.063 QT
74.184 -6.977 74.669 -6.977 QT
76.95 -6.977 L
77.653 -6.977 78.255 -7.344 QT
78.856 -7.711 79.208 -8.328 QT
79.559 -8.945 79.559 -9.649 QT
79.559 -10.336 79.27 -10.992 QT
78.981 -11.649 78.442 -12.07 QT
77.903 -12.492 77.2 -12.492 QT
73.747 -12.492 L
73.747 -7.539 L
cp
73.747 -12.961 M
76.45 -12.961 L
76.997 -12.961 77.473 -13.156 QT
77.95 -13.352 78.333 -13.727 QT
78.716 -14.102 78.919 -14.57 QT
79.122 -15.039 79.122 -15.57 QT
79.122 -16.039 78.973 -16.469 QT
78.825 -16.899 78.528 -17.25 QT
78.231 -17.602 77.825 -17.797 QT
77.419 -17.992 76.95 -17.992 QT
74.669 -17.992 L
74.341 -17.992 74.161 -17.969 QT
73.981 -17.945 73.864 -17.82 QT
73.747 -17.695 73.747 -17.43 QT
73.747 -12.961 L
cp}def
f-2022708040
f
GR
GS
[0 -0.75 0.75 0 25.34995 151.12487] CT
0.149 GC
N
/f396802413{83.354 -1.836 M
83.198 -1.836 83.198 -1.992 QT
83.198 -2.07 83.229 -2.102 QT
86.307 -5.117 86.307 -10.836 QT
86.307 -16.555 83.26 -19.524 QT
83.198 -19.57 83.198 -19.68 QT
83.198 -19.742 83.245 -19.789 QT
83.292 -19.836 83.354 -19.836 QT
83.526 -19.836 L
83.573 -19.836 83.604 -19.805 QT
84.901 -18.789 85.76 -17.328 QT
86.62 -15.867 87.018 -14.211 QT
87.417 -12.555 87.417 -10.836 QT
87.417 -9.555 87.206 -8.32 QT
86.995 -7.086 86.526 -5.891 QT
86.057 -4.695 85.331 -3.68 QT
84.604 -2.664 83.604 -1.867 QT
83.573 -1.836 83.526 -1.836 QT
83.354 -1.836 L
cp}def
f396802413
f
GR
GS
[0.75 0 0 0.75 0 0] CT
1 LJ
2.667 LW
N
73 31 M
217.667 116.25 L
362.333 244.125 L
507 372 L
S
GR
%%Trailer
%%Pages: 1
%%EOF
